<?xml version="1.0" encoding="UTF-8" standalone="no"?>
<!-- Created with Inkscape (http://www.inkscape.org/) -->

<svg
   xmlns:dc="http://purl.org/dc/elements/1.1/"
   xmlns:cc="http://creativecommons.org/ns#"
   xmlns:rdf="http://www.w3.org/1999/02/22-rdf-syntax-ns#"
   xmlns:svg="http://www.w3.org/2000/svg"
   xmlns="http://www.w3.org/2000/svg"
   xmlns:sodipodi="http://sodipodi.sourceforge.net/DTD/sodipodi-0.dtd"
   xmlns:inkscape="http://www.inkscape.org/namespaces/inkscape"
   width="210mm"
   height="297mm"
   viewBox="0 0 210 297"
   version="1.1"
   id="svg8"
   inkscape:version="0.92.3 (2405546, 2018-03-11)"
   sodipodi:docname="eletronicaA6_02.svg"
   inkscape:export-filename="/home/simoes/Documents/eletronicaA6_02.png"
   inkscape:export-xdpi="96"
   inkscape:export-ydpi="96">
  <defs
     id="defs2" />
  <sodipodi:namedview
     id="base"
     pagecolor="#ffffff"
     bordercolor="#666666"
     borderopacity="1.0"
     inkscape:pageopacity="0.0"
     inkscape:pageshadow="2"
     inkscape:zoom="0.7"
     inkscape:cx="-31.535913"
     inkscape:cy="660.64492"
     inkscape:document-units="mm"
     inkscape:current-layer="layer1"
     showgrid="false"
     inkscape:window-width="1366"
     inkscape:window-height="741"
     inkscape:window-x="0"
     inkscape:window-y="27"
     inkscape:window-maximized="1" />
  <metadata
     id="metadata5">
    <rdf:RDF>
      <cc:Work
         rdf:about="">
        <dc:format>image/svg+xml</dc:format>
        <dc:type
           rdf:resource="http://purl.org/dc/dcmitype/StillImage" />
        <dc:title />
      </cc:Work>
    </rdf:RDF>
  </metadata>
  <g
     inkscape:label="Layer 1"
     inkscape:groupmode="layer"
     id="layer1">
    <path
       style="fill:none;stroke:#000000;stroke-width:0.26458332px;stroke-linecap:butt;stroke-linejoin:miter;stroke-opacity:1"
       d="m 101.67559,109.52381 c 0,2.89782 0,5.79563 0,8.69345 0,0.75595 0,1.5119 0,2.26786 0,0.62996 -0.0696,1.26377 0,1.88988 0.0574,0.5163 0.31355,0.99644 0.37798,1.5119 0.0625,0.50008 -0.0625,1.01183 0,1.51191 0.0644,0.51547 0.31354,0.99644 0.37798,1.5119 0.0625,0.50008 -0.0557,1.01102 0,1.51191 0.0709,0.6385 0.29829,1.2524 0.37797,1.88988 0.0469,0.37505 0,0.75595 0,1.13393 0,0.50396 0,1.00793 0,1.5119 0,0.25199 -0.0494,0.50886 0,0.75595 0.0781,0.39069 0.28135,0.74741 0.37798,1.13393 0.0306,0.12223 -0.0398,0.25845 0,0.37798 0.0891,0.26727 0.28888,0.48868 0.37797,0.75595 0.10142,0.30423 -0.12076,1.27037 0,1.51191 0.0797,0.15936 0.2983,0.2186 0.37798,0.37797 0.0563,0.11269 0,0.25198 0,0.37798 0,0.37798 0,0.75595 0,1.13393 0,1.13392 0,2.26785 0,3.40178 0,0.0987 0.0633,2.07783 0,2.26786 -0.0891,0.26727 -0.17877,0.55674 -0.37798,0.75595 -0.0891,0.0891 -0.28888,-0.0891 -0.37797,0 -0.0891,0.0891 0.0891,0.28889 0,0.37798 -0.17818,0.17818 -0.57777,-0.17818 -0.75595,0 -0.0891,0.0891 0.0891,0.28888 0,0.37798 -0.17818,0.17817 -0.5169,-0.0797 -0.75596,0 -0.26727,0.0891 -0.48868,0.28888 -0.75595,0.37797 -0.23905,0.0797 -0.57777,-0.17818 -0.75595,0 -0.0891,0.0891 0.0891,0.28889 0,0.37798 -0.0773,0.0773 -0.984065,-0.0749 -1.13393,0 -0.318736,0.15937 -0.437214,0.59658 -0.755952,0.75595 -0.112691,0.0563 -0.265285,-0.0564 -0.377976,0 -0.159369,0.0797 -0.229722,0.27914 -0.377976,0.37797 -0.23441,0.15628 -0.521541,0.22171 -0.755951,0.37798 -0.148257,0.0988 -0.21861,0.29829 -0.377979,0.37798 -0.22538,0.11269 -0.530569,-0.11269 -0.755951,0 -0.15937,0.0797 -0.218607,0.29829 -0.377976,0.37797 -0.112692,0.0564 -0.288886,-0.0891 -0.377976,0 -0.08909,0.0891 0.08909,0.28889 0,0.37798 -0.07727,0.0773 -0.984065,-0.0749 -1.13393,0 -0.159367,0.0797 -0.251984,0.25198 -0.377976,0.37798 -0.125992,0.12599 -0.251984,0.25198 -0.377976,0.37797"
       id="path10"
       inkscape:connector-curvature="0" />
    <path
       style="fill:none;stroke:#000000;stroke-width:0.26458332px;stroke-linecap:butt;stroke-linejoin:miter;stroke-opacity:1"
       d="m 93.360117,142.02976 c -0.402685,2.01343 -0.377976,1.24744 -0.377976,2.26786 0,0.12599 0.05635,0.26528 0,0.37797 -0.07968,0.15937 -0.334761,0.20512 -0.377975,0.37798 -0.09167,0.36669 0,0.75595 0,1.13393 0,0.25198 0,0.50397 0,0.75595 0,1.25992 0,2.51984 0,3.77976 0,3.27579 0,6.55159 0,9.82738"
       id="path12"
       inkscape:connector-curvature="0" />
    <path
       style="fill:none;stroke:#000000;stroke-width:0.26458332px;stroke-linecap:butt;stroke-linejoin:miter;stroke-opacity:1"
       d="m 92.982139,150.72321 c 0.755954,1.6379 1.511906,3.27579 2.26786,4.91369 0,0.12599 -0.08909,0.28889 0,0.37798 0.08909,0.0891 0.273145,-0.0699 0.377976,0 0.29651,0.19767 0.470865,0.54213 0.755951,0.75595 0.225383,0.16904 0.556742,0.17877 0.755954,0.37798 0.199211,0.19921 0.221703,0.52154 0.377976,0.75595 0.197673,0.29651 0.503968,0.50397 0.755952,0.75595 0.251984,0.25199 0.503968,0.50397 0.755952,0.75595 0.251986,0.25199 0.459443,0.55828 0.755954,0.75596 0.05632,0.0375 1.009796,0 1.133926,0"
       id="path14"
       inkscape:connector-curvature="0" />
    <path
       style="fill:none;stroke:#000000;stroke-width:0.26458332px;stroke-linecap:butt;stroke-linejoin:miter;stroke-opacity:1"
       d="m 101.0947,158.42075 c 0,0.44545 0,0.89089 0,1.33634 0,0.22273 0,0.44545 0,0.66818 0,0.0959 -0.0199,0.2547 0,0.33408 0.008,0.0306 0.0527,0.0386 0.0668,0.0668 0.01,0.0199 0,0.0446 0,0.0668 0,0.0223 0.01,0.0469 0,0.0668 -0.0141,0.0282 -0.0527,0.0386 -0.0668,0.0668 -0.01,0.0199 0.0157,0.0511 0,0.0668 -0.0157,0.0158 -0.0446,0 -0.0668,0 -0.0223,0 -0.0891,0 -0.0668,0 0.0446,0 0.17818,0 0.13364,0 -0.11137,0 -0.22273,0 -0.33409,0 -0.0445,0 -0.0897,0.007 -0.13363,0 -0.11203,-0.0187 -0.22391,-0.0393 -0.33409,-0.0668 -0.13666,-0.0342 -0.26546,-0.0949 -0.400906,-0.13364 -0.0883,-0.0252 -0.18015,-0.0378 -0.267269,-0.0668 -0.04725,-0.0157 -0.08639,-0.0511 -0.133633,-0.0668 -0.02114,-0.007 -0.04569,0.007 -0.06682,0 -0.04725,-0.0157 -0.08532,-0.0547 -0.133636,-0.0668 -0.06921,-0.0173 -0.190653,0 -0.267269,0 -0.03009,0 -0.180117,-0.0102 -0.200453,0 -0.05634,0.0282 -0.08122,0.0987 -0.133633,0.13363 -0.04144,0.0276 -0.08909,0.0446 -0.133636,0.0668"
       id="path16"
       inkscape:connector-curvature="0" />
    <path
       style="fill:none;stroke:#000000;stroke-width:0.26458332px;stroke-linecap:butt;stroke-linejoin:miter;stroke-opacity:1"
       d="m 100.91964,160.17262 c 0.60224,1.31216 0.25051,0.92946 0.7096,1.38854 0.0223,0.0223 0.0493,0.0406 0.0668,0.0668 0.14721,0.0336 0.0353,0.13746 0.0668,0.20045 0.0141,0.0282 0.0422,0.0471 0.0668,0.0668 0.087,0.0696 0.17665,0.13573 0.26727,0.20045 0.0653,0.0467 0.13774,0.0835 0.20045,0.13364 0.0492,0.0393 0.0812,0.0987 0.13363,0.13363 0.0185,0.0124 0.0469,-0.01 0.0668,0 0.0282,0.0141 0.0446,0.0446 0.0668,0.0668 0.0446,0.0446 0.0832,0.0958 0.13364,0.13363 0.0398,0.0299 0.0947,0.0357 0.13363,0.0668 0.0738,0.059 0.11841,0.15357 0.20045,0.20046 0.0797,0.0456 0.18286,0.0306 0.26727,0.0668 0.002,7.9e-4 0.3945,0.26343 0.40091,0.26727 0.0427,0.0256 0.0853,0.0547 0.13363,0.0668 0.0648,0.0162 0.13706,-0.0211 0.20045,0 0.20045,0.0668 0.15591,0.11136 0.26727,0.33409 0.0223,0.0445 0.0586,0.0845 0.0668,0.13363 0.0147,0.0879 -0.0175,0.17991 0,0.26727 0.0276,0.13813 0.0891,0.26727 0.13364,0.4009 0.33462,1.00388 -0.0774,-0.25153 0.26726,0.86863 0.0414,0.13463 0.10601,0.26278 0.13364,0.40091 0.0396,0.19776 0.0253,0.40399 0.0668,0.60135 0.0479,0.22755 0.15001,0.44118 0.20045,0.66817 0.0389,0.1753 0.0356,0.35771 0.0668,0.53454 0.0357,0.20222 0.0958,0.39954 0.13363,0.60136 0.1613,0.86027 -0.0315,0.0666 0.13364,1.00226 0.0357,0.20222 0.11213,0.39715 0.13363,0.60136 0.0233,0.2215 -0.0111,0.44572 0,0.66817 0.0112,0.22356 0.0562,0.44459 0.0668,0.66818 0.0116,0.24471 0,0.48999 0,0.73499 0,0.6459 0,1.2918 0,1.9377 0,0.17818 0,0.35636 0,0.53454 0,0.20045 -0.0249,0.40245 0,0.60136 0.18371,1.46969 0.0886,-0.31658 0.20045,0.8018 0.0895,0.89531 -0.11314,-0.23163 0.0668,0.66818"
       id="path18"
       inkscape:connector-curvature="0" />
    <path
       style="fill:none;stroke:#000000;stroke-width:0.26458332px;stroke-linecap:butt;stroke-linejoin:miter;stroke-opacity:1"
       d="m 98.651784,177.55952 c -0.09228,-0.75737 0.881118,-0.25157 1.13393,-0.37798 0.07968,-0.0398 0.109302,-0.14914 0.188986,-0.18898 0.05635,-0.0282 0.13264,0.0282 0.18899,0 0.15937,-0.0797 0.21861,-0.2983 0.37798,-0.37798 0.11269,-0.0563 0.26528,0.0564 0.37797,0 0.0797,-0.0398 0.10931,-0.14915 0.18899,-0.18899 0.11269,-0.0563 0.26528,0.0564 0.37798,0 0.0797,-0.0398 0.1093,-0.14914 0.18898,-0.18899 0.0563,-0.0282 0.12788,0.0153 0.18899,0 0.19326,-0.0483 0.36897,-0.16699 0.56697,-0.18898 0.37566,-0.0417 0.75595,0 1.13392,0 0.44098,0 0.88195,0 1.32292,0 1.38592,0 2.77183,0 4.15774,0 0.31498,0 0.62996,0 0.94494,0 0.69296,0 1.38591,0 2.07887,0 0.0449,0 0.71359,0.0212 0.75595,0 0.0797,-0.0399 0.10931,-0.14915 0.18899,-0.18899 0.15119,-0.0756 0.41577,0.0756 0.56696,0 0.0797,-0.0398 0.10931,-0.14915 0.18899,-0.18899 0.13031,-0.0651 0.56697,0.14259 0.56697,-0.18899 0,-0.063 -0.126,0 -0.18899,0 -0.32985,0 -0.13264,-0.0282 -0.56697,0.18899"
       id="path20"
       inkscape:connector-curvature="0" />
    <path
       style="fill:none;stroke:#000000;stroke-width:0.26458332px;stroke-linecap:butt;stroke-linejoin:miter;stroke-opacity:1"
       d="m 103.75446,180.01637 c 0.25199,-0.12599 0.50397,-0.25199 0.75596,-0.37798 0.12599,0 0.25845,0.0398 0.37797,0 0.0845,-0.0282 0.10931,-0.14915 0.18899,-0.18899 0.0563,-0.0282 0.12599,0 0.18899,0 0.12599,0 0.25845,0.0398 0.37797,0 0.0845,-0.0282 0.10447,-0.16081 0.18899,-0.18899 0.11953,-0.0398 0.25845,0.0399 0.37798,0 0.0845,-0.0282 0.1093,-0.14914 0.18899,-0.18898 0.0563,-0.0282 0.12599,0 0.18898,0 0.126,0 0.25845,0.0398 0.37798,0 0.0845,-0.0282 0.11486,-0.13957 0.18899,-0.18899 0.1172,-0.0781 0.24434,-0.14444 0.37797,-0.18899 0.11953,-0.0398 0.25845,0.0398 0.37798,0 0.13364,-0.0445 0.24132,-0.15482 0.37798,-0.18899 0.12223,-0.0306 0.25198,0 0.37797,0 0.18899,0 0.38768,-0.0598 0.56697,0 1.34359,0.44787 -0.0328,0.37798 0.94494,0.37798 1.07477,0 0.12442,-0.0845 0.94494,0.18899 0.0598,0.0199 0.18899,-0.063 0.18899,0 0,0.063 -0.13265,-0.0282 -0.18899,0 -0.0797,0.0398 -0.11486,0.13957 -0.18899,0.18898 -0.11721,0.0781 -0.25198,0.126 -0.37798,0.18899"
       id="path22"
       inkscape:connector-curvature="0" />
    <path
       style="fill:none;stroke:#000000;stroke-width:0.26458332px;stroke-linecap:butt;stroke-linejoin:miter;stroke-opacity:1"
       d="m 106.77827,181.19754 c 0.002,0.0213 0.37776,-0.0158 0.42523,0 0.0211,0.007 0.0273,0.0373 0.0472,0.0472 0.0141,0.007 0.0315,0 0.0473,0 0.0473,0 0.0945,0 0.14174,0 0.0945,0 0.18899,0 0.28348,0"
       id="path26"
       inkscape:connector-curvature="0" />
    <path
       style="fill:none;stroke:#000000;stroke-width:0.26458332px;stroke-linecap:butt;stroke-linejoin:miter;stroke-opacity:1"
       d="m 92.982139,150.72321 c -1.190935,0.61266 -1.115312,0.56697 -2.078866,0.56697 -0.063,0 -0.132644,-0.0282 -0.188989,0 -0.480132,0.24006 0.193548,0.22587 -0.566963,0.37797 -0.185319,0.0371 -0.381648,-0.0371 -0.566965,0 -0.342058,-0.11391 -0.351485,0.30615 -0.566965,0.37798 -0.239053,0.0797 -0.511492,-0.0611 -0.755951,0 -0.136658,0.0342 -0.244343,0.14444 -0.377976,0.18899 -0.05976,0.0199 -0.132644,-0.0282 -0.188989,0 -0.159369,0.0797 -0.208939,0.32163 -0.377976,0.37797 -0.119526,0.0398 -0.25845,-0.0398 -0.377976,0 -0.08452,0.0282 -0.109305,0.14915 -0.188989,0.18899 -0.05635,0.0282 -0.125992,0 -0.188987,0 -0.125992,0 -0.251984,0 -0.377976,0 -0.314981,0 -0.629962,0 -0.94494,0 -0.377976,0 -0.760349,0.0575 -1.13393,0 -0.453285,-0.0697 -0.877991,-0.26674 -1.322917,-0.37798 -0.311626,-0.0779 -0.628904,-0.13152 -0.944941,-0.18898 -2.576375,-0.46843 0.304324,0.0253 -2.267855,-0.18899 -0.381868,-0.0318 -0.755195,-0.13072 -1.13393,-0.18899 -0.440269,-0.0677 -0.884653,-0.1093 -1.322916,-0.18899 -0.255551,-0.0465 -0.498825,-0.15225 -0.755952,-0.18899 -0.346297,-0.0495 -0.77415,0 -1.13393,0"
       id="path28"
       inkscape:connector-curvature="0" />
    <text
       xml:space="preserve"
       style="font-style:normal;font-weight:normal;font-size:4.23333311px;line-height:1.25;font-family:sans-serif;letter-spacing:0px;word-spacing:0px;fill:#000000;fill-opacity:1;stroke:none;stroke-width:0.26458332"
       x="76.540176"
       y="146.37648"
       id="text32"><tspan
         sodipodi:role="line"
         id="tspan30"
         x="76.540176"
         y="146.37648"
         style="stroke-width:0.26458332">b</tspan></text>
    <text
       xml:space="preserve"
       style="font-style:normal;font-weight:normal;font-size:4.23333311px;line-height:1.25;font-family:sans-serif;letter-spacing:0px;word-spacing:0px;fill:#000000;fill-opacity:1;stroke:none;stroke-width:0.26458332"
       x="97.895836"
       y="142.78571"
       id="text36"><tspan
         sodipodi:role="line"
         id="tspan34"
         x="97.895836"
         y="142.78571"
         style="stroke-width:0.26458332">c</tspan></text>
    <text
       xml:space="preserve"
       style="font-style:normal;font-weight:normal;font-size:4.23333311px;line-height:1.25;font-family:sans-serif;letter-spacing:0px;word-spacing:0px;fill:#000000;fill-opacity:1;stroke:none;stroke-width:0.26458332"
       x="101.0947"
       y="158.42076"
       id="text40"><tspan
         sodipodi:role="line"
         id="tspan38"
         x="101.0947"
         y="158.42076"
         style="stroke-width:0.26458332">e</tspan></text>
    <path
       style="fill:none;stroke:#000000;stroke-width:0.26458332px;stroke-linecap:butt;stroke-linejoin:miter;stroke-opacity:1"
       d="m 101.67559,109.52381 c 0.18899,0.62996 0.3227,1.27922 0.56697,1.88988 0.0984,0.2459 0.24614,-0.14509 0.37797,-0.18899 0.11953,-0.0398 0.25199,0 0.37798,0 0.063,0 0.13269,0.0282 0.18899,0 0.0797,-0.0398 0.10929,-0.14909 0.18899,-0.18899 0.0563,-0.0282 0.13268,0.0282 0.18898,0 0.0797,-0.0398 0.10929,-0.14918 0.18899,-0.18898 0.11879,-0.0594 0.63717,0.0594 0.75596,0 0.0797,-0.0398 0.10928,-0.14919 0.18898,-0.18899 0.11295,-0.0565 0.37798,0.12441 0.37798,-0.18899 0,-0.0891 -0.12599,-0.12599 -0.18899,-0.18899 -0.063,-0.063 -0.12599,-0.12599 -0.18899,-0.18899 -0.063,-0.063 -0.10258,-0.16739 -0.18898,-0.18899 -0.18335,-0.0458 -0.38362,0.0458 -0.56697,0 -0.0864,-0.0216 -0.12599,-0.12598 -0.18899,-0.18898 -0.12599,-0.126 -0.25198,-0.25199 -0.37797,-0.37798 -0.10757,-0.10757 -0.9467,-0.99351 -1.13393,-1.13393 -0.4181,-0.31358 -0.80352,-0.20484 -1.32292,-0.37798 -0.53454,-0.17817 -0.984326,-0.55811 -1.511902,-0.75595 -0.243202,-0.0912 -0.518602,-0.0835 -0.755954,-0.18898 -0.335667,-0.14919 -0.623838,-0.38858 -0.944941,-0.56697 -0.246272,-0.13682 -0.511344,-0.2382 -0.755952,-0.37798 -0.197207,-0.11269 -0.377976,-0.25198 -0.566965,-0.37797 -0.06299,-0.063 -0.112596,-0.14319 -0.188986,-0.18899 -0.241578,-0.14495 -0.521542,-0.2217 -0.755952,-0.37798 -0.148257,-0.0988 -0.238842,-0.26666 -0.377978,-0.37797 -0.354725,-0.28378 -0.81271,-0.43474 -1.133928,-0.75596 -0.222723,-0.22272 -0.365318,-0.51397 -0.566965,-0.75595 -0.114067,-0.13688 -0.251984,-0.25198 -0.377976,-0.37797 -0.413903,-0.41391 -0.388659,-0.43808 -0.944941,-0.75596 -0.256592,-0.14662 -0.747942,-0.50664 -1.133927,-0.37797 -0.08452,0.0282 -0.251989,0.12599 -0.188989,0.18899 0.063,0.063 0.104469,-0.16079 0.188989,-0.18899 0.119526,-0.0398 0.25845,0.0398 0.377976,0 0.08452,-0.0282 0.109309,-0.14919 0.188989,-0.18899 0.05634,-0.0282 0.129227,0.0199 0.188987,0 0.267269,-0.0891 0.494376,-0.27335 0.755951,-0.37798 0.184965,-0.074 0.382003,-0.11499 0.566965,-0.18899 0.130789,-0.0523 0.244343,-0.14448 0.377976,-0.18898 0.05976,-0.0199 0.127869,0.0153 0.188989,0 0.193263,-0.0483 0.3737,-0.14069 0.566965,-0.18899 0.06111,-0.0153 0.132637,0.0282 0.188987,0 0.07968,-0.0398 0.109309,-0.14919 0.188989,-0.18899 0.05635,-0.0282 0.144447,0.0446 0.188987,0 0.09961,-0.0996 0.07178,-0.299836 0.188989,-0.377976 0.104831,-0.06989 0.255746,0.03056 0.377976,0 0.386527,-0.09663 0.748958,-0.275317 1.133927,-0.377976 0.561187,-0.149648 1.144593,-0.211084 1.700895,-0.377976 0.706253,-0.211875 1.365396,-0.569827 2.078869,-0.755951 0.74156,-0.193453 1.52232,-0.200467 2.26786,-0.377976 0.58138,-0.138425 1.13392,-0.377976 1.70089,-0.566965 0.37798,-0.125992 0.764,-0.230005 1.13393,-0.377976 0.26157,-0.104632 0.497,-0.266999 0.75595,-0.377976 0.1831,-0.07847 0.38879,-0.0999 0.56696,-0.188989 0.20316,-0.101579 0.36381,-0.276397 0.56697,-0.377976 0.17818,-0.08909 0.382,-0.114999 0.56696,-0.188989 0.26158,-0.104629 0.48869,-0.288886 0.75596,-0.377976 0.0598,-0.01992 0.12918,0.01992 0.18898,0 0.13364,-0.04454 0.24434,-0.144446 0.37798,-0.188986 0.0598,-0.01992 0.12919,0.01992 0.18899,0 0.39687,-0.132292 0.73705,-0.434674 1.13393,-0.566965 0.0598,-0.01992 0.13268,0.02817 0.18898,0 0.0797,-0.03984 0.10929,-0.14915 0.18899,-0.18899 0.0563,-0.02817 0.13269,0.02817 0.18899,0 0.0797,-0.03984 0.12599,-0.125986 0.18899,-0.188986 0.063,0 0.12919,0.01992 0.18899,0 0.14924,-0.04975 0.50546,-0.122994 0.37797,-0.377976 -0.15626,-0.312531 -0.15453,-0.133129 -0.37797,-0.188989 -0.19327,-0.04832 -0.38879,-0.0999 -0.56697,-0.188987 -0.20315,-0.101579 -0.3638,-0.276399 -0.56696,-0.377978 -0.17818,-0.08909 -0.38879,-0.0999 -0.56697,-0.188987 -1.36371,-0.681871 0.33373,-0.0933 -1.32291,-0.755951 -0.24116,-0.09647 -0.5942,0.324969 -0.75596,-0.18899 -0.0797,-0.03984 -0.10928,-0.149149 -0.18898,-0.188989 -0.17818,-0.08909 -0.38879,-0.0999 -0.56697,-0.188986 -0.32854,-0.164275 -0.61639,-0.402691 -0.94494,-0.566965 -0.17818,-0.08909 -0.38386,-0.110517 -0.56696,-0.188987 -0.25895,-0.110979 -0.49438,-0.273346 -0.75595,-0.377978 -0.55489,-0.221954 -1.15159,-0.331545 -1.7009,-0.566963 -0.25894,-0.110979 -0.497,-0.266999 -0.75595,-0.377976 -1.94655,-0.834234 1.18426,0.686623 -1.32292,-0.566965 -1.051288,-0.467241 -0.770414,-0.239022 -1.70089,-0.755951 -0.321101,-0.17839 -0.62996,-0.377979 -0.944939,-0.566965 -0.188989,-0.125992 -0.369758,-0.265287 -0.566965,-0.377976 -0.366911,-0.209664 -0.771559,-0.349544 -1.13393,-0.566965 -1.999043,-1.199428 1.237245,0.655158 -1.322916,-0.944941 -0.238903,-0.149315 -0.503968,-0.251984 -0.755952,-0.377976 -0.125992,-0.063 -0.265285,-0.104469 -0.377976,-0.188989 -0.142544,-0.106908 -0.251984,-0.251984 -0.377976,-0.377976 -0.251984,-0.251984 -0.503967,-0.503968 -0.755951,-0.755951 -0.188989,-0.18899 -0.406604,-0.35315 -0.566965,-0.566966 -0.0378,-0.05039 0,-0.125986 0,-0.188986 0,-0.188989 0,-0.377976 0,-0.566965 0,-0.251984 -0.04942,-0.508863 0,-0.755952 0.04277,-0.213873 0.774686,-0.453461 0.944941,-0.566965 0.07412,-0.04942 0.109306,-0.149149 0.188986,-0.188989 0.178181,-0.08909 0.471795,0.227386 0.566965,-0.188987 0.07413,-0.04942 0.109309,-0.149149 0.188989,-0.188989 0.05634,-0.02817 0.132637,0.02817 0.188987,0 0.07968,-0.03984 0.114859,-0.139566 0.188989,-0.188986 0.117205,-0.07814 0.251984,-0.12599 0.377976,-0.18899 0.125992,-0.06299 0.24434,-0.144446 0.377976,-0.188986 0.05976,-0.01992 0.132639,0.02817 0.188989,0 0.07969,-0.03984 0.109297,-0.149149 0.188987,-0.188989 0.232317,-0.11616 0.622165,0.387246 0.755951,-0.18899 0.07968,-0.03984 0.125999,-0.125996 0.188989,-0.188986 0.063,0 0.13264,0.02817 0.18899,0 0.159366,-0.07968 0.208938,-0.321626 0.377975,-0.377976 0.170088,-0.0567 0.396875,0.0567 0.566963,0 1.36892,-0.456306 -0.297958,0.05449 0.566965,-0.377976 0.05635,-0.02817 0.132639,0.02817 0.188989,0 0.07969,-0.03984 0.109297,-0.149149 0.188987,-0.188989 0.05634,-0.02817 0.129229,0.01992 0.188989,0 0.133636,-0.04454 0.251984,-0.125989 0.377976,-0.188989 0.335978,-0.16799 0.555717,-0.300126 0.944941,-0.377976 0.12354,-0.02471 0.25575,0.03056 0.37798,0 0.27331,-0.06833 0.49437,-0.273344 0.75595,-0.377976 1.39041,-0.556145 -0.39774,0.293365 1.32291,-0.566965 -0.31498,-0.62996 -0.70805,-1.226595 -0.94493,-1.889879 -0.0848,-0.237304 0,-0.503968 0,-0.755952 0,-0.251984 0,-0.503968 0,-0.755953 0,-1.070932 0,-2.141865 0,-3.212797 0,-0.566965 0,-1.133929 0,-1.700893 0,-0.188988 0.0371,-0.381646 0,-0.566964 -0.0276,-0.138128 -0.16137,-0.239849 -0.18899,-0.377977 -0.0371,-0.185318 0,-0.377976 0,-0.566964 0,-0.063 0.0153,-0.127873 0,-0.188988 -0.1736,-0.694382 -0.18899,-0.399872 -0.18899,-0.94494"
       id="path42"
       inkscape:connector-curvature="0" />
    <path
       style="fill:none;stroke:#000000;stroke-width:0.26458332px;stroke-linecap:butt;stroke-linejoin:miter;stroke-opacity:1"
       d="m 102.24256,59.063987 c -0.647,-0.290295 -0.61639,0.402691 -0.94494,0.566965 -0.0563,0.02817 -0.16907,-0.05976 -0.18899,0 -0.0598,0.17929 0.0519,0.385247 0,0.566963 -0.12599,0.251986 -0.25198,0.50397 -0.37798,0.755954 -0.063,0.06299 -0.14914,0.109302 -0.18898,0.188986 -0.0891,0.178181 -0.0865,0.396143 -0.18899,0.566965 -0.0917,0.152789 -0.27107,0.235432 -0.37798,0.377976 -0.08452,0.112692 -0.125992,0.251984 -0.188986,0.377976 -0.2506,0.5012 -0.188989,0.403545 -0.188989,0.944941 0,0.818949 0,1.637898 0,2.456847 0,0.251984 -0.07969,0.516898 0,0.755951 0.256153,0.768461 0.298831,0.41311 0.755955,0.755952 0.14254,0.106907 0.22519,0.286303 0.37797,0.377976 0.48975,0.293846 1.15592,0.188989 1.7009,0.188989 0.15214,0 0.63733,0.03954 0.75595,0 0.26727,-0.08909 0.48868,-0.288888 0.75595,-0.377976 0.56259,-0.187529 -0.38777,0.447498 0.56697,-0.188989 0.0741,-0.04942 0.1093,-0.149146 0.18898,-0.188987 0.0564,-0.02817 0.126,0 0.18899,0 0.12599,-0.063 0.26077,-0.110852 0.37798,-0.188989 0.0741,-0.04942 0.1093,-0.149146 0.18899,-0.188989 0.20219,-0.101095 0.17578,0.101094 0.37797,0 0.0797,-0.03984 0.12599,-0.125992 0.18899,-0.188987 0.063,-0.063 0.16081,-0.10447 0.18899,-0.188989 0.0398,-0.119526 -0.0563,-0.265284 0,-0.377976 0.0797,-0.159369 0.25198,-0.251984 0.37797,-0.377976 0.3871,-0.387098 0.12527,-0.06044 0.37798,-0.94494 0.219,-0.766482 0.18899,-0.435581 0.18899,-1.133928 0,-0.063 0,-0.125992 0,-0.188989 0,-0.063 0.0282,-0.132644 0,-0.188987 -0.0398,-0.07968 -0.13957,-0.114861 -0.18899,-0.188989 -0.0781,-0.117205 -0.11085,-0.260771 -0.18899,-0.377976 -0.0494,-0.07413 -0.12599,-0.125992 -0.18899,-0.188989 -0.063,-0.063 -0.1093,-0.149146 -0.18898,-0.188987 -0.13054,-0.06527 -0.8786,0.06634 -0.94494,0 -1.05671,-1.056703 -0.68133,-1.040238 -1.7009,-1.889881 -0.10821,-0.09018 -0.26528,-0.104471 -0.37797,-0.188989 -0.14255,-0.106908 -0.25199,-0.251984 -0.37798,-0.377976 -0.25198,-0.251984 -0.50397,-0.503968 -0.75595,-0.755952 z"
       id="path44"
       inkscape:connector-curvature="0" />
    <path
       style="fill:none;stroke:#000000;stroke-width:0.26458332px;stroke-linecap:butt;stroke-linejoin:miter;stroke-opacity:1"
       d="m 121.51934,58.686011 c -0.54068,0.216144 -0.96523,0.188987 -1.5119,0.188987 -0.063,0 -0.12599,0 -0.18899,0 -0.063,0 -0.13264,-0.02817 -0.18899,0 -0.0797,0.03984 -0.1093,0.149148 -0.18899,0.188989 -0.11878,0.05939 -0.63717,-0.05939 -0.75595,0 -0.0797,0.03984 -0.10447,0.160817 -0.18899,0.188989 -0.11952,0.03984 -0.25198,0 -0.37797,0 -0.44097,0 -0.88195,0 -1.32292,0 -0.31498,0 -0.62996,0 -0.94494,0 -0.18899,0 -0.38165,0.03706 -0.56696,0 -0.13813,-0.02763 -0.24434,-0.144444 -0.37798,-0.188989 -0.0243,-0.0081 -0.55131,-0.0078 -0.56696,0 -0.0797,0.03984 -0.10931,0.149146 -0.18899,0.188989 -0.0563,0.02817 -0.13264,-0.02817 -0.18899,0 -0.19716,0.09858 -0.29887,0.457079 -0.37798,0.377976 -0.063,-0.063 0.16082,-0.273508 0.18899,-0.188989 0.14087,0.42259 0.0924,0.888074 0.18899,1.322917 0.0306,0.137509 0.16136,0.239847 0.18899,0.377975 0.0865,0.432409 -0.0624,0.886378 0,1.322917 0.0282,0.19721 0.15624,0.370464 0.18899,0.566965 0,1.34044 -0.13364,0.110707 0.18898,0.755952 0.13035,0.260683 -0.22887,0.169045 0.18899,0.377976 0.22161,0.110804 0.22431,-0.112152 0.37798,-0.188987 0.11269,-0.05635 0.26528,0.05635 0.37797,0 0.0797,-0.03984 0.10931,-0.149146 0.18899,-0.188989 0.11151,-0.05575 0.43698,0.04333 0.56697,0 0.13363,-0.04455 0.24434,-0.144442 0.37797,-0.188987 0.0598,-0.01992 0.13657,0.03494 0.18899,0 0.14825,-0.09884 0.22972,-0.279141 0.37798,-0.377976 0.0282,-0.01878 0.5049,0 0.56696,0 0.21876,0 0.77622,-0.04218 0.94494,0 0.39075,0.09768 0.67994,0.490948 0.94494,0.755952 0.0812,0.08116 0.74519,0.712888 0.75596,0.755952 0.034,0.135813 0,0.925546 0,1.13393 0,0.125992 0,0.251984 0,0.377975 0,0.125992 0.0398,0.258448 0,0.377976 -0.0282,0.08452 -0.14915,0.109302 -0.18899,0.188987 -0.0282,0.05634 0.0199,0.129225 0,0.188989 -0.0622,0.186476 -0.38051,0.851712 -0.56697,0.944941 -0.0563,0.02817 -0.13264,-0.02817 -0.18899,0 -0.0797,0.03984 -0.1093,0.149146 -0.18898,0.188986 -0.0564,0.02817 -0.12599,0 -0.18899,0 -0.063,0.063 -0.10931,0.149149 -0.18899,0.18899 -0.11269,0.05634 -0.26529,-0.05635 -0.37798,0 -0.0797,0.03984 -0.1093,0.149145 -0.18898,0.188989 -0.0563,0.02817 -0.12923,-0.01992 -0.18899,0 -0.13364,0.04454 -0.24434,0.144441 -0.37798,0.188987 -0.11952,0.03984 -0.26528,-0.05635 -0.37797,0 -0.0797,0.03984 -0.10931,0.149145 -0.18899,0.188989 -0.11269,0.05635 -0.26529,-0.05635 -0.37798,0 -0.0797,0.03984 -0.1093,0.149145 -0.18899,0.188986 -0.0563,0.02817 -0.13264,-0.02817 -0.18898,0 -0.86493,0.432464 0.80195,-0.07833 -0.56697,0.377976 -0.0598,0.01992 -0.13264,-0.02817 -0.18899,0 -0.0797,0.03984 -0.0999,0.188989 -0.18899,0.188989 -0.063,0 -0.0524,-0.154043 0,-0.188989 0.34325,-0.22883 0.58484,-0.188986 0.94495,-0.188986"
       id="path46"
       inkscape:connector-curvature="0" />
    <path
       style="fill:none;stroke:#000000;stroke-width:0.26458332px;stroke-linecap:butt;stroke-linejoin:miter;stroke-opacity:1"
       d="m 128.88988,59.441963 c -0.18899,0.251984 -0.4261,0.474226 -0.56696,0.755952 -0.0564,0.112691 0,0.251986 0,0.377978 0,0.251984 0,0.503968 0,0.755952 0,0.440973 0,0.881943 0,1.322916 0,0.881944 0,1.76389 0,2.645834 0,0.377975 0,0.755951 0,1.133927 0,0.125992 -0.0306,0.255746 0,0.377976 0.22815,0.912614 0.0898,-0.0094 0.37797,0.566965 0.0282,0.05635 -0.0282,0.132643 0,0.188989 0.0398,0.07969 0.12599,0.125992 0.18899,0.188987 0.063,0.063 0.0999,0.188989 0.18899,0.188989 0.0891,0 0.1093,-0.149146 0.18899,-0.188989 0.0563,-0.02817 0.13264,0.02817 0.18898,0 0.0797,-0.03984 0.10931,-0.149146 0.18899,-0.188987 0.0564,-0.02817 0.14445,0.04454 0.18899,0 0.0445,-0.04454 -0.0445,-0.144444 0,-0.188989 0.0445,-0.04454 0.12599,0 0.18899,0 0.31498,-0.314979 0.62996,-0.62996 0.94494,-0.944941 0.25198,-0.251984 0.50397,-0.503968 0.75595,-0.755952 0.25198,-0.251983 0.52404,-0.485383 0.75595,-0.755951 0.14782,-0.172456 0.22841,-0.396029 0.37798,-0.566965 0.29333,-0.335235 0.62996,-0.62996 0.94494,-0.944941 0.18899,-0.188987 0.4066,-0.353147 0.56696,-0.566965 0.0378,-0.05039 -0.0199,-0.129223 0,-0.188987 0.0445,-0.133635 0.126,-0.251984 0.18899,-0.377976 0.24656,-0.493122 0.55291,-0.930883 0.94494,-1.322916"
       id="path48"
       inkscape:connector-curvature="0" />
    <path
       style="fill:none;stroke:#000000;stroke-width:0.26458332px;stroke-linecap:butt;stroke-linejoin:miter;stroke-opacity:1"
       d="m 119.44047,88.546129 c 0,4.976688 0,9.953374 0,14.930061 0,0.69296 0,1.38591 0,2.07887 0,0.56696 -0.0932,1.14164 0,1.70089 0.0273,0.16408 0.75207,1.03749 0.94495,1.13393 0.0563,0.0282 -0.0282,-0.13264 0,-0.18899 0.0398,-0.0797 0.12599,-0.12599 0.18898,-0.18899 0.063,-0.063 0.14915,-0.1093 0.18899,-0.18899 0.0282,-0.0563 0,-0.12599 0,-0.18898 0,-0.31498 0,-0.62996 0,-0.94494 0,-0.44098 0,-0.88195 0,-1.32292"
       id="path50"
       inkscape:connector-curvature="0" />
    <path
       style="fill:none;stroke:#000000;stroke-width:0.26458332px;stroke-linecap:butt;stroke-linejoin:miter;stroke-opacity:1"
       d="m 119.44047,88.546127 c -0.25198,-0.251982 -0.6236,-0.42508 -0.75595,-0.755949 -0.11232,-0.280805 0.48158,-0.160526 0.56697,-0.18899 0.13363,-0.04454 0.25852,-0.114329 0.37797,-0.188986 2.47223,-1.54514 -0.18004,-0.113972 2.26786,-1.13393 0.90772,-0.378217 1.74697,-0.923423 2.64583,-1.322917 0.31001,-0.137779 0.61378,-0.304382 0.94494,-0.377976 0.36898,-0.08199 0.75596,0 1.13393,0 0.0988,0 0.70626,-0.02484 0.75595,0 0.32743,0.163714 0.71057,0.462984 0.94495,0.755952 0.14189,0.177363 0.23256,0.392475 0.37797,0.566965 0.1711,0.205322 0.39587,0.361643 0.56697,0.566965 0.1454,0.17449 0.24595,0.382135 0.37797,0.566965 0.18308,0.25631 0.38389,0.499642 0.56697,0.755952 0.13202,0.184827 0.25198,0.377975 0.37797,0.566965 0.28693,0.430389 0.56697,0.783907 0.56697,1.322916 0,0.063 0.0282,0.132641 0,0.188987 -0.50021,1.000413 -0.54986,0.927838 -1.32292,1.700892 -0.18899,0.18899 -0.36404,0.393028 -0.56696,0.566965 -0.41023,0.351624 -0.87422,0.645803 -1.32292,0.944941 -0.68808,0.458716 -1.49629,1.033579 -2.26786,1.322917 -0.2432,0.0912 -0.51479,0.09252 -0.75595,0.188986 -0.0827,0.03309 -0.1093,0.149149 -0.18899,0.18899 -0.11476,0.05738 -1.01917,-0.05738 -1.13393,0 -0.62679,0.626795 0.17818,-0.08909 -0.37797,0.188989 -0.0797,0.03984 -0.10931,0.149146 -0.18899,0.188987 -0.0563,0.02817 -0.13265,-0.02817 -0.18899,0 -0.0797,0.03984 -0.10447,0.160816 -0.18899,0.188989 -0.11952,0.03984 -0.25845,-0.03984 -0.37797,0 -0.0845,0.02817 -0.11486,0.13957 -0.18899,0.188986 -0.23441,0.156274 -0.52154,0.221703 -0.75595,0.377976 -0.0741,0.04942 -0.126,0.125992 -0.18899,0.188989 -0.24328,0.243274 -0.4102,0.451713 -0.75595,0.566965 -0.11953,0.03984 -0.26529,-0.05634 -0.37798,0 -0.6268,0.626793 0.17818,-0.08909 -0.37798,0.188987 -0.0797,0.03984 -0.27808,0.188989 -0.18899,0.188989 0.14087,0 0.24132,-0.154823 0.37798,-0.188989 0.12223,-0.03056 0.25198,0 0.37798,0 0.12599,0 0.25198,0 0.37797,0 0.25199,0 0.50592,-0.03126 0.75596,0 0.68617,0.08577 0.89576,0.258897 1.5119,0.566965 0.25199,0.125992 0.5267,0.214225 0.75595,0.377976 0.21749,0.155347 0.36404,0.393028 0.56697,0.566965 0.23915,0.204986 0.54853,0.329917 0.75595,0.566965 0.24188,0.276439 0.32508,0.668499 0.56696,0.944938 0.20742,0.237046 0.53323,0.344246 0.75596,0.566966 0.1606,0.16061 0.23608,0.3896 0.37797,0.56696 0.11131,0.13914 0.25199,0.25199 0.37798,0.37798 0.063,0.063 0.11771,0.13554 0.18899,0.18899 0.18171,0.13628 0.3896,0.23608 0.56696,0.37797 0.13914,0.11131 0.23543,0.27107 0.37798,0.37798 0.11269,0.0845 0.26528,0.10447 0.37797,0.18899 0.14255,0.10691 0.23884,0.26667 0.37798,0.37798 0.17736,0.14188 0.3896,0.23608 0.56696,0.37797 0.20871,0.16696 0.35315,0.4066 0.56697,0.56696 0.18171,0.13629 0.38525,0.2417 0.56696,0.37798 0.13326,0.0999 0.88885,0.87015 0.94494,0.94494 0.0845,0.11269 0.10447,0.26529 0.18899,0.37798 0.16036,0.21381 0.37798,0.37797 0.56696,0.56696 0.063,0.063 0.10448,0.16082 0.18899,0.18899 0.11953,0.0398 0.25199,0 0.37798,0"
       id="path52"
       inkscape:connector-curvature="0" />
    <path
       style="fill:none;stroke:#000000;stroke-width:0.26458332px;stroke-linecap:butt;stroke-linejoin:miter;stroke-opacity:1"
       d="m 75.21726,151.47916 c -0.125992,0.12599 -0.251981,0.50397 -0.377976,0.37798 -0.125995,-0.12599 0.537345,-0.45767 0.377976,-0.37798 -0.406313,0.20316 -0.744395,0.52223 -1.133928,0.75596 -0.07639,0.0458 0.18899,-0.27808 0.18899,-0.18899 0,0.25974 -0.152257,0.49882 -0.18899,0.75595 -0.03737,0.26158 0.05468,0.67155 0,0.94494 -0.05094,0.2547 -0.138049,0.50126 -0.188989,0.75596 -0.01236,0.0618 0.02817,0.13264 0,0.18898 -0.03984,0.0797 -0.167381,0.10256 -0.188986,0.18899 -0.04584,0.18335 0.04584,0.38362 0,0.56696 -0.01508,0.0603 -0.497467,0.49747 -0.566965,0.56697 -0.151768,0.15177 -0.781207,0.83578 -0.944941,0.94494 -0.0823,0.0549 -0.467204,-0.0499 -0.566963,0 -0.07968,0.0398 -0.0999,0.18899 -0.188989,0.18899 -0.08909,0 -0.125992,-0.12599 -0.188989,-0.18899 -0.125992,-0.12599 -0.279138,-0.22972 -0.377976,-0.37798 -0.377976,-0.56696 -0.283482,-0.66145 -0.566962,-1.13393 -1.199428,-1.99904 0.655158,1.23725 -0.944941,-1.32291 -0.149315,-0.23891 -0.221702,-0.52154 -0.377976,-0.75595 -0.09884,-0.14826 -0.286306,-0.22519 -0.377978,-0.37798 -0.102492,-0.17082 -0.0999,-0.38878 -0.188987,-0.56697 -0.101579,-0.20315 -0.261117,-0.37219 -0.377976,-0.56696 -0.07247,-0.12079 -0.125992,-0.25198 -0.188989,-0.37798 -0.063,-0.12599 -0.154824,-0.24132 -0.188987,-0.37797 -0.03056,-0.12223 0.03056,-0.25575 0,-0.37798 -0.03417,-0.13666 -0.136673,-0.24719 -0.188989,-0.37797 -0.760963,-1.90241 0.147561,0.40126 -0.188989,-0.94494 -0.03416,-0.13666 -0.154824,-0.24132 -0.188987,-0.37798 -0.03056,-0.12223 0.03984,-0.25845 0,-0.37798 -0.02817,-0.0845 -0.160816,-0.10447 -0.188989,-0.18899 -0.03984,-0.11952 0.03056,-0.25574 0,-0.37797 -0.228153,-0.91261 -0.08981,0.009 -0.377976,-0.56697 -0.02817,-0.0563 0.02817,-0.13264 0,-0.18898 -0.430162,-0.43017 -0.04995,0.0391 -0.188986,-0.37798 -0.456309,-1.36892 0.05448,0.29796 -0.377979,-0.56696 -0.07559,-0.15119 0.0756,-0.41578 0,-0.56697 -0.02508,-0.0502 -0.516784,-0.54187 -0.566962,-0.56696 -0.31641,-0.15821 -0.933347,0.55537 -1.13393,0.75595 -0.440971,0.44097 -0.881944,0.88194 -1.322917,1.32292 -0.377976,0.37797 -0.755951,0.75595 -1.133927,1.13392 -0.125992,0.126 -0.286303,0.22519 -0.377976,0.37798 -0.102494,0.17082 -0.0999,0.38879 -0.188989,0.56697 -0.07969,0.15936 -0.271069,0.23543 -0.377976,0.37797 -0.136282,0.18171 -0.241694,0.38526 -0.377976,0.56697 -0.05345,0.0713 -0.160816,0.10447 -0.188989,0.18899 -0.03984,0.11952 0.04679,0.26099 0,0.37797 -0.08436,0.21089 -0.261115,0.3722 -0.377976,0.56696 -0.144947,0.24158 -0.221702,0.52154 -0.377976,0.75596 -0.288308,0.43246 -0.149598,-0.11818 -0.377976,0.56696 -0.187528,0.56259 0.447498,-0.38777 -0.188989,0.56697 -0.288308,0.43246 -0.149595,-0.11818 -0.377976,0.56696 -0.01992,0.0598 0.03494,0.13657 0,0.18899 -0.09884,0.14825 -0.271068,0.23543 -0.377975,0.37798 -0.08452,0.11268 -0.11085,0.26077 -0.18899,0.37797 -0.04942,0.0741 -0.139567,0.11486 -0.188986,0.18899 -0.07814,0.1172 -0.110853,0.26077 -0.188989,0.37797 -0.04942,0.0741 -0.139571,0.11486 -0.188987,0.18899 -0.45766,0.68649 0.05534,0.13365 -0.377976,0.56697 -0.125992,0.12599 -0.251986,0.25198 -0.377978,0.37797 -0.063,0.063 -0.125992,0.25199 -0.188987,0.18899 -0.063,-0.063 0.251984,-0.25198 0.188987,-0.18899 -0.125992,0.126 -0.271069,0.23543 -0.377976,0.37798 -0.08452,0.11269 -0.116515,0.25718 -0.188987,0.37798 -0.116861,0.19476 -0.241697,0.38525 -0.377975,0.56696 -0.180968,0.24129 -0.554562,0.55456 -0.755955,0.75595 -0.06299,0.063 -0.0999,0.18899 -0.188986,0.18899 -0.08909,0 -0.135536,-0.11771 -0.18899,-0.18899 -0.136281,-0.18171 -0.232566,-0.39247 -0.377975,-0.56696 -0.401318,-0.48158 -0.864301,-0.71626 -1.133928,-1.32292 -0.130461,-0.29353 -0.0762,-0.64417 -0.188989,-0.94494 -0.07975,-0.21267 -0.265284,-0.36976 -0.377976,-0.56696 -0.632764,-1.10734 -0.09818,-0.40204 -0.755951,-1.32292 -0.183079,-0.25631 -0.439039,-0.46812 -0.566965,-0.75595 -0.130459,-0.29354 -0.111083,-0.63332 -0.18899,-0.94494 -0.04832,-0.19327 -0.160813,-0.36976 -0.188986,-0.56697 -0.0072,-0.0506 0.0073,-1.48256 0,-1.5119 -0.06833,-0.27332 -0.30058,-0.48507 -0.377976,-0.75595 -0.05192,-0.18172 0,-0.37798 0,-0.56697 0,-0.62996 0,-1.25992 0,-1.88988 0,-0.62996 0,-1.25992 0,-1.88988 0,-0.11295 0.04454,-0.37798 -0.188989,-0.37798 -0.063,0 0.01992,0.12923 0,0.18899 -0.04455,0.13364 -0.104471,0.26529 -0.18899,0.37798 -0.106907,0.14254 -0.251983,0.25198 -0.377975,0.37797 -0.377976,0.37798 -0.728075,0.78606 -1.133928,1.13393 -0.239151,0.20499 -0.516802,0.36198 -0.755951,0.56697 -0.202928,0.17393 -0.361643,0.39586 -0.566965,0.56696 -0.49244,0.41037 -1.100715,0.61994 -1.511906,1.13393 -0.141891,0.17736 -0.241695,0.38526 -0.377976,0.56696 -0.05345,0.0713 -0.13957,0.11487 -0.188987,0.18899 -0.07814,0.11721 -0.110852,0.26077 -0.188989,0.37798 -0.04942,0.0741 -0.160816,0.10447 -0.188989,0.18899 -0.03984,0.11952 0.05635,0.26528 0,0.37797 -0.07968,0.15937 -0.251984,0.25199 -0.377976,0.37798 -0.251984,0.25198 -0.503968,0.50397 -0.755952,0.75595 -0.063,0.063 -0.13957,0.11486 -0.188989,0.18899 -0.685136,1.37027 0.199213,-0.29882 -0.377976,0.56696 -0.07814,0.11721 -0.110849,0.26077 -0.188986,0.37798 -0.04942,0.0741 -0.139571,0.11486 -0.188989,0.18899 -0.07814,0.1172 -0.125992,0.25198 -0.188987,0.37797 -0.063,0.126 -0.144444,0.24434 -0.188989,0.37798 -0.01992,0.0598 0,0.12599 0,0.18899 -0.063,0.063 -0.149146,0.1093 -0.188989,0.18899 -0.05634,0.11269 0.05635,0.26528 0,0.37797 -0.03984,0.0797 -0.125992,0.12599 -0.188987,0.18899 -0.063,0.063 -0.109305,0.14915 -0.188989,0.18899 -0.252489,0.12624 -0.468797,-0.31253 -0.566963,-0.37798 -0.104833,-0.0699 -0.255746,0.0306 -0.377978,0 -0.193262,-0.0483 -0.382,-0.115 -0.566962,-0.18898 -0.130789,-0.0523 -0.241319,-0.15483 -0.377976,-0.18899 -0.183346,-0.0458 -0.377979,0 -0.566965,0 -0.377976,0 -0.755952,0 -1.13393,0 -2.078869,0 -4.157737,0 -6.236605,0 -0.377979,0 -0.758264,0.0417 -1.13393,0 -0.197993,-0.022 -0.371621,-0.14992 -0.566965,-0.18899 -0.185317,-0.0371 -0.377976,0 -0.566963,0 -0.063,0 -0.125992,0 -0.188989,0 -0.063,0 -0.132643,-0.0282 -0.188986,0 -0.07969,0.0398 -0.109305,0.14914 -0.18899,0.18899 -0.05635,0.0282 -0.127214,-0.0124 -0.188989,0 -1.326909,0.26538 -0.174389,0.18899 -1.700892,0.18899 -1.133928,0 -2.267857,0 -3.401785,0 -0.31498,0 -0.629961,0 -0.944941,0 -0.063,0 -0.132642,-0.0282 -0.188988,0 -0.07968,0.0398 -0.125992,0.12599 -0.188988,0.18898"
       id="path56"
       inkscape:connector-curvature="0" />
    <path
       style="fill:none;stroke:#000000;stroke-width:0.26458332px;stroke-linecap:butt;stroke-linejoin:miter;stroke-opacity:1"
       d="m 29.482142,164.14137 c 4.346726,0 8.693452,0 13.04018,0 0.881944,0 1.763887,0 2.645833,0 0.188987,0 0.391494,-0.0702 0.566963,0 0.165436,0.0662 0.218609,0.29829 0.377976,0.37797 0.112691,0.0564 0.265287,-0.0563 0.377978,0 0.159366,0.0797 0.218607,0.29829 0.377976,0.37798 0.112691,0.0563 0.253698,-0.0207 0.377976,0 0.51241,0.0854 0.995603,0.32061 1.511903,0.37797 0.313055,0.0348 0.631523,-0.0313 0.944941,0 0.319624,0.032 0.628904,0.13153 0.944941,0.18899 2.659755,0.4836 -0.255276,-0.0889 2.078868,0.37798 0.314981,0.063 0.646697,0.0697 0.944941,0.18899 0.341055,0.13642 0.603887,0.43054 0.94494,0.56696 0.298244,0.1193 0.62996,0.12599 0.944941,0.18899 0.314981,0.063 0.625687,0.15351 0.944941,0.18899 0.250441,0.0278 0.505915,-0.0313 0.755952,0 0.257733,0.0322 0.498218,0.15677 0.755951,0.18899 1.038268,0.12978 0.488225,-0.1949 1.511906,0.18898 2.634393,0.9879 -1.402188,-0.2784 1.700893,0.75596 0.246411,0.0821 0.509542,0.10685 0.755951,0.18898 0.802384,0.26747 1.307857,0.55944 2.078871,0.94494 0.125992,0.063 0.265285,0.10448 0.377976,0.18899 0.142544,0.10691 0.235432,0.27107 0.377976,0.37798 0.112691,0.0845 0.251984,0.12599 0.377976,0.18899 0.439697,0.21985 0.488828,0.22488 0.94494,0.56696 0.213816,0.16036 0.377976,0.37798 0.566966,0.56697 0.377975,0.37797 0.755951,0.75595 1.133927,1.13392 0.314981,0.31499 0.602737,0.65978 0.944941,0.94494 0.17449,0.14541 0.392475,0.23257 0.566965,0.37798 0.703421,0.58619 0.508267,0.59298 1.133927,1.32292 0.173937,0.20292 0.377976,0.37797 0.566965,0.56696 0.566965,0.56697 1.133928,1.13393 1.700893,1.70089 0.0057,0.006 0.717785,0.67962 0.755951,0.75596 0.02817,0.0563 -0.01992,0.12922 0,0.18899 0.05562,0.16684 0.467268,0.98438 0.566965,1.13392 0.04942,0.0741 0.149146,0.10931 0.18899,0.18899 0.02817,0.0564 -0.02817,0.13265 0,0.18899 0.03984,0.0797 0.149145,0.1093 0.188986,0.18899 0.02817,0.0563 -0.03494,0.13657 0,0.18899 0.422521,0.63378 0.377976,0.1251 0.377976,0.56696"
       id="path58"
       inkscape:connector-curvature="0" />
    <path
       style="fill:none;stroke:#000000;stroke-width:0.26458332px;stroke-linecap:butt;stroke-linejoin:miter;stroke-opacity:1"
       d="m 74.839284,180.58333 c 0.944941,-0.44097 1.82726,-1.05424 2.834823,-1.32292 0.182607,-0.0487 0,0.37798 0,0.56697 0,0.12599 0,0.25198 0,0.37797 0,0.063 -0.01992,0.12923 0,0.18899 0.04454,0.13364 0.144444,0.24434 0.188986,0.37798 0.01992,0.0598 -0.03494,0.13657 0,0.18899 0.09884,0.14825 0.279141,0.22972 0.377979,0.37797 0.06989,0.10483 -0.03056,0.25575 0,0.37798 0.09663,0.38652 0.281344,0.7474 0.377975,1.13393 0.05909,0.23638 -0.07713,0.52457 0,0.75595 0.02817,0.0845 0.149146,0.1093 0.188987,0.18899 0.05635,0.11269 -0.05635,0.26529 0,0.37797 0.144156,0.28831 0.457211,0.10976 0,0.56697 -0.04454,0.0445 -0.132641,-0.0282 -0.188987,0 -0.07968,0.0398 -0.109304,0.14914 -0.188989,0.18899 -0.151191,0.0756 -0.415774,-0.0756 -0.566965,0 -0.07968,0.0398 -0.102558,0.16738 -0.188986,0.18898 -0.662253,0.16557 -0.675855,-0.16228 -1.322917,-0.37797 -0.119528,-0.0398 -0.254431,0.0247 -0.377976,0 -0.195342,-0.0391 -0.377976,-0.12599 -0.566965,-0.18899 -0.188989,-0.063 -0.388784,-0.0999 -0.566965,-0.18899 -0.431292,-0.21564 -0.520636,-0.42553 -0.944941,-0.56696 -0.128892,-0.043 -0.632529,0.0206 -0.755951,0 -0.368732,-0.0615 -0.807747,-0.16052 -1.133928,-0.37798 -0.07413,-0.0494 -0.109305,-0.14914 -0.188989,-0.18899 -0.526267,-0.26313 -0.693158,-0.12619 -1.133928,-0.56696"
       id="path60"
       inkscape:connector-curvature="0" />
    <text
       xml:space="preserve"
       style="font-style:normal;font-weight:normal;font-size:4.23333311px;line-height:1.25;font-family:sans-serif;letter-spacing:0px;word-spacing:0px;fill:#000000;fill-opacity:1;stroke:none;stroke-width:0.26458332"
       x="41.766369"
       y="171.88988"
       id="text64"><tspan
         sodipodi:role="line"
         id="tspan62"
         x="41.766369"
         y="171.88988"
         style="stroke-width:0.26458332">ibe</tspan></text>
    <text
       xml:space="preserve"
       style="font-style:normal;font-weight:normal;font-size:4.23333311px;line-height:1.25;font-family:sans-serif;letter-spacing:0px;word-spacing:0px;fill:#000000;fill-opacity:1;stroke:none;stroke-width:0.26458332"
       x="13.229166"
       y="144.86458"
       id="text68"><tspan
         sodipodi:role="line"
         id="tspan66"
         x="13.229166"
         y="144.86458"
         style="stroke-width:0.26458332">5V</tspan></text>
    <text
       xml:space="preserve"
       style="font-style:normal;font-weight:normal;font-size:4.23333311px;line-height:1.25;font-family:sans-serif;letter-spacing:0px;word-spacing:0px;fill:#000000;fill-opacity:1;stroke:none;stroke-width:0.26458332"
       x="85.989586"
       y="165.84227"
       id="text72"><tspan
         sodipodi:role="line"
         id="tspan70"
         x="85.989586"
         y="165.84227"
         style="stroke-width:0.26458332">0,7V</tspan></text>
    <text
       xml:space="preserve"
       style="font-style:normal;font-weight:normal;font-size:4.23333311px;line-height:1.25;font-family:sans-serif;letter-spacing:0px;word-spacing:0px;fill:#000000;fill-opacity:1;stroke:none;stroke-width:0.26458332"
       x="53.294643"
       y="130.87946"
       id="text76"><tspan
         sodipodi:role="line"
         id="tspan74"
         x="53.294643"
         y="130.87946"
         style="stroke-width:0.26458332">4,3V</tspan></text>
    <text
       xml:space="preserve"
       style="font-style:normal;font-weight:normal;font-size:4.23333311px;line-height:1.25;font-family:sans-serif;letter-spacing:0px;word-spacing:0px;fill:#000000;fill-opacity:1;stroke:none;stroke-width:0.26458332"
       x="55.940475"
       y="143.1637"
       id="text80"><tspan
         sodipodi:role="line"
         id="tspan78"
         x="55.940475"
         y="143.1637"
         style="stroke-width:0.26458332">R1</tspan></text>
    <text
       xml:space="preserve"
       style="font-style:normal;font-weight:normal;font-size:4.23333311px;line-height:1.25;font-family:sans-serif;letter-spacing:0px;word-spacing:0px;fill:#000000;fill-opacity:1;stroke:none;stroke-width:0.26458332"
       x="23.623512"
       y="114.4375"
       id="text84"><tspan
         sodipodi:role="line"
         id="tspan82"
         x="23.623512"
         y="114.4375"
         style="stroke-width:0.26458332">ibe = 4,3V</tspan></text>
    <text
       xml:space="preserve"
       style="font-style:normal;font-weight:normal;font-size:4.23333311px;line-height:1.25;font-family:sans-serif;letter-spacing:0px;word-spacing:0px;fill:#000000;fill-opacity:1;stroke:none;stroke-width:0.26458332"
       x="38.742561"
       y="119.35118"
       id="text88"><tspan
         sodipodi:role="line"
         id="tspan86"
         x="38.742561"
         y="119.35118"
         style="stroke-width:0.26458332">R1</tspan></text>
    <text
       xml:space="preserve"
       style="font-style:normal;font-weight:normal;font-size:4.23333311px;line-height:1.25;font-family:sans-serif;letter-spacing:0px;word-spacing:0px;fill:#000000;fill-opacity:1;stroke:none;stroke-width:0.26458332"
       x="116.60565"
       y="152.99106"
       id="text92"><tspan
         sodipodi:role="line"
         id="tspan90"
         x="116.60565"
         y="152.99106"
         style="stroke-width:0.26458332">Ganho = 100</tspan></text>
    <path
       style="fill:none;stroke:#000000;stroke-width:0.26458332px;stroke-linecap:butt;stroke-linejoin:miter;stroke-opacity:1"
       d="m 107.34524,123.50893 c 0,4.28373 0,8.56746 0,12.85119 0,0.69295 0,1.38591 0,2.07887 0,0.25198 0,0.50396 0,0.75595 0,0.18899 0.0311,0.38055 0,0.56696 -0.0328,0.1965 -0.15624,0.37047 -0.18899,0.56697 -0.0518,0.31069 0,0.62996 0,0.94494 0,0.81894 0,1.63789 0,2.45684 0,0.44098 0,0.88195 0,1.32292 0,0.25198 -0.0494,0.50886 0,0.75595 0.0391,0.19535 0.15624,0.37047 0.18899,0.56697 0.0311,0.18641 -0.0371,0.38164 0,0.56696 0.0276,0.13813 0.16583,0.23903 0.18898,0.37798 0.0414,0.24855 -0.0414,0.50739 0,0.75595 0.0232,0.13894 0.15483,0.24132 0.18899,0.37797 0.0306,0.12224 -0.0247,0.25444 0,0.37798 0.0391,0.19534 0.15624,0.37046 0.18899,0.56697 0.0311,0.18641 0,0.37797 0,0.56696 0.063,0.18899 0.14067,0.3737 0.18899,0.56697 0.0153,0.0611 0,0.12599 0,0.18898 0,0.18899 -0.0371,0.38165 0,0.56697 0.0276,0.13813 0.16136,0.23984 0.18899,0.37797 0.0741,0.37064 -0.0741,0.76329 0,1.13393 0.24533,1.22667 0.18899,-0.42118 0.18899,0.75595 0,0.16039 -0.0347,1.02975 0,1.13393 0.0282,0.0845 0.16081,0.10447 0.18898,0.18899 0.0567,0.17009 -0.0567,0.39688 0,0.56696 0.0446,0.13364 0.15483,0.24132 0.18899,0.37798 0.0372,0.14866 0,0.9374 0,1.13393 0,0.12599 -0.0306,0.25575 0,0.37798 0.0342,0.13665 0.14445,0.24434 0.18899,0.37797 0.0199,0.0598 0,0.12599 0,0.18899 0,0.10548 -0.0288,0.85843 0,0.94494 0.0282,0.0845 0.16081,0.10447 0.18899,0.18899 0.0782,0.23471 -0.0621,0.69645 0,0.94494 0.0342,0.13666 0.15482,0.24132 0.18899,0.37797 0.0306,0.12224 0,0.25199 0,0.37798 0,0.12599 0,0.25199 0,0.37798 0,0.063 -0.0199,0.12922 0,0.18899 0.53537,1.07074 -0.0704,-0.28173 0.18898,0.75595 0.0342,0.13666 0.15483,0.24132 0.18899,0.37798 0.0306,0.12222 -0.0306,0.25574 0,0.37797 0.0342,0.13666 0.16136,0.23985 0.18899,0.37798 0.0371,0.18531 -0.0371,0.38164 0,0.56696 0.0276,0.13813 0.15482,0.24132 0.18899,0.37798 0.0611,0.24446 -0.0494,0.50886 0,0.75595 0.0391,0.19534 0.14067,0.3737 0.18899,0.56696 0.0153,0.0611 0,0.126 0,0.18899 0,0.18899 0,0.37798 0,0.56697 0,0.12599 -0.0306,0.25574 0,0.37797 0.0342,0.13666 0.15482,0.24132 0.18898,0.37798 0.0611,0.24446 -0.0611,0.51149 0,0.75595 0.0342,0.13666 0.15483,0.24132 0.18899,0.37798 0.0306,0.12223 0,0.25198 0,0.37797 0,0.18899 0,0.37798 0,0.56697 0,0.12599 -0.0306,0.25574 0,0.37797 0.0342,0.13666 0.15483,0.24132 0.18899,0.37798 0.13176,0.52702 -0.22853,0.33843 0.18899,0.75595"
       id="path94"
       inkscape:connector-curvature="0" />
    <path
       style="fill:none;stroke:#000000;stroke-width:0.26458332px;stroke-linecap:butt;stroke-linejoin:miter;stroke-opacity:1"
       d="m 111.125,170.56696 c 0.50397,-0.69296 0.94767,-1.43403 1.5119,-2.07887 0.13118,-0.14992 -0.13426,0.37542 -0.18898,0.56697 -0.0714,0.24974 -0.14629,0.49974 -0.18899,0.75595 -0.0207,0.12428 0.0398,0.25845 0,0.37798 -0.0282,0.0845 -0.126,0.12599 -0.18899,0.18898 0,0.18899 0.0458,0.38362 0,0.56697 -0.0216,0.0864 -0.16082,0.10447 -0.18899,0.18899 -0.0398,0.11952 0.0306,0.25574 0,0.37797 -0.0342,0.13666 -0.15482,0.24132 -0.18899,0.37798 -0.0306,0.12223 0.0306,0.25574 0,0.37797 -0.0342,0.13666 -0.14444,0.24435 -0.18899,0.37798 -0.0199,0.0598 0,0.12599 0,0.18899 -0.063,0.063 -0.14914,0.1093 -0.18898,0.18899 -0.13034,0.26068 0.22887,0.16904 -0.18899,0.37797 -0.0563,0.0282 -0.13264,-0.0282 -0.18899,0 -0.0797,0.0399 -0.1093,0.14915 -0.18899,0.18899 -0.0272,0.0136 -0.93635,0.003 -0.94494,0 -0.0845,-0.0282 -0.14914,-0.1093 -0.18899,-0.18899 -0.12008,-0.24016 -0.3376,-1.12107 -0.37797,-1.32291 -0.10738,-0.5369 0.35948,0.34098 -0.18899,-0.75596 -0.10158,-0.20315 -0.29362,-0.35607 -0.37798,-0.56696 -0.0468,-0.11698 0.0247,-0.25443 0,-0.37798 -0.0391,-0.19534 -0.14067,-0.3737 -0.18898,-0.56696 -0.0153,-0.0611 0.0282,-0.13264 0,-0.18899 -0.0399,-0.0797 -0.14915,-0.1093 -0.18899,-0.18899 -0.0282,-0.0563 -0.063,-0.18899 0,-0.18899 0.063,0 0.0282,0.24534 0,0.18899 -0.22598,-0.45196 -0.4034,-1.0212 -0.56697,-1.5119"
       id="path96"
       inkscape:connector-curvature="0" />
    <text
       xml:space="preserve"
       style="font-style:normal;font-weight:normal;font-size:4.23333311px;line-height:1.25;font-family:sans-serif;letter-spacing:0px;word-spacing:0px;fill:#000000;fill-opacity:1;stroke:none;stroke-width:0.26458332"
       x="119.0625"
       y="134.09225"
       id="text100"><tspan
         sodipodi:role="line"
         id="tspan98"
         x="119.0625"
         y="134.09225"
         style="stroke-width:0.26458332">ice = 100 * ibe</tspan></text>
    <text
       xml:space="preserve"
       style="font-style:normal;font-weight:normal;font-size:4.23333311px;line-height:1.25;font-family:sans-serif;letter-spacing:0px;word-spacing:0px;fill:#000000;fill-opacity:1;stroke:none;stroke-width:0.26458332"
       x="3.7797618"
       y="161.30655"
       id="text104"><tspan
         sodipodi:role="line"
         id="tspan102"
         x="3.7797618"
         y="161.30655"
         style="stroke-width:0.26458332">Microfone</tspan></text>
    <text
       xml:space="preserve"
       style="font-style:normal;font-weight:normal;font-size:4.23333311px;line-height:1.25;font-family:sans-serif;letter-spacing:0px;word-spacing:0px;fill:#000000;fill-opacity:1;stroke:none;stroke-width:0.26458332"
       x="65.389877"
       y="93.837791"
       id="text108"><tspan
         sodipodi:role="line"
         id="tspan106"
         x="65.389877"
         y="93.837791"
         style="stroke-width:0.26458332">Auto falante</tspan></text>
    <text
       xml:space="preserve"
       style="font-style:normal;font-weight:normal;font-size:4.23333311px;line-height:1.25;font-family:sans-serif;letter-spacing:0px;word-spacing:0px;fill:#000000;fill-opacity:1;stroke:none;stroke-width:0.26458332"
       x="86.556549"
       y="135.0372"
       id="text112"><tspan
         sodipodi:role="line"
         id="tspan110"
         x="86.556549"
         y="135.0372"
         style="stroke-width:0.26458332">NPN</tspan></text>
  </g>
</svg>
