<?xml version="1.0" encoding="UTF-8" standalone="no"?>
<!-- Created with Inkscape (http://www.inkscape.org/) -->

<svg
   xmlns:dc="http://purl.org/dc/elements/1.1/"
   xmlns:cc="http://creativecommons.org/ns#"
   xmlns:rdf="http://www.w3.org/1999/02/22-rdf-syntax-ns#"
   xmlns:svg="http://www.w3.org/2000/svg"
   xmlns="http://www.w3.org/2000/svg"
   xmlns:sodipodi="http://sodipodi.sourceforge.net/DTD/sodipodi-0.dtd"
   xmlns:inkscape="http://www.inkscape.org/namespaces/inkscape"
   width="210mm"
   height="297mm"
   viewBox="0 0 210 297"
   version="1.1"
   id="svg8"
   inkscape:version="0.92.3 (2405546, 2018-03-11)"
   sodipodi:docname="eletronicaA6_05.svg"
   inkscape:export-filename="/home/simoes/Documents/eletronicaA6_05.png"
   inkscape:export-xdpi="96"
   inkscape:export-ydpi="96">
  <defs
     id="defs2" />
  <sodipodi:namedview
     id="base"
     pagecolor="#ffffff"
     bordercolor="#666666"
     borderopacity="1.0"
     inkscape:pageopacity="0.0"
     inkscape:pageshadow="2"
     inkscape:zoom="1.4"
     inkscape:cx="16.775869"
     inkscape:cy="800.9959"
     inkscape:document-units="mm"
     inkscape:current-layer="layer1"
     showgrid="false"
     inkscape:window-width="1366"
     inkscape:window-height="741"
     inkscape:window-x="0"
     inkscape:window-y="27"
     inkscape:window-maximized="1" />
  <metadata
     id="metadata5">
    <rdf:RDF>
      <cc:Work
         rdf:about="">
        <dc:format>image/svg+xml</dc:format>
        <dc:type
           rdf:resource="http://purl.org/dc/dcmitype/StillImage" />
        <dc:title />
      </cc:Work>
    </rdf:RDF>
  </metadata>
  <g
     inkscape:label="Layer 1"
     inkscape:groupmode="layer"
     id="layer1">
    <path
       style="fill:none;stroke:#000000;stroke-width:0.26458332px;stroke-linecap:butt;stroke-linejoin:miter;stroke-opacity:1"
       d="m 76.171816,163.89977 c -0.483802,-0.0372 -0.169752,1.57833 -0.267272,1.87089 -0.063,0.18899 -0.234519,0.33804 -0.267269,0.53454 -0.05858,0.35151 0,0.71272 0,1.06908 0,0.17818 0.04322,0.36168 0,0.53454 -0.04832,0.19326 -0.2282,0.33919 -0.267269,0.53453 -0.05242,0.26209 0,0.53455 0,0.80181 0,0.44545 0,0.8909 0,1.33635 0,1.60362 0,3.20724 0,4.81085 0,4.98903 0,9.97807 0,14.9671 0,1.51452 0,3.02905 0,4.54358 0,0.53454 0,1.06908 0,1.60362 0,0.26726 0.05242,0.53972 0,0.8018 -0.03907,0.19535 -0.2282,0.3392 -0.267268,0.53454 -0.104834,0.52416 0.08788,1.07635 0,1.60362 -0.04632,0.27789 -0.220957,0.52392 -0.267272,0.80181 -0.04394,0.26363 0.0378,0.53722 0,0.80181 -0.05195,0.36363 -0.21532,0.70544 -0.267269,1.06907 -0.0378,0.26459 0.04394,0.53818 0,0.80181 -0.04631,0.2779 -0.227428,0.52292 -0.267269,0.80181 -0.0882,0.61736 0.122304,1.25937 0,1.87089 -0.03907,0.19534 -0.2282,0.3392 -0.267268,0.53454 -0.05242,0.26208 0.04394,0.53817 0,0.80181 -0.04632,0.27789 -0.220957,0.52391 -0.267272,0.8018 -0.04394,0.26364 0.0378,0.53723 0,0.80181 -0.05195,0.36364 -0.215321,0.70545 -0.267269,1.06908 -0.0378,0.26458 0,0.53454 0,0.80181 0,0.44545 0,0.8909 0,1.33635 0,1.51453 0,3.02905 0,4.54358 0,4.72176 0,9.44352 0,14.16528"
       id="path505"
       inkscape:connector-curvature="0" />
    <path
       style="fill:none;stroke:#000000;stroke-width:0.26458332px;stroke-linecap:butt;stroke-linejoin:miter;stroke-opacity:1"
       d="m 81.784475,163.6325 c 0,1.42544 0,2.85088 0,4.27632 0,0.53453 0.04439,1.07092 0,1.60361 -0.340501,4.08601 -0.267269,-0.61763 -0.267269,2.93997 0,1.60361 0,3.20723 0,4.81085 0,0.53454 -0.05903,1.07235 0,1.60362 0.03111,0.28 0.236156,0.5218 0.267269,0.80181 0.195998,1.76397 -0.163333,1.30665 0,2.93996 0.0452,0.45202 0.210923,0.88559 0.267269,1.33635 0.03315,0.2652 0,0.53454 0,0.80181 0,0.97998 0,1.95997 0,2.93996 0,2.22725 0,4.45449 0,6.68174 0,0.97999 0,1.95997 0,2.93996 0,0.17818 0,0.35636 0,0.53454 0,0.17818 -0.04322,0.36168 0,0.53454 0.04832,0.19327 0.218953,0.34128 0.267268,0.53454 0.04322,0.17286 0,0.35636 0,0.53454 0,0.62363 0,1.24726 0,1.87089 0,0.17818 0,0.35635 0,0.53454 0,0.17817 -0.04321,0.36168 0,0.53453 0.04832,0.19327 0.228204,0.3392 0.267272,0.53454 0.08736,0.4368 -0.108037,0.9042 0,1.33635 0.04831,0.19326 0.218953,0.34128 0.267269,0.53454 0.08507,0.34027 -0.08678,0.98924 0,1.33635 0.732501,2.19751 -0.09391,-0.56346 0.267269,1.60361 0.04631,0.2779 0.220953,0.52392 0.267268,0.80181 0.04394,0.26364 -0.04394,0.53818 0,0.80181 0.04632,0.2779 0.227428,0.52292 0.267272,0.80181 0,1.83142 -0.112691,0.35105 0.267269,1.87089 0.02162,0.0864 0,0.17818 0,0.26727 0,0.35636 0,0.71272 0,1.06908 0,0.0891 0,0.17817 0,0.26726 0,0.0891 -0.03984,0.18759 0,0.26727 0.611595,1.22319 -0.110776,-1.13413 0.534538,0.80181 0.02817,0.0845 0,0.17818 0,0.26727 0,0.17818 0,0.35636 0,0.53454 0,0.97999 0,1.95998 0,2.93997 0,0.89089 0,1.78179 0,2.67269 0,0.26727 0.04394,0.53818 0,0.80181 -0.04632,0.27789 -0.212016,0.52555 -0.267269,0.80181 -0.06894,0.34469 0.08241,1.0067 0,1.33635 -0.06833,0.27331 -0.227428,0.52291 -0.267269,0.80181 -0.0504,0.35277 0,0.71271 0,1.06907 0,1.06908 0,2.13816 0,3.20724"
       id="path507"
       inkscape:connector-curvature="0" />
    <path
       style="fill:none;stroke:#000000;stroke-width:0.26458332px;stroke-linecap:butt;stroke-linejoin:miter;stroke-opacity:1"
       d="m 12.828937,165.50339 c 0.319026,0.22873 1.416177,-0.11368 1.870887,0 0.193263,0.0483 0.341276,0.21895 0.534539,0.26727 0.238614,0.0597 1.026976,0 1.336348,0 0.13976,0 0.998801,0.0351 1.069078,0 0.11269,-0.0563 0.154578,-0.21092 0.267269,-0.26727 0.08134,-0.0407 0.681442,0 0.801809,0 0.623629,0 1.247257,0 1.870886,0 1.959977,0 3.919953,0 5.879929,0 1.158169,0 2.316337,0 3.474506,0 0.356359,0 0.717566,-0.0586 1.069078,0 0.196498,0.0327 0.341276,0.21895 0.534538,0.26727 0.276862,0.0692 0.762611,0 1.069078,0 0.79199,0 1.624287,-0.0651 2.405425,0 0.627785,0.0523 1.253162,0.14372 1.870887,0.26727 2.048902,0.40978 2.011482,0.66864 4.009043,0.80181 0.711139,0.0474 1.426827,-0.0445 2.138156,0 1.974152,0.12338 3.912923,0.62299 5.879931,0.80181 0.354894,0.0323 0.723358,-0.0864 1.069078,0 0.386525,0.0966 0.6911,0.40854 1.069078,0.53454 0.169035,0.0563 0.356359,0 0.534538,0 0.08909,0 0.187584,-0.0399 0.267269,0 0.225382,0.11269 0.295486,0.45485 0.53454,0.53453 0.253553,0.0845 0.534538,0 0.801809,0 1.693334,0 0.979361,0 2.672694,0 3.936926,0 -0.954519,-0.14685 3.474506,0.53454 0.528322,0.0813 1.074449,-0.0756 1.603615,0 0.727271,0.1039 1.409946,0.43745 2.138157,0.53454 0.618159,0.0824 1.253527,-0.0882 1.870887,0 0.642064,0.0917 1.22882,0.44282 1.870887,0.53454 0.61736,0.0882 1.255742,-0.10252 1.870885,0 0.473236,0.0789 0.864325,0.44872 1.336349,0.53454 0.525915,0.0956 1.071729,-0.0532 1.603616,0 0.365503,0.0366 0.703998,0.22671 1.069078,0.26727 0.442725,0.0492 0.8909,0 1.33635,0 1.336346,0 2.672693,0 4.00904,0 0.35636,0 0.714489,-0.0355 1.069078,0 0.539224,0.0539 1.06502,0.20743 1.603619,0.26727 0.265633,0.0295 0.537226,-0.0378 0.801809,0 0.363633,0.052 0.704588,0.22171 1.069078,0.26727 0.353608,0.0442 0.712719,0 1.069078,0 0.445447,0 0.890897,0 1.336347,0 1.514528,0 3.029053,0 4.543581,0 2.761787,0 5.523571,0 8.285355,0 0.712719,0 1.425438,0 2.138157,0 0.09105,0 0.924428,0.0482 1.069078,0 0.18899,-0.063 0.33533,-0.26727 0.53454,-0.26727 0.24084,0 0.48253,0.75706 0.53454,1.06908 0.0732,0.43939 0,0.8909 0,1.33635 0,0.71271 0,1.42543 0,2.13815 0,0.15001 0.065,1.94328 0,2.13816 -0.0787,0.23596 -0.66082,1.39212 -0.80181,1.60362 -0.0699,0.10483 -0.17818,0.17817 -0.26727,0.26726 -0.17818,0.17819 -0.31846,0.4049 -0.53454,0.53454 -0.24158,0.14495 -0.530922,0.18988 -0.801807,0.26727 -0.706388,0.20183 -1.441204,0.30222 -2.138156,0.53454 -2.008222,0.66941 -0.74721,0.59681 -3.207235,0.80181 -0.44391,0.037 -0.901506,-0.0966 -1.336346,0 -0.388935,0.0864 -0.691103,0.40855 -1.069078,0.53454 -0.80181,0.26727 -0.267272,-0.13363 -0.80181,0 -2.31721,0.5793 1.393021,-0.004 -2.405425,0.26727 -4.809177,0.34351 0.179851,0.14237 -3.741774,0.53454 -0.354592,0.0355 -0.712719,0 -1.069078,0 -0.44545,0 -0.8909,0 -1.336347,0 -0.8909,0 -1.781797,0 -2.672697,0 -0.445449,0 -0.890897,0 -1.336346,0 -0.08909,0 -0.178181,0 -0.267269,0 -0.08909,0 -0.187587,0.0398 -0.267272,0 -0.112688,-0.0564 -0.154577,-0.21093 -0.267269,-0.26727 -0.07968,-0.0398 -0.178178,0 -0.267268,0 -0.178181,0 -0.35636,0 -0.534541,0 -0.277939,0 -1.393378,0.0526 -1.603616,0 -0.386527,-0.0966 -0.682553,-0.43791 -1.069078,-0.53454 -0.767813,-0.19195 -0.859178,0.39601 -1.603618,-0.53454 -0.175993,-0.21999 -0.162639,-0.54023 -0.267269,-0.80181 -0.07399,-0.18496 -0.147743,-0.37517 -0.267269,-0.53454 -0.150886,-0.20118 -1.135168,-1.18546 -1.336349,-1.33634 -0.159367,-0.11953 -0.341276,-0.21896 -0.534538,-0.26727 -1.216686,0 -0.01529,0.12599 -0.801809,-0.26727 -0.07968,-0.0398 -0.267269,0.0891 -0.267269,0 0,-0.0891 0.204274,0.063 0.267269,0 0.063,-0.063 -0.07968,-0.22743 0,-0.26727 1.135504,-0.56776 0.842081,-0.0958 1.870887,-0.26727 2.279761,-0.37996 -0.921766,-0.26727 1.870887,-0.26727 1.870888,0 3.741772,0 5.612659,0 0.273521,0 1.927794,-0.0526 2.138157,0 0.122229,0.0306 0.178181,0.17818 0.267268,0.26727 0.178181,0.17818 0.318466,0.40489 0.534541,0.53454 0.241578,0.14494 0.525552,0.21202 0.801809,0.26727 0.174718,0.0349 0.358783,-0.0293 0.534538,0 0.724659,0.12077 1.413499,0.41376 2.138156,0.53454 0.175754,0.0293 0.36168,-0.0432 0.53454,0 0.193262,0.0483 0.345551,0.20427 0.534538,0.26726 0.169037,0.0564 0.386286,-0.0988 0.53454,0 0.314494,0.20967 0.534538,0.53454 0.801807,0.80181 0.140708,0.14071 0.730438,0.65907 0.801809,0.80181 0.03984,0.0797 0,0.17818 0,0.26727 0,0.0891 0,0.17818 0,0.26727 0,0.44545 0,0.8909 0,1.33635 0,0.10959 0.03181,1.25682 0,1.33635 -0.04556,0.11389 -0.526608,0.88561 -0.801809,1.06908 -0.165754,0.1105 -0.375169,0.14774 -0.534538,0.26726 -0.201179,0.15089 -1.185463,1.13517 -1.336347,1.33635 -0.119528,0.15937 -0.178181,0.35636 -0.267271,0.53454 -0.08909,0.17818 -0.204272,0.34555 -0.267269,0.53454 -0.02817,0.0845 0.02817,0.18275 0,0.26727 -0.063,0.18899 -0.204274,0.34555 -0.267269,0.53454 -0.02817,0.0845 0.02817,0.18275 0,0.26727 -0.193789,0.58136 -0.650208,0.91747 -1.069078,1.33634 -0.178181,0.17818 -0.35636,0.35636 -0.534541,0.53454 -0.08909,0.0891 -0.154577,0.21093 -0.267268,0.26727 -0.443585,0.56394 -1.100463,0.066 -1.603616,0.26727 -0.233963,0.0936 -0.309158,0.42185 -0.53454,0.53454 -0.328547,0.16428 -0.740532,0.103 -1.069079,0.26727 -0.22538,0.11269 -0.315756,0.40952 -0.534537,0.53454 -0.554339,0.31677 -1.730775,0.68937 -2.405428,0.80181 -0.175755,0.0293 -0.356359,0 -0.534538,0 -0.53454,0 -1.069078,0 -1.603618,0 -0.08909,0 -0.18275,-0.0282 -0.267269,0 -0.188989,0.063 -0.341275,0.21895 -0.534537,0.26727 -0.415764,0.10394 -0.91593,-0.0841 -1.33635,0 -0.276254,0.0553 -0.525552,0.21202 -0.801809,0.26727 -0.296966,0.0594 -1.113621,-0.0891 -1.336347,0 -0.233961,0.0936 -0.356359,0.35636 -0.534538,0.53454 -0.356359,0.0891 -0.728025,0.13085 -1.069078,0.26727 -0.116983,0.0468 -0.162438,0.19738 -0.267271,0.26727 -0.165754,0.1105 -0.368785,0.15676 -0.534538,0.26727 -0.104833,0.0699 -0.141277,0.26727 -0.267269,0.26727 -0.125992,0 -0.178181,-0.17818 -0.267271,-0.26727 -0.08909,-0.0891 -0.210924,-0.15458 -0.267269,-0.26727 -0.03984,-0.0797 0,-0.17818 0,-0.26727 0,-0.0891 0,-0.17818 0,-0.26727 0,-0.45366 -0.0874,-1.24895 0.267269,-1.60362 0.125992,-0.12599 0.375171,0.0797 0.53454,0 0.22538,-0.11269 0.300577,-0.44095 0.534538,-0.53454 0.248155,-0.0993 0.54252,0.0648 0.801809,0 0.122229,-0.0306 0.147743,-0.22743 0.267269,-0.26727 0.169037,-0.0563 0.356359,0 0.53454,0 0.267269,0 0.54252,0.0648 0.801809,0 0.12223,-0.0306 0.178179,-0.17818 0.267269,-0.26727 0.178178,-0.0891 0.341276,-0.21895 0.534538,-0.26727 0.17286,-0.0432 0.356359,0 0.53454,0 0.44545,0 0.890897,0 1.336347,0 0.08909,0 0.184552,0.0331 0.267272,0 0.369924,-0.14797 0.691099,-0.40854 1.069078,-0.53454 0.280953,-0.0936 1.329586,0.0685 1.603615,0 0.12223,-0.0306 0.15458,-0.21092 0.267269,-0.26727 0.07968,-0.0398 0.178181,0 0.267272,0 0.08909,0 0.180837,-0.0216 0.267269,0 0.347712,0.0869 1.004554,0.31335 1.336346,0.53454 0.741061,0.49404 -0.479022,0.33283 1.336347,0.53454 0.442725,0.0492 0.89434,-0.0553 1.33635,0 0.279551,0.0349 0.528492,0.19894 0.801806,0.26727 0.440709,0.11018 0.885587,0.21093 1.33635,0.26727 0.265205,0.0332 0.534538,0 0.801807,0 0.267271,0.0891 0.525555,0.21202 0.801809,0.26727 0.17472,0.035 0.365503,-0.0563 0.53454,0 0.18098,0.0603 0.597644,0.69973 0.801807,0.80181 0.07968,0.0398 0.187587,-0.0398 0.267271,0 0.244637,0.12232 0.469432,0.60649 0.534538,0.80181 0.05635,0.16903 -0.05635,0.3655 0,0.53454 0.645316,1.93594 -0.07705,-0.42138 0.53454,0.80181 0.04067,0.0813 0,0.68144 0,0.8018 0,0.39216 0.125024,1.67474 -0.267271,1.87089 -0.259972,0.12999 -1.472036,-0.0997 -1.870885,0 -0.273317,0.0683 -0.53454,0.17818 -0.801809,0.26727 -0.434642,0.14488 -0.943086,0.27236 -1.336347,0.53454 -0.640125,0.42675 0.240533,0.31627 -1.069078,0.53454 -0.263634,0.0439 -0.539732,-0.0524 -0.801809,0 -0.195342,0.0391 -0.345551,0.20427 -0.534541,0.26727 -0.08451,0.0282 -0.178178,0 -0.267268,0 -0.178179,0 -0.35636,0 -0.534538,0 -1.247259,0 -2.494516,0 -3.741775,0 -0.623628,0 -1.247256,0 -1.870887,0 -0.178178,0 -0.365503,-0.0564 -0.534538,0 -2.201251,0.73375 0.149702,0.53454 -2.405427,0.53454 -0.267269,0 -0.534538,0 -0.801807,0 -0.267271,0 -0.537226,-0.0378 -0.801809,0 -0.363635,0.052 -0.70675,0.20688 -1.069078,0.26727 -0.175755,0.0293 -0.356359,0 -0.53454,0 -0.267269,0 -0.534538,0 -0.801807,0 -0.801809,0 -1.603618,0 -2.405428,0 -0.267268,0 -0.548253,-0.0845 -0.801806,0 -0.02228,0.007 -0.478962,0.49285 -0.53454,0.53454 -1.842585,1.38193 -1.446763,1.40084 -3.474503,1.60361 -0.620536,0.0621 -1.247259,0 -1.870888,0 -1.603618,0 -3.207234,0 -4.810852,0 -0.267269,0 -0.534538,0 -0.801807,0 -0.178181,0 -0.408548,0.12599 -0.53454,0 -0.08909,-0.0891 0.323614,-0.15458 0.267269,-0.26727 -0.08909,-0.17818 -0.345551,-0.33026 -0.534538,-0.26727 -0.188989,0.063 -0.08909,0.44545 -0.267269,0.53454 -0.170598,0.0853 -1.023585,0 -1.336349,0 -1.158166,0 -2.316335,0 -3.474503,0 -0.348025,0 -1.33577,-0.0536 -1.603616,0 -0.195345,0.0391 -0.33804,0.23452 -0.53454,0.26727 -0.35151,0.0586 -0.712719,0 -1.069078,0 -0.534541,0 -1.069079,0 -1.603619,0 -0.623628,0 -1.247256,0 -1.870884,0 -0.267272,0 -0.537226,0.0378 -0.80181,0 -0.363635,-0.052 -0.705442,-0.21532 -1.069078,-0.26727 -0.264583,-0.0378 -0.53454,0 -0.801809,0 -0.534538,0 -1.069078,0 -1.603616,0 -0.267271,0 -0.538175,0.0439 -0.801809,0 -0.555786,-0.0926 -1.051105,-0.42403 -1.603618,-0.53454 -0.174718,-0.0349 -0.361678,0.0432 -0.534538,0 -0.193262,-0.0483 -0.339196,-0.2282 -0.53454,-0.26726 -0.262078,-0.0524 -0.548254,0.0845 -0.801807,0 -0.304736,-0.10158 -0.497075,-0.43297 -0.801809,-0.53455 -0.253556,-0.0845 -0.539729,0.0524 -0.801809,0 -0.390684,-0.0781 -0.678395,-0.4564 -1.069078,-0.53453 -0.262081,-0.0524 -0.562756,0.11952 -0.80181,0 -0.338071,-0.16904 -0.477697,-0.60735 -0.801809,-0.80181 -0.152786,-0.0917 -0.361677,0.0432 -0.534537,0 -0.193263,-0.0483 -0.349576,-0.19329 -0.534541,-0.26727 -0.261575,-0.10463 -0.528492,-0.19894 -0.801807,-0.26727 -0.17286,-0.0432 -0.375171,0.0797 -0.534539,0 -0.912516,-0.45626 0.826591,-0.26727 -1.069078,-0.26727 -0.801809,0 -1.603618,0 -2.405426,0 -0.26727,0 -0.539729,0.0524 -0.801809,0 -0.132403,-0.0265 -0.550804,-0.39277 -0.801808,-0.26727 -0.123767,0.0619 -0.911885,0.91188 -1.069078,1.06908 -0.08909,0.0891 -0.147743,0.22743 -0.26727,0.26727 -0.430959,0.14365 -0.892894,0.16872 -1.336347,0.26727 -0.71716,0.15936 -1.413499,0.41376 -2.138156,0.53454 -0.351511,0.0586 -0.712719,0 -1.069079,0 -0.178179,0 -0.356359,0 -0.534539,0 -0.08909,0 -0.204273,0.063 -0.267269,0 -0.0086,-0.009 0,-0.73699 0,-0.80181"
       id="path509"
       inkscape:connector-curvature="0" />
    <path
       style="fill:none;stroke:#000000;stroke-width:0.26458332px;stroke-linecap:butt;stroke-linejoin:miter;stroke-opacity:1"
       d="m 18.708867,207.73197 c 0.354013,-0.56345 0.913757,0.14087 1.336347,0 0.188989,-0.063 0.341276,-0.21895 0.534539,-0.26726 0.43215,-0.10804 0.899549,0.0874 1.336348,0 0.195342,-0.0391 0.341276,-0.21896 0.534539,-0.26727 0.464046,-0.11602 1.139572,0.11601 1.603617,0 0.193263,-0.0483 0.341276,-0.21896 0.534539,-0.26727 0.17286,-0.0432 0.36168,0.0432 0.534539,0 0.193263,-0.0483 0.341276,-0.21896 0.534539,-0.26727 0.17286,-0.0432 0.35636,0 0.534539,0 0.35636,0 0.712719,0 1.069079,0 0.178178,0 0.358783,0.0293 0.534537,0 1.339266,-0.22321 0.919769,-0.38598 2.405428,-0.53454 0.443238,-0.0443 0.893109,0.0443 1.336347,0 0.904033,-0.0904 1.768663,-0.44414 2.672696,-0.53454 0.443238,-0.0443 0.892728,0.0403 1.336347,0 0.539687,-0.0491 1.068007,-0.18487 1.603616,-0.26727 0.622636,-0.0958 1.254911,-0.13527 1.870887,-0.26727 0.634188,-0.1359 1.229844,-0.43592 1.870887,-0.53454 0.528323,-0.0813 1.069078,0 1.603616,0 0.801809,0 1.605394,0.0533 2.405428,0 0.54071,-0.0361 1.067152,-0.19063 1.603615,-0.26727 0.711047,-0.10158 1.432195,-0.1349 2.138157,-0.26727 0.722071,-0.13539 1.413499,-0.41376 2.138156,-0.53454 0.351512,-0.0586 0.712718,0 1.069078,0 0.267271,0 0.53454,0 0.801809,0 0.08909,0 0.178181,0 0.267269,0 0.08909,0 0.187587,0.0399 0.267271,0 0.112689,-0.0563 0.147744,-0.22742 0.267269,-0.26727 0.122246,-0.0408 0.950148,0.0595 1.069078,0 0.112691,-0.0563 0.147743,-0.22743 0.267269,-0.26727 0.169037,-0.0563 0.356359,0 0.53454,0 0.534538,0 1.069078,0 1.603616,0 2.049068,0 4.098134,0 6.1472,0 2.419048,0 1.322726,0 3.741774,0 0.534538,0 1.070925,-0.0444 1.603616,0 5.161621,0.43014 -1.534729,0.0871 2.939965,0.53454 0.443238,0.0443 0.890897,0 1.336347,0 0.623628,0 1.247259,0 1.870887,0 0.178181,0 0.365504,-0.0563 0.534541,0 0.119525,0.0399 0.154577,0.21093 0.267268,0.26727 0.157695,0.0789 0.617972,-0.0613 0.80181,0 0.377975,0.126 0.69915,0.38657 1.069078,0.53454 1.036984,0.4148 2.132711,0.53318 3.207234,0.80181 1.271,0.31775 0.371096,0.28458 1.870884,0.53454 0.175758,0.0293 0.361681,-0.0432 0.534541,0 0.193262,0.0483 0.345551,0.20427 0.534537,0.26727 0.150794,0.0503 0.626185,0 0.80181,0 0.623628,0 1.247259,0 1.870887,0 0.178178,0 0.356359,0 0.534538,0 0.08909,0 0.182753,-0.0282 0.267271,0 0.188987,0.063 0.368784,0.15676 0.534538,0.26727 0.262112,0.17474 0.441804,0.5236 0.53454,0.80181 0.02817,0.0845 -0.02817,0.18275 0,0.26727 0.161806,0.48542 0.22874,0.49601 0.534538,0.80181 0.08909,0.0891 0.227428,0.14774 0.267271,0.26726 0.05634,0.16904 -0.04322,0.36168 0,0.53454 0.04832,0.19327 0.204272,0.34555 0.267269,0.53454 0.05635,0.16904 0,0.35636 0,0.53454 0,0.44545 0,0.8909 0,1.33635 0,0.17818 0,0.35636 0,0.53454 0,0.0891 0.03984,0.18758 0,0.26727 -0.374306,0.74861 -1.023607,1.29087 -1.603618,1.87088 -0.411528,0.41153 -0.775417,0.82868 -1.336347,1.06908 -1.148498,0.49222 -1.129501,0.1255 -2.405425,0.26727 -0.503399,0.0559 -1.364083,0.36561 -1.870887,0.53454 -0.267269,0.0891 -0.522915,0.22743 -0.801809,0.26727 -0.352777,0.0504 -0.714899,-0.0393 -1.069079,0 -0.451492,0.0502 -0.885584,0.21093 -1.336346,0.26727 -0.265206,0.0331 -0.538176,-0.0439 -0.80181,0 -0.277894,0.0463 -0.522912,0.22743 -0.801809,0.26727 -0.352777,0.0504 -0.712719,0 -1.069078,0 -0.979987,0 -1.959975,0 -2.939965,0 -0.35636,0 -0.712719,0 -1.069078,0 -0.178179,0 -0.35636,0 -0.534538,0 -0.08909,0 -0.18275,0.0282 -0.267269,0 -0.188989,-0.063 -0.356359,-0.17818 -0.53454,-0.26727 -0.178178,-0.0891 -0.368784,-0.15677 -0.534538,-0.26727 -0.608362,-0.40557 -0.53454,-0.98734 -0.53454,-1.60362 0,-0.17818 0.05634,-0.3655 0,-0.53454 -0.03984,-0.11952 -0.210923,-0.15457 -0.267269,-0.26727 -0.03984,-0.0797 0.02162,-0.18084 0,-0.26726 -0.06833,-0.27332 -0.141277,-0.54983 -0.267269,-0.80181 -0.249875,-0.49975 -0.470051,0.009 -0.267271,-0.80181 0.138149,-0.5526 0.694309,-0.96158 1.069078,-1.33635 0.435096,-0.43509 0.499139,-0.61183 1.069078,-0.80181 0.348477,-0.11616 0.725141,-0.13829 1.069078,-0.26727 0.373054,-0.13989 0.682553,-0.4379 1.069078,-0.53454 0.464047,-0.11601 1.139573,0.11601 1.603618,0 0.193262,-0.0483 0.339196,-0.2282 0.534541,-0.26727 0.262077,-0.0524 0.534537,0 0.801806,0 0.53454,0 1.069078,0 1.603619,0 1.425437,0 2.850874,0 4.276312,0 1.069078,0 2.138156,0 3.207234,0 0.03815,0 1.290307,-0.0307 1.336347,0 1.141603,0.76107 0.342183,0.22474 0.53454,0.80181 0.063,0.18899 0.164775,0.36372 0.267269,0.53454 0.583957,0.97326 0.534538,0.4536 0.534538,1.06908 0,0.17818 -0.05634,0.3655 0,0.53454 0.03984,0.11952 0.227428,0.14774 0.267271,0.26727 0.05635,0.16903 0,0.35636 0,0.53454 0,0.17818 0,0.35636 0,0.53454 0,0.62363 0,1.24725 0,1.87088 0,0.17818 0,0.35636 0,0.53454 0,0.0891 0.04942,0.19314 0,0.26727 -0.154371,0.23156 -1.121717,1.12172 -1.336349,1.33635 -0.35636,0.35636 -0.712719,0.71272 -1.069078,1.06908 -0.178179,0.17818 -0.35636,0.35636 -0.534538,0.53454 -0.08909,0.0891 -0.162438,0.19738 -0.267269,0.26727 -0.165754,0.1105 -0.356359,0.17817 -0.53454,0.26726 -0.35636,0.17819 -0.712719,0.35636 -1.069078,0.53455 -0.588174,0.29408 -1.212419,0.69206 -1.870888,0.8018 -0.26363,0.0439 -0.534537,0 -0.801806,0 -0.267272,0.0891 -0.525553,0.21202 -0.801809,0.26727 -0.174721,0.0349 -0.36168,-0.0432 -0.534541,0 -0.193262,0.0483 -0.339196,0.2282 -0.534537,0.26727 -0.262081,0.0524 -0.534541,0 -0.80181,0 -0.267268,0 -0.534537,0 -0.801809,0 -0.979987,0 -1.959975,0 -2.939962,0 -0.35636,0 -0.716302,-0.0504 -1.069081,0 -0.278895,0.0398 -0.523915,0.22096 -0.801807,0.26727 -0.263633,0.0439 -0.53454,0 -0.801809,0 -0.267269,0 -0.53454,0 -0.801809,0 -0.801809,0 -1.603616,0 -2.405425,0 -0.178181,0 -0.356359,0 -0.53454,0 -0.178179,0 -0.365501,0.0564 -0.534538,0 -0.12201,-0.0407 -0.681442,-0.68144 -0.801809,-0.80181 -0.208762,-0.20876 -0.648057,-0.57118 -0.80181,-0.8018 -0.1105,-0.16576 -0.156765,-0.36879 -0.267268,-0.53455 -0.06989,-0.10483 -0.210924,-0.15457 -0.267269,-0.26726 -0.03984,-0.0797 0.03984,-0.18759 0,-0.26727 -0.05635,-0.11269 -0.210926,-0.15458 -0.267269,-0.26727 -0.04067,-0.0813 0,-0.68144 0,-0.80181 0,-0.28336 -0.03984,-0.59707 0.267269,-0.80181 0.148254,-0.0988 0.358783,0.0293 0.534537,0 0.689671,0.27638 1.051108,-0.42404 1.603619,-0.53454 0.262078,-0.0524 0.534538,0 0.801809,0 0.356359,0 0.712719,0 1.069078,0 2.672694,0 5.34539,0 8.018084,0 2.049068,0 4.098134,0 6.1472,0 0.623628,0 1.247259,0 1.870887,0 0.178178,0 0.35982,-0.0349 0.534538,0 0.276256,0.0553 0.528494,0.19894 0.801809,0.26727 0.08643,0.0216 0.187587,-0.0398 0.267269,0 0.112691,0.0563 0.15458,0.21092 0.267271,0.26727 0.07968,0.0398 0.187584,-0.0398 0.267269,0 0.225383,0.11269 0.324877,0.39476 0.534538,0.53454 0.165753,0.1105 0.424037,0.10152 0.53454,0.26727 0.09883,0.14825 -0.05635,0.3655 0,0.53454 0.03984,0.11952 0.227428,0.14774 0.267269,0.26727 0.05213,0.15637 0,1.37421 0,1.60361 0,0.44545 0,0.8909 0,1.33635 0,0.17818 0.05635,0.3655 0,0.53454 -0.121185,0.36356 -0.453731,0.89504 -0.801809,1.06908 -0.159367,0.0797 -0.369102,-0.0662 -0.534538,0 -0.298244,0.1193 -0.506563,0.408 -0.801809,0.53454 -1.898513,0.81365 -0.383265,0.0232 -1.603616,0.26727 -0.536715,-0.0613 -0.87091,0.41818 -1.33635,0.53454 -0.432149,0.10803 -0.899548,-0.0874 -1.336346,0 -0.195342,0.0391 -0.339196,0.2282 -0.534538,0.26726 -0.349441,0.0699 -0.712719,0 -1.069078,0 -0.712719,0 -1.425438,0 -2.138156,0 -2.138156,0 -4.276312,0 -6.414471,0 -1.430282,0 0.605343,-0.0563 -1.336347,0.26728 -0.439388,0.0732 -0.899549,-0.0874 -1.336347,0 -0.276257,0.0553 -0.525552,0.21201 -0.801809,0.26727 -0.349438,0.0699 -0.719638,-0.0699 -1.069078,0 -0.276257,0.0553 -0.525553,0.21201 -0.801809,0.26726 -0.174718,0.035 -0.359818,-0.0349 -0.534538,0 -0.276257,0.0553 -0.525553,0.21202 -0.801809,0.26727 -0.174721,0.035 -0.358783,-0.0293 -0.534538,0 -0.362331,0.0604 -0.70675,0.20689 -1.069078,0.26727 -0.175758,0.0293 -0.356359,0 -0.53454,0 -0.890898,0 -1.781797,0 -2.672694,0 -2.494518,0 -4.989034,0 -7.483549,0 -0.712719,0 -1.425438,0 -2.138156,0 -0.267269,0 -0.538176,-0.0439 -0.801807,0 -0.277894,0.0463 -0.525552,0.21202 -0.801809,0.26727 -0.17472,0.035 -0.358783,-0.0293 -0.53454,0 -0.362329,0.0604 -0.706747,0.20688 -1.069078,0.26727 -0.439389,0.0732 -0.895374,-0.063 -1.336347,0 -0.727271,0.1039 -1.410886,0.43065 -2.138156,0.53454 -0.264584,0.0378 -0.534541,0 -0.80181,0 -0.267269,0 -0.534537,0 -0.801809,0 -0.178178,0 -0.369102,-0.0662 -0.534538,0 -0.298243,0.1193 -0.497075,0.43296 -0.801809,0.53454 -0.253553,0.0845 -0.534537,0 -0.801809,0 -0.890897,0 -1.781797,0 -2.672694,0 -0.267269,0 -0.538176,-0.0439 -0.801809,0 -0.555786,0.0926 -1.047829,0.44191 -1.603616,0.53454 -0.263633,0.0439 -0.53454,0 -0.801809,0 -0.306237,0 -2.066721,-0.0564 -2.405425,0 -0.277894,0.0463 -0.522914,0.22743 -0.801809,0.26727 -0.617363,0.0882 -1.255744,-0.10252 -1.870887,0 -0.277895,0.0463 -0.523915,0.22095 -0.80181,0.26727 -0.693454,0.11557 -1.444699,-0.11558 -2.138156,0 -0.277893,0.0463 -0.525552,0.21202 -0.801808,0.26727 -0.174719,0.0349 -0.356359,0 -0.534539,0 -0.267269,0 -0.534539,0 -0.801808,0 -1.22561,0 0.281727,-0.0564 -1.336348,0.26727 -0.174719,0.0349 -0.361679,-0.0432 -0.534539,0 -0.193263,0.0483 -0.341276,0.21895 -0.534539,0.26727 -0.23579,0.0589 -0.84012,-0.0763 -1.069078,0 -0.188988,0.063 -0.339197,0.2282 -0.534539,0.26727 -0.26208,0.0524 -0.534539,0 -0.801809,0 -0.356359,0 -0.712718,0 -1.069078,0 -1.069078,0 -2.138156,0 -3.207234,0 -0.623629,0 -1.247258,0 -1.870887,0 -0.9278,0 -0.61282,0.18899 -1.069078,-0.26727"
       id="path521"
       inkscape:connector-curvature="0" />
    <text
       xml:space="preserve"
       style="font-style:normal;font-weight:normal;font-size:4.23333311px;line-height:1.25;font-family:sans-serif;letter-spacing:0px;word-spacing:0px;fill:#000000;fill-opacity:1;stroke:none;stroke-width:0.26458332"
       x="10.95805"
       y="153.209"
       id="text529"><tspan
         sodipodi:role="line"
         id="tspan527"
         x="10.95805"
         y="153.209"
         style="stroke-width:0.26458332">220V ou 110V</tspan></text>
    <path
       style="fill:none;stroke:#000000;stroke-width:0.26458332px;stroke-linecap:butt;stroke-linejoin:miter;stroke-opacity:1"
       d="m 3.2072344,165.23612 c 0.9347549,0.5257 1.0954335,0.53454 1.8708865,0.53454 0.1781796,0 0.3616796,0.0432 0.534539,0 0.193263,-0.0483 0.3455511,-0.20427 0.5345393,-0.26727 0.084518,-0.0282 0.1781797,0 0.2672694,0 0.1743432,0 0.8584953,0.0526 1.069078,0 0.2733151,-0.0683 0.5284936,-0.19894 0.8018087,-0.26727 0.2461784,-0.0615 0.5616808,0.08 0.8018086,0 0.1889879,-0.063 0.3455509,-0.20427 0.5345391,-0.26727 0.1690359,-0.0563 0.3563593,0 0.534539,0 0.17818,0 0.365503,0.0564 0.534539,0 0.0019,-5.3e-4 0.801808,-0.33067 0.801808,-0.53454 0,-0.19921 -0.178179,-0.35636 -0.267269,-0.53454 -0.08909,-0.17818 -0.156767,-0.36878 -0.26727,-0.53454 -0.06989,-0.10483 -0.210924,-0.15457 -0.267269,-0.26727 -0.03984,-0.0797 0,-0.17818 0,-0.26726 -0.08909,-0.17819 -0.156767,-0.36879 -0.26727,-0.53454 -0.139775,-0.20967 -0.394763,-0.32488 -0.5345386,-0.53454 -0.1627648,-0.24415 -0.2281365,-0.64861 -0.5345391,-0.80181 -0.1686121,-0.0843 -1.1677353,0.0843 -1.3363477,0 -0.287306,-0.14365 -0.5145024,-0.39089 -0.8018084,-0.53454 -0.070276,-0.0351 -0.9293174,0 -1.069078,0 -0.08909,0 -0.2042737,-0.063 -0.2672697,0 -0.062996,0.063 0.062996,0.20427 0,0.26727 -0.1408633,0.14086 -0.3815008,0.13974 -0.534539,0.26727 -0.4839488,0.40329 -0.8908984,0.8909 -1.3363477,1.33635 -0.1407078,0.1407 -0.7304362,0.65906 -0.8018084,0.8018 -0.1373447,0.27469 0.2672694,0.61645 0.2672694,0.80181 0,0.45427 -0.5580867,0.98737 -0.2672694,1.33635 1.2709766,1.52517 1.3266584,0.36282 1.8708865,0 0.1657535,-0.1105 0.3455511,-0.20427 0.534539,-0.26727 0.084518,-0.0282 0.1875853,0.0398 0.2672696,0 0.1126908,-0.0563 0.1545789,-0.21092 0.2672697,-0.26727 0.7865231,-0.39326 -0.3518826,0.61915 0.534539,-0.26727"
       id="path533"
       inkscape:connector-curvature="0" />
    <path
       style="fill:none;stroke:#000000;stroke-width:0.26458332px;stroke-linecap:butt;stroke-linejoin:miter;stroke-opacity:1"
       d="m 4.2763124,198.37755 c -0.8818807,0.99264 -2.1405129,1.23085 -3.2072343,1.87088 -0.27544215,0.16527 -0.52636641,0.36928 -0.80180857,0.53454 -0.14544463,0.0873 -1.05797645,0.51234 -1.06907815,0.53454 -0.1195265,0.23905 0,0.53454 0,0.80181 0,0.17818 0,0.35636 0,0.53454 0,0.44545 0,0.89089 0,1.33634 0,0.17819 -0.079684,0.37518 0,0.53454 0.067055,0.13411 1.11837714,1.11838 1.33634769,1.33635 0.35635935,0.35636 0.71271873,0.71272 1.06907803,1.06908 0.1781797,0.17818 0.3248757,0.39476 0.5345391,0.53454 0.1657535,0.1105 0.3563594,0.17818 0.5345391,0.26727 0.1781796,0.0891 0.3455509,0.20427 0.534539,0.26727 0.03439,0.0114 0.7796739,0.0111 0.8018087,0 0.1126905,-0.0564 0.1545786,-0.21093 0.2672694,-0.26727 0.1593689,-0.0797 0.3751704,0.0797 0.534539,0 0.1126908,-0.0564 0.1545789,-0.21093 0.2672697,-0.26727 0.2138156,-0.10691 0.5879928,0.10691 0.8018084,0 0.1126908,-0.0563 0.1545788,-0.21093 0.2672696,-0.26727 0.079684,-0.0398 0.1875851,0.0398 0.2672694,0 0.1126908,-0.0563 0.1545788,-0.21092 0.2672696,-0.26727 0.3307615,-0.16538 0.4367636,0.2803 0.8018087,-0.26727 0.1105022,-0.16575 0.1567672,-0.36879 0.2672694,-0.53454 0.1397757,-0.20966 0.4218485,-0.30916 0.534539,-0.53454 0.039842,-0.0797 0,-0.17818 0,-0.26727 0,-0.26727 0.064822,-0.54252 0,-0.80181 -0.030558,-0.12223 -0.2274274,-0.14774 -0.2672694,-0.26727 -0.056345,-0.16903 0.043215,-0.36167 0,-0.53453 -0.048316,-0.19327 -0.2042736,-0.34556 -0.2672696,-0.53454 -0.056345,-0.16904 0,-0.35636 0,-0.53454 0,-0.80181 0,-1.60362 0,-2.40543 0,-0.17818 0,-0.35636 0,-0.53454 0,-0.17818 0.056345,-0.3655 0,-0.53454 -0.1726187,-0.51785 -0.58454,-0.12242 -0.8018084,-0.26727 -0.2096635,-0.13977 -0.3563596,-0.35636 -0.5345393,-0.53453 -0.08909,-0.0891 -0.1545786,-0.21093 -0.2672694,-0.26727 -0.2981994,-0.1491 -0.627489,0.36021 -0.8018087,0.53453"
       id="path535"
       inkscape:connector-curvature="0" />
    <path
       style="fill:none;stroke:#000000;stroke-width:0.26458332px;stroke-linecap:butt;stroke-linejoin:miter;stroke-opacity:1"
       d="m 155.01633,177.79779 c -0.0318,0.54266 -1.51088,0.14726 -1.87089,0.26727 -0.18899,0.063 -0.3392,0.2282 -0.53454,0.26727 -0.26208,0.0524 -0.53454,0 -0.80181,0 -0.62363,0 -1.24726,0 -1.87089,0 -1.95997,0 -3.91995,0 -5.87993,0 -2.22724,0 -4.45449,0 -6.68173,0 -0.62363,0 -1.24726,0 -1.87089,0 -0.17818,0 -0.71272,0 -0.53454,0 0.20269,0 0.80181,0.11516 0.80181,-0.26727 0,-0.0891 -0.17818,0 -0.26727,0 -0.26727,0 -0.53454,0 -0.80181,0 -2.04907,0 -4.09813,0 -6.1472,0 -1.95998,0 -3.91995,0 -5.87993,0 -0.53454,0 -1.06908,0 -1.60362,0 -0.17817,0 -0.3655,-0.0563 -0.53453,0 -0.4219,0.14063 -0.20248,0.27537 -0.26727,0.53454 -0.16084,0.64332 -0.23453,0.95816 -0.80181,1.33634 -0.47538,0.59805 -1.28909,0.45273 -1.87089,0.80181 -0.21607,0.12965 -0.35636,0.35636 -0.53454,0.53454 -0.17818,0.17818 -0.35636,0.35636 -0.53454,0.53454 -0.0891,0.0891 -0.21092,0.15458 -0.26727,0.26727 -0.18963,0.37926 0.20518,0.22408 0.26727,0.53454 0.0688,0.34415 0,1.6579 0,2.13816 0,0.12036 -0.0407,0.72047 0,0.8018 0.0563,0.1127 0.20245,0.15924 0.26727,0.26728 0.20499,0.34164 0.35636,0.71271 0.53454,1.06907 0.0891,0.17818 0.21896,0.34128 0.26727,0.53454 0.0432,0.17286 -0.0432,0.36168 0,0.53454 0.0483,0.19326 0.21895,0.34128 0.26727,0.53454 0.0432,0.17286 -0.0563,0.3655 0,0.53454 0.0398,0.11952 0.21093,0.15458 0.26727,0.26727 0.12599,0.25198 0.19894,0.52849 0.26727,0.80181 0.0216,0.0864 -0.0398,0.18758 0,0.26727 0.0563,0.11269 0.22743,0.14774 0.26727,0.26727 0.0563,0.16903 -0.0563,0.3655 0,0.53454 0.0398,0.11952 0.19738,0.16243 0.26727,0.26726 0.221,0.33151 0.31353,0.73758 0.53454,1.06908 0.0699,0.10483 0.17818,0.17818 0.26727,0.26727 0.26727,0.26727 0.53454,0.53454 0.80181,0.80181 0.17817,0.17818 0.35636,0.35636 0.53453,0.53454 0.0891,0.0891 0.15458,0.21092 0.26728,0.26727 0.0797,0.0398 0.17817,0 0.26726,0 0.0891,0 0.17818,0 0.26727,0 0.3157,0 1.44469,-0.053 1.60362,0 0.37798,0.12599 0.6911,0.40855 1.06908,0.53454 0.16903,0.0563 0.35636,0 0.53454,0 0.17818,0 0.35636,0 0.53454,0 0.0635,0 1.00917,0.0299 1.06908,0 0.11268,-0.0564 0.17817,-0.17818 0.26726,-0.26727 0.0891,-0.0891 0.17818,-0.17818 0.26727,-0.26727 0.4646,-0.4646 1.11589,-0.94222 1.33635,-1.60362 0.0196,-0.0589 0.0221,-1.5152 0,-1.60361 -0.0483,-0.19327 -0.15677,-0.36879 -0.26727,-0.53454 -0.13977,-0.20967 -0.39476,-0.32488 -0.53454,-0.53454 -0.1105,-0.16576 -0.15676,-0.36879 -0.26727,-0.53454 -0.0699,-0.10483 -0.21092,-0.15458 -0.26727,-0.26727 -0.0799,-0.15973 0.17595,-0.53454 -0.26727,-0.53454 -0.0648,0 -0.39737,0.45224 -0.53454,0.53454 -0.99373,0.59624 -2.11426,0.97202 -3.20723,1.33635 -0.53454,0.17818 -1.08572,0.31258 -1.60362,0.53454 -0.3662,0.15694 -0.71271,0.35635 -1.06907,0.53453 -0.0575,0.0287 -1.23351,0.49329 -1.33635,0.80181 -0.0563,0.16904 0,0.35636 0,0.53454 0,0.17818 0,0.35636 0,0.53454 0,0.53454 0,1.06908 0,1.60362 0,0.17818 -0.0563,0.3655 0,0.53454 0.0398,0.11952 0.22742,0.14774 0.26727,0.26727 0.0563,0.16903 -0.0432,0.36168 0,0.53454 0.0483,0.19326 0.21895,0.34127 0.26727,0.53453 0.0432,0.17286 0,0.35636 0,0.53454 0.0891,0.17818 0.20427,0.34555 0.26727,0.53454 0.0943,0.28293 -0.1094,1.11756 0,1.33635 0.11269,0.22538 0.38335,0.33295 0.53454,0.53454 0.11952,0.15937 0.15676,0.36879 0.26726,0.53454 0.13978,0.20966 0.35636,0.35636 0.53455,0.53454 0.26726,0.26727 0.53453,0.53454 0.8018,0.80181 0.0891,0.0891 0.17818,0.17817 0.26727,0.26726 0.0891,0.0891 0.15458,0.21093 0.26727,0.26727 0.0549,0.0274 1.25698,0.0265 1.33635,0 0.18899,-0.063 0.34555,-0.20427 0.53454,-0.26727 0.0845,-0.0282 0.17818,0 0.26727,0 0.17818,0 0.35636,0 0.53454,0 1.83142,0 0.35104,0.1127 1.87088,-0.26726 0.17286,-0.0432 0.37517,0.0797 0.53454,0 0.11269,-0.0563 0.15458,-0.21093 0.26727,-0.26727 0.0797,-0.0399 0.17818,0 0.26727,0 0.0891,-0.0891 0.15458,-0.21093 0.26727,-0.26727 0.28509,-0.14255 0.35726,0.26458 0.53454,-0.26727 0.0563,-0.16904 0,-0.35636 0,-0.53454 0,-0.99071 -0.44536,-1.24718 -1.06908,-1.87089 -0.0891,-0.0891 -0.17818,-0.17818 -0.26727,-0.26727 -0.0891,-0.0891 -0.15458,-0.21092 -0.26727,-0.26727 -0.25198,-0.12599 -0.52555,-0.21202 -0.8018,-0.26727 -0.34945,-0.0699 -0.71272,0 -1.06908,0 -0.53454,0 -1.06908,0 -1.60362,0 -0.53454,0 -1.06908,0 -1.60362,0 -0.17818,0 -0.3655,-0.0563 -0.53454,0 -0.11952,0.0399 -0.15457,0.21093 -0.26727,0.26727 -0.0797,0.0398 -0.18758,-0.0398 -0.26726,0 -0.1127,0.0563 -0.14775,0.22743 -0.26728,0.26727 -0.16903,0.0563 -0.3655,-0.0563 -0.53453,0 -0.11953,0.0398 -0.17819,0.17818 -0.26727,0.26727 -0.26727,0.26727 -0.48732,0.59215 -0.80181,0.80181 -0.23441,0.15627 -0.56023,0.12232 -0.80181,0.26727 -0.36258,0.21755 -0.66916,0.67112 -0.80181,1.06908 -0.0282,0.0845 0,0.17818 0,0.26727 0,0.17818 0,0.35636 0,0.53454 0,0.17818 0.0432,0.36167 0,0.53453 -0.0483,0.19327 -0.21895,0.34128 -0.26727,0.53455 -0.0191,0.0763 -0.0481,1.4594 0,1.60361 0.063,0.18899 0.20427,0.34555 0.26727,0.53454 0.0564,0.16904 0,0.35636 0,0.53454 0,0.62363 0,1.24726 0,1.87089 0,0.17817 0,0.35636 0,0.53453 0,0.0891 -0.0398,0.18759 0,0.26728 0.0564,0.11269 0.21093,0.15457 0.26727,0.26726 0.0398,0.0797 0,0.17819 0,0.26727 0,0.0891 0,0.17818 0,0.26727 0,0.96147 -0.20536,1.39826 0.53454,2.13816 0.0891,0.0891 0.15458,0.21092 0.26727,0.26727 0.0797,0.0398 0.18758,-0.0398 0.26727,0 0.11269,0.0564 0.15458,0.21092 0.26727,0.26727 0.0797,0.0398 0.17818,0 0.26727,0 0.0891,0 0.17818,0 0.26727,0 0.30937,0 1.09773,-0.0597 1.33635,0 0.19326,0.0483 0.35635,0.17818 0.53453,0.26727 0.17818,0.0891 0.36879,0.15677 0.53454,0.26727 0.10483,0.0699 0.15458,0.21092 0.26727,0.26727 0.0797,0.0398 0.18759,-0.0399 0.26727,0 0.11269,0.0563 0.15458,0.21092 0.26727,0.26727 0.0221,0.0111 0.76742,0.0114 0.80181,0 0.18899,-0.063 0.36879,-0.15677 0.53454,-0.26727 0.10483,-0.0699 0.15458,-0.21093 0.26727,-0.26727 0.86928,-0.43464 0.63575,-0.0675 1.33635,-0.53454 0.61159,-0.40773 -0.16713,-0.21157 0.8018,-0.53454 0.0845,-0.0282 0.18759,0.0398 0.26727,0 0.11269,-0.0564 0.17818,-0.17818 0.26727,-0.26727 0.0891,-0.0891 0.21093,-0.15458 0.26727,-0.26727 0.0406,-0.0813 0,-0.88452 0,-1.06908 0,-0.39326 0.063,-0.20427 -0.26727,-0.53454 -0.0891,-0.0891 -0.17818,-0.17818 -0.26727,-0.26727 -0.0891,-0.0891 -0.15457,-0.21092 -0.26727,-0.26727 -0.0797,-0.0398 -0.17818,0 -0.26726,0 -0.26728,0 -0.53454,0 -0.80181,0 -0.62363,0 -1.24726,0 -1.87089,0 -0.91565,0 -1.79392,-0.0842 -2.67269,0.26727 -0.11699,0.0468 -0.14775,0.22743 -0.26728,0.26727 -1.15717,0.38573 0.0982,-0.51093 -1.06907,0.26727 -0.20967,0.13978 -0.35636,0.35636 -0.53454,0.53454 -0.33719,0.33719 -0.78981,0.69672 -1.06908,1.06908 -0.81012,1.08016 -0.0423,0.12696 -0.26727,0.80181 -0.063,0.18899 -0.20427,0.34555 -0.26727,0.53454 -0.0282,0.0845 0,0.17818 0,0.26727 0,0.17818 0,0.35636 0,0.53454 0,0.17818 0.0432,0.36168 0,0.53454 -0.0483,0.19326 -0.21895,0.34127 -0.26727,0.53453 -0.0648,0.25929 0,0.53454 0,0.80181 0,0.53454 0,1.06908 0,1.60362 0,0.23161 -0.0516,0.91426 0,1.06908 0.19108,0.57323 0.65823,0.9255 1.06908,1.33635 0.0891,0.0891 0.17818,0.17817 0.26727,0.26726 0.0891,0.0891 0.15458,0.21093 0.26727,0.26727 0.0797,0.0399 0.18758,-0.0398 0.26727,0 0.11269,0.0564 0.15458,0.21093 0.26727,0.26728 0.25198,0.12599 0.54023,0.16263 0.80181,0.26726 0.66998,0.268 1.14131,0.61942 1.87088,0.80181 0.53454,0.13364 0,-0.26727 0.80181,0 0.11953,0.0398 0.15458,0.21093 0.26727,0.26727 0.0797,0.0398 0.18275,-0.0282 0.26727,0 0.18899,0.063 0.34555,0.20428 0.53454,0.26727 0.0845,0.0282 0.17818,0 0.26727,0 0.17818,0 0.35636,0 0.53454,0 0.71272,0 1.42543,0 2.13815,0 2.04907,0 4.09814,0 6.1472,0 1.87089,0 3.74178,0 5.61266,0 0.62363,0 1.2491,0.0478 1.87089,0 4.41347,-0.3395 -0.58113,-0.12781 2.6727,-0.53454 0.3536,-0.0442 0.71756,0.0586 1.06907,0 0.96797,-0.16133 0.19082,-0.22904 0.80181,-0.53454 0.0797,-0.0398 0.17818,0 0.26727,0 0.44545,0 0.89203,0.0317 1.33635,0 0.80469,-0.0575 1.60362,-0.17818 2.40542,-0.26727 0.80181,-0.0891 1.60008,-0.21989 2.40543,-0.26726 0.71149,-0.0419 1.42544,0 2.13816,0 1.24725,0 2.49451,0 3.74177,0 2.40542,0 4.81085,0 7.21628,0"
       id="path537"
       inkscape:connector-curvature="0" />
    <text
       xml:space="preserve"
       style="font-style:normal;font-weight:normal;font-size:4.23333311px;line-height:1.25;font-family:sans-serif;letter-spacing:0px;word-spacing:0px;fill:#000000;fill-opacity:1;stroke:none;stroke-width:0.26458332"
       x="43.030392"
       y="216.55186"
       id="text547"><tspan
         sodipodi:role="line"
         id="tspan545"
         x="43.030392"
         y="216.55186"
         style="stroke-width:0.26458332">100Voltas</tspan><tspan
         sodipodi:role="line"
         x="43.030392"
         y="221.84354"
         style="stroke-width:0.26458332"
         id="tspan549" /></text>
    <text
       xml:space="preserve"
       style="font-style:normal;font-weight:normal;font-size:4.23333311px;line-height:1.25;font-family:sans-serif;letter-spacing:0px;word-spacing:0px;fill:#000000;fill-opacity:1;stroke:none;stroke-width:0.26458332"
       x="41.016224"
       y="188.46315"
       id="text547-5"><tspan
         sodipodi:role="line"
         id="tspan545-3"
         x="41.016224"
         y="188.46315"
         style="stroke-width:0.26458332">100Voltas</tspan><tspan
         sodipodi:role="line"
         x="41.016224"
         y="193.75482"
         style="stroke-width:0.26458332"
         id="tspan549-5" /></text>
    <text
       xml:space="preserve"
       style="font-style:normal;font-weight:normal;font-size:4.23333311px;line-height:1.25;font-family:sans-serif;letter-spacing:0px;word-spacing:0px;fill:#000000;fill-opacity:1;stroke:none;stroke-width:0.26458332"
       x="139.78195"
       y="201.3175"
       id="text574"><tspan
         sodipodi:role="line"
         id="tspan572"
         x="139.78195"
         y="201.3175"
         style="stroke-width:0.26458332">10 voltas</tspan></text>
    <text
       xml:space="preserve"
       style="font-style:normal;font-weight:normal;font-size:4.23333311px;line-height:1.25;font-family:sans-serif;letter-spacing:0px;word-spacing:0px;fill:#000000;fill-opacity:1;stroke:none;stroke-width:0.26458332"
       x="168.64706"
       y="199.17935"
       id="text578"><tspan
         sodipodi:role="line"
         id="tspan576"
         x="168.64706"
         y="199.17935"
         style="stroke-width:0.26458332">10V</tspan></text>
    <path
       style="fill:none;stroke:#000000;stroke-width:0.26458332px;stroke-linecap:butt;stroke-linejoin:miter;stroke-opacity:1"
       d="m 9.8889724,56.991964 c 0.1781796,-0.44545 0.4304636,-0.868008 0.5345386,-1.336347 0.41153,-1.851885 -0.07068,-0.424101 -0.267269,-1.603619 -0.05859,-0.351509 0,-0.712718 0,-1.069078 0,-0.979987 0,-1.959975 0,-2.939965 0,-0.534538 0,-1.069078 0,-1.603616 0,-0.08909 0,-0.178181 0,-0.267269 0,-0.08909 -0.03984,-0.187587 0,-0.267271 0.489994,-0.979988 1.069078,-1.336347 2.138156,-1.870887 0.328547,-0.164272 0.728024,-0.130847 1.069078,-0.267269 0.116981,-0.04679 0.17818,-0.178179 0.26727,-0.267269 0.178179,-0.08909 0.345551,-0.204274 0.534539,-0.267269 0.169036,-0.05635 0.37517,0.07969 0.534539,0 0.287306,-0.143653 0.506563,-0.408006 0.801809,-0.53454 0.337626,-0.144696 0.708884,-0.195231 1.069078,-0.267269 0.174719,-0.03494 0.37517,0.07968 0.534539,0 0.11269,-0.05635 0.150288,-0.220477 0.267269,-0.267269 0.457279,-0.182912 2.010513,-0.435811 2.405426,-0.53454 0.273315,-0.06833 0.523915,-0.220954 0.801808,-0.267269 0.263633,-0.04394 0.534539,0 0.801809,0 0.712719,0 1.425437,0 2.138156,0 0.623629,0 1.247258,0 1.870887,0 0.08777,0 0.761986,-0.02655 0.801808,0 0.513081,0.342053 0.711658,0.859787 1.069079,1.336347 0.07559,0.100793 0.197381,0.162438 0.267268,0.267269 0.110504,0.165753 0.178181,0.356359 0.267269,0.53454 0.08909,0.178178 0.204274,0.345551 0.267272,0.534538 0.08452,0.253555 -0.05242,0.539731 0,0.801809 0.177284,0.886423 0.249452,0.623631 0.534537,1.336349 0.104633,0.261575 0.122323,0.560229 0.267269,0.801807 0.129646,0.216075 0.404895,0.318466 0.534541,0.53454 0.144946,0.241578 0.141277,0.549823 0.267269,0.80181 0.143652,0.287305 0.369273,0.526364 0.53454,0.801806 0.204986,0.341646 0.386569,0.699154 0.534538,1.069078 0.104632,0.261578 0.19894,0.528495 0.267271,0.801809 0.02162,0.08643 -0.03984,0.187585 0,0.267269 0.05634,0.112691 0.227425,0.147743 0.267269,0.267272 0.08452,0.253553 -0.08452,0.548253 0,0.801806 0.063,0.188989 0.204274,0.345551 0.267269,0.534541 0.02817,0.08452 -0.02817,0.18275 0,0.267268 0.063,0.18899 0.204274,0.345552 0.267269,0.534541 0.02817,0.08452 0,0.178178 0,0.267269 0,0.267268 -0.04394,0.538175 0,0.801809 0.04631,0.277892 0.212018,0.525552 0.267271,0.801806 0.03494,0.174721 -0.03495,0.35982 0,0.534541 0.05525,0.276256 0.220954,0.523914 0.267269,0.801809 0.08788,0.527264 -0.104833,1.079458 0,1.603616 0.03907,0.195342 0.193283,0.349578 0.267269,0.53454 1.076163,2.690408 -0.208685,-0.567465 0.267269,1.336347 0.04832,0.193262 0.218953,0.341275 0.267271,0.53454 0.04322,0.172858 0,0.35636 0,0.534538 0,0.267269 0,0.53454 0,0.801809 0,0.08909 -0.02817,0.182751 0,0.267269 0.125992,0.377976 0.35636,0.712719 0.534538,1.069078 0.08909,0.178181 0.218953,0.341276 0.267269,0.53454 0.04322,0.172858 -0.05635,0.365501 0,0.534538 0.03984,0.119526 0.210926,0.15458 0.267271,0.267269 0.03984,0.07969 -0.03984,0.187587 0,0.267271 0.611593,1.223188 -0.110776,-1.134136 0.534538,0.801807 0.02817,0.08452 0,0.178181 0,0.267271 0.08909,0.267269 0.162639,0.540232 0.267269,0.801807 0.147971,0.369927 0.356359,0.712719 0.53454,1.069078 0.08909,0.178181 0.156766,0.368787 0.267269,0.53454 0.06989,0.104831 0.210923,0.154578 0.267269,0.267269 0.08909,0.267269 0.178181,0.534541 0.267271,0.801809 0.08909,0.08909 0.210923,0.154578 0.267269,0.267269 0.03984,0.07968 -0.03984,0.187587 0,0.267269 0.112691,0.225383 0.421849,0.309158 0.534538,0.534541 0.03984,0.07968 0,0.178178 0,0.267268 0.08909,0.178181 0.156768,0.368787 0.267271,0.534541 0.06989,0.10483 0.178179,0.178178 0.267269,0.267269 0.267269,0.267268 0.534538,0.534537 0.801809,0.801809 0.140708,0.140708 0.659064,0.730435 0.801807,0.801806 0.08134,0.04067 0.681442,0 0.801809,0 0.534541,0 1.069078,0 1.603619,0 0.175625,0 0.651015,-0.05026 0.801806,0 0.774134,0.258046 0.363077,0.395502 1.33635,0.534541 0.352777,0.0504 0.714899,-0.03935 1.069078,0 0.902983,0.100332 1.76971,0.434207 2.672694,0.53454 0.354181,0.03935 0.717568,-0.05859 1.069078,0 0.1965,0.03275 0.345551,0.204272 0.53454,0.267269 0.168219,0.05607 1.095441,0 1.336347,0 0.890899,0 1.784874,0.07399 2.672696,0 0.540039,-0.045 1.069078,-0.178181 1.603616,-0.267269 0.53454,-0.08909 1.070446,-0.170331 1.603618,-0.267271 0.446942,-0.08126 0.884854,-0.217104 1.336347,-0.267269 1.06403,-0.118227 0.864524,0.225459 1.603619,-0.267269 0.10483,-0.06989 0.210923,-0.15458 0.267269,-0.267272 0.03984,-0.07968 0,-0.178178 0,-0.267269 0,-0.08909 0,-0.178178 0,-0.267268 0,-0.44545 0,-0.8909 0,-1.336347 0,-0.178181 0,-0.35636 0,-0.534541 0,-0.08909 -0.03984,-0.187584 0,-0.267268 0.112691,-0.225383 0.421846,-0.309158 0.534537,-0.534541 0.07672,-0.153429 -0.05687,-1.108842 0,-1.336347 0.04832,-0.193262 0.218954,-0.341275 0.267272,-0.534537 0.06057,-0.242293 0,-1.025869 0,-1.33635 0,-0.801807 0,-1.603616 0,-2.405425 0,-0.277939 -0.05256,-1.393378 0,-1.603616 0.04831,-0.193265 0.218953,-0.341278 0.267269,-0.53454 0.108037,-0.432149 -0.08736,-0.899549 0,-1.336347 0.03907,-0.195342 0.2282,-0.339198 0.267268,-0.53454 0.104831,-0.524158 -0.10483,-1.079458 0,-1.603616 0.0026,-0.01262 0.519761,-1.032132 0.534541,-1.069078 0.08909,-0.267272 0.178178,-0.53454 0.267269,-0.801809 0,-0.08909 -0.02162,-0.18084 0,-0.267269 0.06833,-0.273317 0.19894,-0.528495 0.267268,-0.801809 0.02162,-0.08643 -0.03984,-0.187585 0,-0.267269 0.05635,-0.112691 0.227428,-0.147743 0.267269,-0.267272 0.05635,-0.169034 -0.05635,-0.3655 0,-0.534537 0.07968,-0.239054 0.421849,-0.309158 0.534541,-0.534541 0.03984,-0.07968 -0.02162,-0.180837 0,-0.267269 0.06833,-0.273314 0.19894,-0.528492 0.267269,-0.801809 0.02162,-0.08643 -0.02817,-0.18275 0,-0.267269 0.063,-0.188986 0.218953,-0.341275 0.267268,-0.534537 0.04322,-0.172861 -0.04321,-0.36168 0,-0.534541 0.193787,-0.775144 0.208519,-0.312774 0.534541,-0.801809 0.467066,-0.700598 0.0999,-0.467066 0.534537,-1.336347 0.05635,-0.112691 0.178181,-0.178178 0.267272,-0.267269 0.08909,-0.178181 0.193283,-0.349575 0.267269,-0.53454 0.217321,-0.543301 0.221141,-0.866251 0.534537,-1.336347 0.06989,-0.10483 0.227428,-0.147743 0.267272,-0.267269 0.05635,-0.169037 -0.04322,-0.36168 0,-0.53454 0.193786,-0.775142 0.208515,-0.312775 0.534538,-0.801807 0.221003,-0.331507 0.295486,-0.750342 0.53454,-1.069078 0.226785,-0.302381 0.534538,-0.53454 0.801807,-0.801809 0.178181,-0.178181 0.356359,-0.356359 0.53454,-0.53454 0.08909,-0.08909 0.162438,-0.197382 0.267269,-0.267269 0.165753,-0.110503 0.368787,-0.156768 0.53454,-0.267269 0.104831,-0.06989 0.162436,-0.197382 0.267269,-0.267271 0.165754,-0.110501 0.368784,-0.156766 0.534538,-0.267269 0.104833,-0.06989 0.15458,-0.210923 0.267271,-0.267269 0.07969,-0.03984 0.193141,0.04942 0.267269,0 0.209664,-0.139777 0.324877,-0.394764 0.534538,-0.53454 0.07413,-0.04942 0.182753,0.02817 0.267271,0 0.188987,-0.063 0.345551,-0.204272 0.534538,-0.267269 0.08452,-0.02817 0.187587,0.03984 0.267269,0 0.112691,-0.05635 0.147743,-0.227428 0.267271,-0.267269 0.253553,-0.08452 0.548254,0.08452 0.801807,0 0.188989,-0.063 0.345551,-0.204274 0.53454,-0.267269 0.172845,-0.05762 1.044517,0 1.336347,0 0.356359,0 0.712719,0 1.069078,0 0.178181,0 0.36168,-0.04322 0.53454,0 0.193263,0.04832 0.349576,0.193283 0.534538,0.267269 0.523156,0.209261 1.069078,0.356359 1.603619,0.534538 0.267268,0.08909 0.523914,0.220956 0.801809,0.267271 0.263631,0.04394 0.544822,-0.07342 0.801806,0 0.383093,0.109453 0.696026,0.394642 1.069078,0.534538 0.68507,0.256902 1.224749,0.211471 1.870888,0.53454 0.287305,0.143653 0.526367,0.369274 0.801809,0.534538 0.170823,0.102494 0.356359,0.178181 0.534538,0.267269 0.267271,0.178181 0.526367,0.369276 0.801809,0.53454 0.341643,0.204986 0.737571,0.313534 1.069078,0.53454 0.209664,0.139774 0.356359,0.35636 0.53454,0.534538 0.534538,0.53454 1.069078,1.069078 1.603616,1.603618 0.178181,0.178179 0.332952,0.383347 0.53454,0.534538 0.159369,0.119526 0.375169,0.147743 0.534538,0.267269 0.201589,0.151191 0.332952,0.38335 0.53454,0.53454 0.159369,0.119526 0.378981,0.142822 0.534538,0.267269 0.295151,0.23612 0.506659,0.56569 0.801809,0.801809 0.155557,0.124447 0.375171,0.147744 0.534541,0.267269 0.201586,0.151191 0.356359,0.35636 0.534537,0.534541 0.178181,0.178178 0.35636,0.356359 0.534541,0.534537 0.08909,0.08909 0.178178,0.178181 0.267268,0.267269 0.08909,0.08909 0.210924,0.15458 0.267269,0.267272 0.03984,0.07968 -0.03984,0.187584 0,0.267269 0.05635,0.112691 0.210923,0.154577 0.267269,0.267268 0.125992,0.251984 0.162639,0.540232 0.267272,0.80181 0.07398,0.184962 0.204271,0.345551 0.267268,0.534537 0.02817,0.08452 -0.03984,0.187587 0,0.267272 0.05635,0.112688 0.227428,0.147743 0.267269,0.267269 0.169037,0.239839 -0.08452,0.548253 0,0.801809 0.063,0.188986 0.204275,0.345551 0.267269,0.534538 0.02817,0.08452 0,0.178181 0,0.267268 0,0.223811 -0.05081,1.1331 0,1.33635 0.04832,0.193262 0.204274,0.345551 0.267272,0.534538 0.05772,0.173169 0,1.117533 0,1.336347 0,0.801809 0,1.603618 0,2.405427 0,0.178178 0,0.356359 0,0.534538 0,0.178181 -0.04322,0.36168 0,0.53454 0.09663,0.386525 0.408545,0.691102 0.534537,1.069078 0.05635,0.169035 -0.07968,0.375169 0,0.534538 0.05635,0.112691 0.210924,0.15458 0.267269,0.267271 0.07968,0.159367 -0.05635,0.365501 0,0.534538 0.322977,0.968931 0.126812,0.190214 0.534541,0.801809 0.221003,0.331507 0.313533,0.737571 0.534537,1.069078 0.06989,0.104831 0.197382,0.162439 0.267272,0.267269 0.221004,0.331507 0.313534,0.737571 0.534537,1.069078 0.816266,1.224399 -0.43439,-1.136049 0.534541,0.801809 0.08909,0.178179 0.178178,0.35636 0.267269,0.534538 0.08909,0.178181 0.147743,0.375171 0.267269,0.53454 0.15119,0.201587 0.383349,0.332952 0.53454,0.534538 0.810116,1.080156 0.04232,0.126958 0.267269,0.801809 0.06299,0.18899 0.204274,0.345552 0.267269,0.534541 0.02817,0.08452 -0.03984,0.187584 0,0.267269 0.02558,0.05116 1.017918,1.043498 1.069078,1.069078 0.0797,0.03984 0.17818,0 0.26727,0 0.17818,0.08909 0.36879,0.156768 0.53454,0.267268 0.39328,0.262187 0.6758,0.806892 1.06908,1.069079 0.16575,0.110503 0.37517,0.147743 0.53454,0.267271 0.20158,0.151188 0.33777,0.377124 0.53453,0.534538 0.50166,0.401328 1.06908,0.712718 1.60362,1.069078 0.89733,0.598217 0.88404,0.61677 1.60362,1.336347 0.17818,0.178181 0.35636,0.356359 0.53454,0.53454 0.0891,0.08909 0.19738,0.162438 0.26727,0.267269 0.1105,0.165753 0.1264,0.393676 0.26727,0.53454 0.063,0.063 0.17818,0 0.26727,0 0.0891,0 0.17818,0 0.26727,0 0.13976,0 0.9988,0.03514 1.06908,0 0.66053,-0.330266 -0.0923,-0.267271 0.53453,-0.267271"
       id="path580"
       inkscape:connector-curvature="0" />
    <path
       style="fill:none;stroke:#000000;stroke-width:0.26458332px;stroke-linecap:butt;stroke-linejoin:miter;stroke-opacity:1"
       d="m 4.0090428,60.733736 c 0.4454493,-0.267269 0.8717119,-0.56949 1.3363477,-0.801807 0.079684,-0.03984 0.1781797,0 0.2672694,0 0.3563596,0 0.712719,0 1.0690783,0 0.4454491,0 0.8924369,-0.03699 1.3363474,0 1.0346071,0.08622 2.4303784,0.385376 3.4745034,0.534538 0.711047,0.101578 1.424811,0.183348 2.138157,0.267269 0.801217,0.09426 1.609659,0.134643 2.405426,0.267271 0.810192,0.13503 1.598126,0.38317 2.405425,0.534538 0.619171,0.116094 1.251088,0.15458 1.870887,0.267271 0.361402,0.06571 0.703998,0.226703 1.069078,0.267269 0.558891,0.0621 1.267996,0 1.870886,0 0.09105,0 0.924431,0.04821 1.069079,0 0.377976,-0.125992 0.691102,-0.408548 1.069078,-0.53454 0.08452,-0.02817 0.187585,0.03984 0.267269,0 0.225382,-0.112692 0.309158,-0.421847 0.534539,-0.534538 0.07969,-0.03984 0.17818,0 0.267269,0 0.08909,0 0.178181,0 0.267269,0 0.44545,0 0.8909,0 1.33635,0 0.712718,0 1.425437,0 2.138156,0 10.779871,0 21.559742,0 32.339613,0 1.693333,0 0.97936,0 2.672694,0 0.445449,0 0.893109,-0.04433 1.336347,0 0.452016,0.0452 0.886642,0.203025 1.336349,0.267269 0.176387,0.02519 0.361678,-0.04322 0.534538,0 0.193262,0.04832 0.341275,0.218953 0.53454,0.267269 0.432149,0.108037 0.896959,-0.07323 1.336347,0 0.277895,0.04631 0.528492,0.19894 0.801809,0.267271 0.08643,0.02162 0.178179,0 0.267269,0 0.267269,0 0.538176,-0.04394 0.801809,0 0.277892,0.04632 0.522256,0.232326 0.801807,0.267269 0.44201,0.05525 0.893625,-0.04919 1.336349,0 0.36508,0.04056 0.710499,0.187584 1.069078,0.267269 0.443453,0.09854 0.890897,0.178181 1.336347,0.267269 0.44545,0.08909 0.883645,0.229544 1.336347,0.267271 0.621475,0.05179 1.247259,0 1.870887,0 0.623629,0 1.24726,0 1.870888,0 3.207234,0 6.414468,0 9.621702,0 0.712719,0 1.425438,0 2.138156,0 0.534541,0 1.070438,-0.03809 1.603619,0 4.515289,0.322519 0.219776,0.267269 3.474503,0.267269 0.623628,0 1.247256,0 1.870885,0 0.35636,0 0.72643,-0.0979 1.06908,0 0.30886,0.08824 0.50357,0.415242 0.80181,0.534538 0.16543,0.06618 0.35636,0 0.53454,0 0.26727,0 0.53454,0 0.80181,0 0.53453,0 1.06907,0 1.60361,0 1.7818,0 3.5636,0 5.34539,0 1.51453,0 3.02906,0 4.54359,0 0.17199,0 1.69001,0.04522 1.87088,0 0.19327,-0.04832 0.34128,-0.218953 0.53454,-0.267269 0.24229,-0.06057 1.02587,0 1.33635,0 0.17818,0 0.3655,0.05635 0.53454,0 0.11952,-0.03984 0.15458,-0.210923 0.26727,-0.267269 0.0797,-0.03984 0.17818,0 0.26727,0 0.0891,0 0.17818,0 0.26727,0"
       id="path582"
       inkscape:connector-curvature="0" />
    <path
       style="fill:none;stroke:#000000;stroke-width:0.26458332px;stroke-linecap:butt;stroke-linejoin:miter;stroke-opacity:1"
       d="m 1.6036172,47.63753 c 1.4237074,-0.284742 0.8820767,-0.267269 1.6036172,-0.267269 0.08909,0 0.1875851,0.03984 0.2672694,0 0.1126908,-0.05635 0.1477431,-0.227428 0.2672696,-0.267269 0.2535539,-0.08452 0.5345391,0 0.8018084,0 0.5345391,0 1.0690781,0 1.6036174,0 0.534539,0 1.069078,0 1.6036171,0 0.2672693,0 0.5381754,-0.04394 0.8018084,0 0.2778937,0.04632 0.5309216,0.189873 0.8018086,0.267269 0.7842007,0.224057 1.9026307,0.464532 2.6726957,0.534538 0.443619,0.04033 0.890898,0 1.336347,0 1.425438,0 2.850875,0 4.276313,0 0.623629,0 1.247257,0 1.870886,0 0.120367,0 0.72047,0.04067 0.801809,0 0.112691,-0.05635 0.154579,-0.210923 0.267269,-0.267269 0.159369,-0.07968 0.375171,0.07969 0.534539,0 0.112691,-0.05635 0.154579,-0.210923 0.26727,-0.267269 0.213816,-0.106907 0.587993,0.106908 0.801808,0 0.112691,-0.05635 0.154579,-0.210926 0.26727,-0.267269 0.07968,-0.03984 0.17818,0 0.267269,0 0.17818,0 0.35636,0 0.534539,0 1.158169,0 2.316337,0 3.474503,0 1.603619,0 3.207237,0 4.810853,0 1.425437,0 2.850875,0 4.276312,0 0.44545,0 0.8909,0 1.336347,0 0.178181,0 0.356359,0 0.53454,0 0.08909,0 0.187585,0.03984 0.267269,0 0.112691,-0.05635 0.15458,-0.210925 0.267269,-0.267271 0.07968,-0.03984 0.178181,0 0.267271,0 0.35636,0 0.712719,0 1.069078,0 0.890898,0 1.781797,0 2.672694,0 2.583606,0 5.167212,0 7.750818,0 1.069078,0 2.138156,0 3.207234,0 0.411308,0 1.250694,0.05882 1.603616,0 0.362328,-0.06039 0.705443,-0.215321 1.069078,-0.267269 0.264583,-0.0378 0.53454,0 0.801809,0 0.890897,0 1.781797,0 2.672697,0 0.979987,0 1.959975,0 2.939962,0 0.14918,0 1.214001,-0.04078 1.33635,0 0.119525,0.03984 0.154577,0.210923 0.267269,0.267269 0.07968,0.03984 0.187584,-0.03984 0.267269,0 0.112691,0.05635 0.145039,0.236712 0.267268,0.267271 0.259292,0.06482 0.538176,-0.04394 0.80181,0 0.277894,0.04632 0.522258,0.232326 0.801809,0.267269 0.44201,0.05525 0.893109,-0.04433 1.336347,0 0.452017,0.0452 0.884332,0.222068 1.336347,0.267269 0.44324,0.04432 0.890899,0 1.336349,0 0.534538,0 1.069078,0 1.603616,0 0.53454,0 1.071732,-0.05319 1.603618,0 0.365504,0.03655 0.704588,0.221708 1.069078,0.267269 0.353608,0.0442 0.715471,-0.0442 1.069078,0 0.36449,0.04556 0.704588,0.22171 1.069078,0.267271 0.707216,0.0884 1.429796,-0.07871 2.138157,0 0.451493,0.05016 0.885584,0.210924 1.336346,0.267269 0.265206,0.03315 0.539729,-0.05242 0.80181,0 0.195342,0.03907 0.338037,0.234519 0.534537,0.267269 1.831422,0 0.351047,-0.112691 1.870888,0.267269 0.08643,0.02162 0.178181,0 0.267268,0 0.534541,0 1.074452,-0.07559 1.603619,0 0.278895,0.03984 0.522912,0.227428 0.801809,0.267271 0.352777,0.0504 0.71547,-0.0442 1.069078,0 0.72898,0.09112 1.407996,0.453409 2.138156,0.534538 0.442725,0.04919 0.890897,0 1.336347,0 1.158169,0 2.316337,0 3.474503,0 3.741775,0 7.483548,0 11.225318,0 1.41111,0 0.72705,0 2.13816,0 0.44545,0 0.8909,0 1.33635,0 0.0891,0 0.18758,-0.03984 0.26727,0 0.11269,0.05635 0.17818,0.178181 0.26727,0.267269"
       id="path584"
       inkscape:connector-curvature="0" />
    <path
       style="fill:none;stroke:#000000;stroke-width:0.26458332px;stroke-linecap:butt;stroke-linejoin:miter;stroke-opacity:1"
       d="m 115.46043,43.361218 c 0.84564,0.008 1.62276,-0.124069 2.40543,0.267269 0.28731,0.143653 0.50357,0.415242 0.80181,0.53454 0.16543,0.06617 0.3691,-0.06618 0.53454,0 1.57561,0.630245 0.31228,0.297275 1.06908,0.801807 0.16575,0.110503 0.36878,0.156768 0.53453,0.267271 0.10484,0.06989 0.17819,0.178178 0.26727,0.267269 0.26728,0.267269 0.53454,0.534538 0.80181,0.801809 0.0648,0.06482 0.80181,0.784617 0.80181,0.801809 0,0.19921 -0.15677,0.368785 -0.26727,0.534538 -0.0699,0.104831 -0.17818,0.178181 -0.26727,0.267269 -0.35636,0.356359 -0.64171,0.801976 -1.06908,1.069078 -0.0511,0.03192 -2.03364,0.489752 -2.13815,0.53454 -0.29525,0.126535 -0.5145,0.390885 -0.80181,0.534538 -0.15973,0.07986 -0.53454,-0.17594 -0.53454,0.267272 0,0.08909 0.17818,0 0.26727,0 0.17818,0 0.36168,-0.04322 0.53454,0 0.29931,0.07483 0.61372,0.283752 0.80181,0.534537 0.19273,0.256974 0.39088,0.514504 0.53454,0.801809 0.0398,0.07969 0,0.178179 0,0.267269 0.0891,0.178181 0.15677,0.368787 0.26727,0.534541 0.0699,0.10483 0.21092,0.154577 0.26727,0.267268 0.0398,0.07968 0,0.178179 0,0.267269 0,0.32625 -0.10372,0.616318 0.26727,0.80181 0.0365,0.01826 1.56711,0.01826 1.60361,0 0.11269,-0.05635 0.15458,-0.210924 0.26727,-0.267269 0.21382,-0.106908 0.58799,0.106907 0.80181,0 0.11269,-0.05635 0.14774,-0.227428 0.26727,-0.267272 0.15204,-0.05068 1.08462,0 1.33635,0"
       id="path586"
       inkscape:connector-curvature="0" />
    <path
       style="fill:none;stroke:#000000;stroke-width:0.26458332px;stroke-linecap:butt;stroke-linejoin:miter;stroke-opacity:1"
       d="m 131.22934,47.370261 c -0.62576,0.15644 -1.08577,0.189304 -1.60362,0.534538 -0.10483,0.06989 -0.15458,0.210926 -0.26727,0.267271 -0.0797,0.03984 -0.18759,-0.03984 -0.26727,0 -0.11269,0.05634 -0.15458,0.210924 -0.26727,0.267269 -0.0797,0.03984 -0.18759,-0.03984 -0.26727,0 -0.27209,0.136044 -0.42603,0.584788 -0.53454,0.801809 -0.17818,0.35636 -0.40855,0.6911 -0.53454,1.069079 -0.0563,0.169034 0,0.356359 0,0.534537 0,0.08909 -0.0282,0.182753 0,0.267269 0.063,0.188989 0.20428,0.345551 0.26727,0.53454 0.0282,0.08452 0,0.178179 0,0.267269 0.0891,0.178181 0.17818,0.35636 0.26727,0.534541 0.17818,0.356359 0.31354,0.737571 0.53454,1.069078 0.0699,0.10483 0.17818,0.178178 0.26727,0.267269 0.0891,0.08909 0.15458,0.210923 0.26727,0.267268 0.0795,0.03975 1.49119,0 1.60362,0 0.71271,0 1.42543,0 2.13815,0 0.44545,0 0.89363,0.04919 1.33635,0 2.86462,-0.318291 -0.12842,-0.101528 1.60362,-0.534537 0.17286,-0.04322 0.35982,0.03494 0.53454,0 0.47528,-0.09506 1.30294,-0.350793 1.60361,-0.80181 0.11051,-0.165753 0.20428,-0.345551 0.26728,-0.53454 0.0282,-0.08452 0,-0.178178 0,-0.267269 0,-0.178178 0,-0.356359 0,-0.534537 0,-0.44545 0,-0.8909 0,-1.33635 0,-0.277939 0.0525,-1.393378 0,-1.603616 -0.0966,-0.386527 -0.40855,-0.691102 -0.53455,-1.069078 -0.0282,-0.08452 0.0399,-0.187587 0,-0.267269 -0.0563,-0.112691 -0.17817,-0.178181 -0.26726,-0.267271 -0.0891,-0.08909 -0.15458,-0.210923 -0.26727,-0.267269 -0.0797,-0.03984 -0.17818,0 -0.26727,0"
       id="path588"
       inkscape:connector-curvature="0" />
    <path
       style="fill:none;stroke:#000000;stroke-width:0.26458332px;stroke-linecap:butt;stroke-linejoin:miter;stroke-opacity:1"
       d="m 109.04597,50.042955 c 0.35636,-1.781797 0.4688,-3.630321 1.06907,-5.34539 0.0883,-0.252265 0.54483,0.07342 0.80181,0 0.38309,-0.109456 0.69111,-0.408546 1.06908,-0.534538 0.14781,-0.04927 1.33446,0 1.60362,0 0.17818,0 0.3655,-0.05635 0.53454,0 0.5525,0.184169 0.8849,0.51657 1.06908,1.069078 0.0282,0.08452 0,0.178178 0,0.267269 0,0.178178 -0.0563,0.365503 0,0.534538 0.0398,0.119528 0.22742,0.147743 0.26726,0.267271 0.0825,0.2476 -0.0854,1.080246 0,1.336347 0.063,0.188989 0.20428,0.345551 0.26727,0.53454 0.0802,0.240541 -0.0802,0.561266 0,0.801807 0.063,0.188989 0.20428,0.345551 0.26727,0.53454 0.0503,0.150792 0,0.626184 0,0.80181 0,0.445447 0,0.890897 0,1.336346 0,0.09105 0.0482,0.924431 0,1.069078 -0.063,0.188987 -0.17818,0.35636 -0.26727,0.534538 -0.1085,0.217022 -0.26245,0.665766 -0.53453,0.801809 -0.0797,0.03984 -0.18759,-0.03984 -0.26728,0 -1.16783,0.58392 1.36822,-0.0035 -1.06907,0.267269 -0.5386,0.05985 -1.07223,0.160994 -1.60362,0.267272 -0.36019,0.07204 -0.70888,0.19523 -1.06908,0.267269 -0.10182,0.02037 -1.00283,0.03312 -1.06908,0 -0.11269,-0.05635 -0.21092,-0.154581 -0.26726,-0.267269 -0.0399,-0.07969 0,-0.178181 0,-0.267272 0,-0.178178 -0.0662,-0.369101 0,-0.534537 0.35532,-0.88832 1.8083,-2.117294 2.67269,-2.405425 0.16904,-0.05635 0.35636,0 0.53454,0 0.17557,0 1.00623,-0.03142 1.06908,0 0.22538,0.112688 0.35636,0.356359 0.53454,0.534537 0.17818,0.178181 0.40489,0.318466 0.53454,0.534541 0.14494,0.241577 0.16263,0.540231 0.26726,0.801806 0.24438,0.610942 0.42532,0.708859 0.80181,1.33635 0.1025,0.17082 0.15677,0.368784 0.26727,0.534537 0.0755,0.113287 0.69123,0.746517 0.80181,0.80181 0.014,0.007 0.78783,0.007 0.80181,0 0.11269,-0.05635 0.16244,-0.197382 0.26727,-0.267269 0.16575,-0.110503 0.36878,-0.156769 0.53454,-0.267272 0.10483,-0.06989 0.17818,-0.178178 0.26727,-0.267269 0.26727,-0.267268 0.73967,-0.428974 0.80181,-0.801809 0.13262,-0.795766 -0.17818,-1.603616 -0.26727,-2.405425"
       id="path590"
       inkscape:connector-curvature="0" />
    <path
       style="fill:none;stroke:#000000;stroke-width:0.26458332px;stroke-linecap:butt;stroke-linejoin:miter;stroke-opacity:1"
       d="m 143.25646,46.301183 c 0.35636,0.35636 0.78953,0.649751 1.06908,1.069078 0.46075,0.691116 0.57913,1.62605 0.80181,2.405425 0.1548,0.541774 0.3367,1.076039 0.53454,1.603619 0.16846,0.449214 0.40274,0.875043 0.53454,1.336346 0.29638,1.037342 -0.52497,0.01595 0.26727,1.336347 0.12964,0.216075 0.35636,0.35636 0.53454,0.534541 0.0891,0.267269 0.14128,0.549822 0.26727,0.801806 0.0563,0.112692 0.19738,0.162439 0.26727,0.267272 0.1105,0.165753 0.15676,0.368784 0.26727,0.534537 0.15375,0.230627 0.59305,0.593048 0.80181,0.80181 0.0891,0.08909 0.14774,0.307112 0.26727,0.267269 0.30364,-0.101214 1.18951,-1.456783 1.33634,-1.603616 0.22714,-0.227137 0.62363,-0.267272 0.80181,-0.534541 0.20376,-0.305633 0.13829,-0.725138 0.26727,-1.069078 0.1399,-0.373054 0.39465,-0.696023 0.53454,-1.069078 0.20507,-0.546846 0.49255,-2.252797 0.53454,-2.672693 0.0355,-0.354592 -0.0504,-0.716302 0,-1.069079 0.0398,-0.278897 0.22095,-0.523917 0.26727,-0.801809 0.01,-0.0574 -0.036,-1.79882 0,-1.870887 0.11269,-0.225383 0.35636,-0.356359 0.53454,-0.53454 0.44545,-0.445448 0.89089,-0.890897 1.33634,-1.336347"
       id="path592"
       inkscape:connector-curvature="0" />
    <text
       xml:space="preserve"
       style="font-style:normal;font-weight:normal;font-size:4.23333311px;line-height:1.25;font-family:sans-serif;letter-spacing:0px;word-spacing:0px;fill:#000000;fill-opacity:1;stroke:none;stroke-width:0.26458332"
       x="29.132378"
       y="95.21151"
       id="text596"><tspan
         sodipodi:role="line"
         id="tspan594"
         x="29.132378"
         y="95.21151"
         style="stroke-width:0.26458332">Valor Eficaz  ou RMS</tspan></text>
    <text
       xml:space="preserve"
       style="font-style:normal;font-weight:normal;font-size:4.23333311px;line-height:1.25;font-family:sans-serif;letter-spacing:0px;word-spacing:0px;fill:#000000;fill-opacity:1;stroke:none;stroke-width:0.26458332"
       x="8.5044641"
       y="39.787201"
       id="text600"><tspan
         sodipodi:role="line"
         id="tspan598"
         x="8.5044641"
         y="39.787201"
         style="stroke-width:0.26458332">310V --&gt; 220V Eficaz</tspan></text>
    <text
       xml:space="preserve"
       style="font-style:normal;font-weight:normal;font-size:4.23333311px;line-height:1.25;font-family:sans-serif;letter-spacing:0px;word-spacing:0px;fill:#000000;fill-opacity:1;stroke:none;stroke-width:0.26458332"
       x="10.394345"
       y="86.089287"
       id="text604"><tspan
         sodipodi:role="line"
         id="tspan602"
         x="10.394345"
         y="86.089287"
         style="stroke-width:0.26458332">150V  --&gt;  110V    Mudou   pra 180V --&gt; 127V </tspan></text>
    <text
       xml:space="preserve"
       style="font-style:normal;font-weight:normal;font-size:4.23333311px;line-height:1.25;font-family:sans-serif;letter-spacing:0px;word-spacing:0px;fill:#000000;fill-opacity:1;stroke:none;stroke-width:0.26458332"
       x="15.875"
       y="109.33482"
       id="text608"><tspan
         sodipodi:role="line"
         id="tspan606"
         x="15.875"
         y="109.33482"
         style="stroke-width:0.26458332">1,4 * 110v = 150V</tspan></text>
  </g>
</svg>
