<?xml version="1.0" encoding="UTF-8" standalone="no"?>
<!-- Created with Inkscape (http://www.inkscape.org/) -->

<svg
   width="282.8114mm"
   height="231.75352mm"
   viewBox="0 0 282.8114 231.75352"
   version="1.1"
   id="svg5"
   inkscape:version="1.1.1 (3bf5ae0d25, 2021-09-20)"
   sodipodi:docname="Arquitetura03.svg"
   xmlns:inkscape="http://www.inkscape.org/namespaces/inkscape"
   xmlns:sodipodi="http://sodipodi.sourceforge.net/DTD/sodipodi-0.dtd"
   xmlns="http://www.w3.org/2000/svg"
   xmlns:svg="http://www.w3.org/2000/svg">
  <sodipodi:namedview
     id="namedview7"
     pagecolor="#ffffff"
     bordercolor="#666666"
     borderopacity="1.0"
     inkscape:pageshadow="2"
     inkscape:pageopacity="1"
     inkscape:pagecheckerboard="0"
     inkscape:document-units="mm"
     showgrid="false"
     inkscape:zoom="0.32819258"
     inkscape:cx="3971.7534"
     inkscape:cy="728.23096"
     inkscape:window-width="1366"
     inkscape:window-height="699"
     inkscape:window-x="0"
     inkscape:window-y="32"
     inkscape:window-maximized="1"
     inkscape:current-layer="layer1" />
  <defs
     id="defs2">
    <rect
       x="2850.0439"
       y="-70.37142"
       width="180.00486"
       height="400.81962"
       id="rect302104" />
    <rect
       x="2850.0439"
       y="-70.371422"
       width="180.00487"
       height="400.81961"
       id="rect302104-7" />
  </defs>
  <g
     inkscape:label="Layer 1"
     inkscape:groupmode="layer"
     id="layer1"
     transform="translate(-27.362749,-57.230455)">
    <text
       xml:space="preserve"
       style="font-size:7.01967px;line-height:1.25;font-family:sans-serif;stroke-width:0.263237"
       x="32.283344"
       y="77.907822"
       id="text7293"
       transform="scale(0.99491252,1.0051135)"><tspan
         sodipodi:role="line"
         id="tspan7291"
         style="stroke-width:0.263237"
         x="32.283344"
         y="77.907822">0 LOAD  R0, 1000</tspan><tspan
         sodipodi:role="line"
         style="stroke-width:0.263237"
         x="32.283344"
         y="86.682404"
         id="tspan9473">1 LOAD  R1, 1001</tspan><tspan
         sodipodi:role="line"
         style="stroke-width:0.263237"
         x="32.283344"
         y="95.456985"
         id="tspan9475">2 ADD R2, R0, R1</tspan><tspan
         sodipodi:role="line"
         style="stroke-width:0.263237"
         x="32.283344"
         y="104.23157"
         id="tspan26391">3 STORE 1002, R2</tspan><tspan
         sodipodi:role="line"
         style="stroke-width:0.263237"
         x="32.283344"
         y="113.00615"
         id="tspan26393">4 JZ 10</tspan><tspan
         sodipodi:role="line"
         style="stroke-width:0.263237"
         x="32.283344"
         y="121.78073"
         id="tspan59353">5 NOOP</tspan><tspan
         sodipodi:role="line"
         style="stroke-width:0.263237"
         x="32.283344"
         y="130.55531"
         id="tspan59355">6 INC R3</tspan><tspan
         sodipodi:role="line"
         style="stroke-width:0.263237"
         x="32.283344"
         y="139.3299"
         id="tspan59357">7 INC R4</tspan><tspan
         sodipodi:role="line"
         style="stroke-width:0.263237"
         x="32.283344"
         y="148.10446"
         id="tspan59359">8 </tspan><tspan
         sodipodi:role="line"
         style="stroke-width:0.263237"
         x="32.283344"
         y="156.87906"
         id="tspan59361">9 </tspan><tspan
         sodipodi:role="line"
         style="stroke-width:0.263237"
         x="32.283344"
         y="165.65363"
         id="tspan59363">10 </tspan></text>
    <text
       xml:space="preserve"
       style="font-size:7.01967px;line-height:1.25;font-family:sans-serif;stroke-width:0.263237"
       x="101.39514"
       y="79.241745"
       id="text129109"
       transform="scale(0.99491252,1.0051135)"><tspan
         sodipodi:role="line"
         id="tspan129107"
         style="stroke-width:0.263237"
         x="101.39514"
         y="79.241745">0 LOAD  R0, 1000</tspan><tspan
         sodipodi:role="line"
         style="stroke-width:0.263237"
         x="101.39514"
         y="88.016327"
         id="tspan129111">1 LOAD  R1, 1001</tspan><tspan
         sodipodi:role="line"
         style="stroke-width:0.263237"
         x="101.39514"
         y="96.790909"
         id="tspan129113">2 ADD R2, R0, R1</tspan><tspan
         sodipodi:role="line"
         style="stroke-width:0.263237"
         x="101.39514"
         y="105.56549"
         id="tspan129117">3 JZ 9</tspan><tspan
         sodipodi:role="line"
         style="stroke-width:0.263237"
         x="101.39514"
         y="114.34007"
         id="tspan161887">4 STORE 1002, R2</tspan><tspan
         sodipodi:role="line"
         style="stroke-width:0.263237"
         x="101.39514"
         y="123.11465"
         id="tspan129121">5 INC R3</tspan><tspan
         sodipodi:role="line"
         style="stroke-width:0.263237"
         x="101.39514"
         y="131.88924"
         id="tspan129123">6 INC R4</tspan><tspan
         sodipodi:role="line"
         style="stroke-width:0.263237"
         x="101.39514"
         y="140.66382"
         id="tspan129125">7 </tspan><tspan
         sodipodi:role="line"
         style="stroke-width:0.263237"
         x="101.39514"
         y="149.43839"
         id="tspan186965">8 </tspan><tspan
         sodipodi:role="line"
         style="stroke-width:0.263237"
         x="101.39514"
         y="158.21298"
         id="tspan129127">9 </tspan><tspan
         sodipodi:role="line"
         style="stroke-width:0.263237"
         x="101.39514"
         y="166.98755"
         id="tspan129129">10 </tspan></text>
    <text
       xml:space="preserve"
       style="font-size:7.01967px;line-height:1.25;font-family:sans-serif;stroke-width:0.263237"
       x="30.191072"
       y="184.03577"
       id="text7293-3"
       transform="scale(0.99491252,1.0051135)"><tspan
         sodipodi:role="line"
         id="tspan7291-6"
         style="stroke-width:0.263237"
         x="30.191072"
         y="184.03577">0 LOAD  R0, 1000</tspan><tspan
         sodipodi:role="line"
         style="stroke-width:0.263237"
         x="30.191072"
         y="192.81035"
         id="tspan9473-7">1 LOAD  R1, 1001</tspan><tspan
         sodipodi:role="line"
         style="stroke-width:0.263237"
         x="30.191072"
         y="201.58493"
         id="tspan9475-5">2 ADD R2, R0, R1</tspan><tspan
         sodipodi:role="line"
         style="stroke-width:0.263237"
         x="30.191072"
         y="210.35951"
         id="tspan26391-3">3 STORE 1002, R2</tspan><tspan
         sodipodi:role="line"
         style="stroke-width:0.263237"
         x="30.191072"
         y="219.13409"
         id="tspan26393-5">4 JZ 11</tspan><tspan
         sodipodi:role="line"
         style="stroke-width:0.263237"
         x="30.191072"
         y="227.90868"
         id="tspan59353-6">5 NOOP</tspan><tspan
         sodipodi:role="line"
         style="stroke-width:0.263237"
         x="30.191072"
         y="236.68326"
         id="tspan267360">6 NOOP</tspan><tspan
         sodipodi:role="line"
         style="stroke-width:0.263237"
         x="30.191072"
         y="245.45784"
         id="tspan59355-2">7 INC R3</tspan><tspan
         sodipodi:role="line"
         style="stroke-width:0.263237"
         x="30.191072"
         y="254.23242"
         id="tspan59357-9">8 INC R4</tspan><tspan
         sodipodi:role="line"
         style="stroke-width:0.263237"
         x="30.191072"
         y="263.00702"
         id="tspan59359-1">9 </tspan><tspan
         sodipodi:role="line"
         style="stroke-width:0.263237"
         x="30.191072"
         y="271.78159"
         id="tspan59361-2">10 </tspan><tspan
         sodipodi:role="line"
         style="stroke-width:0.263237"
         x="30.191072"
         y="280.55615"
         id="tspan59363-7">11 </tspan></text>
    <text
       xml:space="preserve"
       style="font-size:7.01967px;line-height:1.25;font-family:sans-serif;stroke-width:0.263237"
       x="99.302872"
       y="185.36969"
       id="text129109-0"
       transform="scale(0.99491252,1.0051135)"><tspan
         sodipodi:role="line"
         id="tspan129107-9"
         style="stroke-width:0.263237"
         x="99.302872"
         y="185.36969">0 LOAD  R0, 1000</tspan><tspan
         sodipodi:role="line"
         style="stroke-width:0.263237"
         x="99.302872"
         y="194.14427"
         id="tspan129111-3">1 LOAD  R1, 1001</tspan><tspan
         sodipodi:role="line"
         style="stroke-width:0.263237"
         x="99.302872"
         y="202.91885"
         id="tspan129113-6">2 ADD R2, R0, R1</tspan><tspan
         sodipodi:role="line"
         style="stroke-width:0.263237"
         x="99.302872"
         y="211.69344"
         id="tspan129117-0">3 JZ 10</tspan><tspan
         sodipodi:role="line"
         style="stroke-width:0.263237"
         x="99.302872"
         y="220.46802"
         id="tspan161887-6">4 STORE 1002, R2</tspan><tspan
         sodipodi:role="line"
         style="stroke-width:0.263237"
         x="99.302872"
         y="229.2426"
         id="tspan424636">5 NOOP</tspan><tspan
         sodipodi:role="line"
         style="stroke-width:0.263237"
         x="99.302872"
         y="238.01718"
         id="tspan129121-2">6 INC R3</tspan><tspan
         sodipodi:role="line"
         style="stroke-width:0.263237"
         x="99.302872"
         y="246.79176"
         id="tspan129123-6">7 INC R4</tspan><tspan
         sodipodi:role="line"
         style="stroke-width:0.263237"
         x="99.302872"
         y="255.56633"
         id="tspan129125-1">8 </tspan><tspan
         sodipodi:role="line"
         style="stroke-width:0.263237"
         x="99.302872"
         y="264.34091"
         id="tspan186965-8">9 </tspan><tspan
         sodipodi:role="line"
         style="stroke-width:0.263237"
         x="99.302872"
         y="273.11551"
         id="tspan129127-7">10 </tspan><tspan
         sodipodi:role="line"
         style="stroke-width:0.263237"
         x="99.302872"
         y="281.89011"
         id="tspan129129-9">11 </tspan></text>
    <text
       xml:space="preserve"
       style="font-size:7.01967px;line-height:1.25;font-family:sans-serif;stroke-width:0.263237"
       x="71.216469"
       y="62.056633"
       id="text248850"
       transform="scale(0.99491252,1.0051135)"><tspan
         sodipodi:role="line"
         id="tspan248848"
         style="stroke-width:0.263237"
         x="71.216469"
         y="62.056633">Pipe 2 Estagios</tspan></text>
    <text
       xml:space="preserve"
       style="font-size:7.01967px;line-height:1.25;font-family:sans-serif;stroke-width:0.263237"
       x="61.92025"
       y="173.54872"
       id="text256222"
       transform="scale(0.99491252,1.0051135)"><tspan
         sodipodi:role="line"
         id="tspan256220"
         style="stroke-width:0.263237"
         x="61.92025"
         y="173.54872">Pipe 3 Estagios</tspan></text>
    <text
       xml:space="preserve"
       style="font-size:7.01967px;line-height:1.25;font-family:sans-serif;stroke-width:0.263237"
       x="252.19144"
       y="182.90051"
       id="text477218"
       transform="scale(0.99491252,1.0051135)"><tspan
         sodipodi:role="line"
         style="stroke-width:0.263237"
         x="252.19144"
         y="182.90051"
         id="tspan482222">0 LOAD  R0, 1000</tspan><tspan
         sodipodi:role="line"
         style="stroke-width:0.263237"
         x="252.19144"
         y="191.67509"
         id="tspan477220">1 LOAD  R1, 1001</tspan><tspan
         sodipodi:role="line"
         style="stroke-width:0.263237"
         x="252.19144"
         y="200.44969"
         id="tspan477222">2 ADD R2, R0, R1</tspan><tspan
         sodipodi:role="line"
         style="stroke-width:0.263237"
         x="252.19144"
         y="209.22427"
         id="tspan477224">3 JZ 9</tspan><tspan
         sodipodi:role="line"
         style="stroke-width:0.263237"
         x="252.19144"
         y="217.99886"
         id="tspan477226">4 INC R7</tspan><tspan
         sodipodi:role="line"
         style="stroke-width:0.263237"
         x="252.19144"
         y="226.77345"
         id="tspan477228">5 STORE 1002, R2</tspan><tspan
         sodipodi:role="line"
         style="stroke-width:0.263237"
         x="252.19144"
         y="235.54803"
         id="tspan477230">6 INC R3</tspan><tspan
         sodipodi:role="line"
         style="stroke-width:0.263237"
         x="252.19144"
         y="244.32263"
         id="tspan477232">7 INC R4</tspan><tspan
         sodipodi:role="line"
         style="stroke-width:0.263237"
         x="252.19144"
         y="253.09721"
         id="tspan477234">8 </tspan><tspan
         sodipodi:role="line"
         style="stroke-width:0.263237"
         x="252.19144"
         y="261.8718"
         id="tspan477236">9 </tspan><tspan
         sodipodi:role="line"
         style="stroke-width:0.263237"
         x="252.19144"
         y="270.64639"
         id="tspan477238">10 </tspan><tspan
         sodipodi:role="line"
         style="stroke-width:0.263237"
         x="252.19144"
         y="279.42099"
         id="tspan477240">11 </tspan></text>
    <text
       xml:space="preserve"
       style="font-size:7.01967px;line-height:1.25;font-family:sans-serif;stroke-width:0.263237"
       x="183.54871"
       y="182.2188"
       id="text563366"
       transform="scale(0.99491252,1.0051135)"><tspan
         sodipodi:role="line"
         id="tspan563364"
         style="stroke-width:0.263237"
         x="183.54871"
         y="182.2188">0 INC R7</tspan><tspan
         sodipodi:role="line"
         style="stroke-width:0.263237"
         x="183.54871"
         y="190.99338"
         id="tspan563368">1 LOAD  R0, 1000</tspan><tspan
         sodipodi:role="line"
         style="stroke-width:0.263237"
         x="183.54871"
         y="199.76796"
         id="tspan563370">2 LOAD  R1, 1001</tspan><tspan
         sodipodi:role="line"
         style="stroke-width:0.263237"
         x="183.54871"
         y="208.54254"
         id="tspan563372">3 ADD R2, R0, R1</tspan><tspan
         sodipodi:role="line"
         style="stroke-width:0.263237"
         x="183.54871"
         y="217.31712"
         id="tspan563374">4 JZ 10</tspan><tspan
         sodipodi:role="line"
         style="stroke-width:0.263237"
         x="183.54871"
         y="226.09171"
         id="tspan563376">5 STORE 1002, R2</tspan><tspan
         sodipodi:role="line"
         style="stroke-width:0.263237"
         x="183.54871"
         y="234.86629"
         id="tspan563378">6 NOOP</tspan><tspan
         sodipodi:role="line"
         style="stroke-width:0.263237"
         x="183.54871"
         y="243.64087"
         id="tspan563380">7 INC R3</tspan><tspan
         sodipodi:role="line"
         style="stroke-width:0.263237"
         x="183.54871"
         y="252.41545"
         id="tspan563382">8 INC R4</tspan><tspan
         sodipodi:role="line"
         style="stroke-width:0.263237"
         x="183.54871"
         y="261.19003"
         id="tspan563384">9 </tspan><tspan
         sodipodi:role="line"
         style="stroke-width:0.263237"
         x="183.54871"
         y="269.9646"
         id="tspan563386">10 </tspan><tspan
         sodipodi:role="line"
         style="stroke-width:0.263237"
         x="183.54871"
         y="278.7392"
         id="tspan563388">11 </tspan><tspan
         sodipodi:role="line"
         style="stroke-width:0.263237"
         x="183.54871"
         y="287.51376"
         id="tspan563390">12 </tspan></text>
    <text
       xml:space="preserve"
       style="font-size:7.05556px;line-height:1.25;font-family:sans-serif;stroke-width:0.264583"
       x="501.51779"
       y="38.308353"
       id="text98007"><tspan
         sodipodi:role="line"
         id="tspan98005"
         style="stroke-width:0.264583"
         x="501.51779"
         y="38.308353">0 LOAD  R0, 1000</tspan><tspan
         sodipodi:role="line"
         style="stroke-width:0.264583"
         x="501.51779"
         y="47.127796"
         id="tspan98009">1 LOAD  R1, 1001</tspan><tspan
         sodipodi:role="line"
         style="stroke-width:0.264583"
         x="501.51779"
         y="55.947254"
         id="tspan98011">2 ADD R2, R0, R1</tspan><tspan
         sodipodi:role="line"
         style="stroke-width:0.264583"
         x="501.51779"
         y="64.766693"
         id="tspan98013">3 STORE 1002, R2</tspan><tspan
         sodipodi:role="line"
         style="stroke-width:0.264583"
         x="501.51779"
         y="73.586151"
         id="tspan98015">4 JZ 11</tspan><tspan
         sodipodi:role="line"
         style="stroke-width:0.264583"
         x="501.51779"
         y="82.405594"
         id="tspan98017">5 NOOP</tspan><tspan
         sodipodi:role="line"
         style="stroke-width:0.264583"
         x="501.51779"
         y="91.225052"
         id="tspan98019">6 NOOP</tspan><tspan
         sodipodi:role="line"
         style="stroke-width:0.264583"
         x="501.51779"
         y="100.04449"
         id="tspan98021">7 INC R3</tspan><tspan
         sodipodi:role="line"
         style="stroke-width:0.264583"
         x="501.51779"
         y="108.86395"
         id="tspan98023">8 INC R4</tspan><tspan
         sodipodi:role="line"
         style="stroke-width:0.264583"
         x="501.51779"
         y="117.6834"
         id="tspan98025">9 </tspan><tspan
         sodipodi:role="line"
         style="stroke-width:0.264583"
         x="501.51779"
         y="126.50285"
         id="tspan98027">10 </tspan><tspan
         sodipodi:role="line"
         style="stroke-width:0.264583"
         x="501.51779"
         y="135.3223"
         id="tspan98029">11 </tspan></text>
    <text
       xml:space="preserve"
       style="font-size:7.05556px;line-height:1.25;font-family:sans-serif;stroke-width:0.264583"
       x="597.47162"
       y="39.615891"
       id="text98007-3"><tspan
         sodipodi:role="line"
         id="tspan98005-5"
         style="stroke-width:0.264583"
         x="597.47162"
         y="39.615891">0 LOAD  R0, 1000</tspan><tspan
         sodipodi:role="line"
         style="stroke-width:0.264583"
         x="597.47162"
         y="48.435341"
         id="tspan98009-6">1 LOAD  R1, 1001</tspan><tspan
         sodipodi:role="line"
         style="stroke-width:0.264583"
         x="597.47162"
         y="57.254791"
         id="tspan98011-2">2 ADD R2, R0, R1</tspan><tspan
         sodipodi:role="line"
         style="stroke-width:0.264583"
         x="597.47162"
         y="66.074242"
         id="tspan98013-9">3 STORE 1002, R2</tspan><tspan
         sodipodi:role="line"
         style="stroke-width:0.264583"
         x="597.47162"
         y="74.893684"
         id="tspan98015-1">4 JZ 11</tspan><tspan
         sodipodi:role="line"
         style="stroke-width:0.264583"
         x="597.47162"
         y="83.713135"
         id="tspan98017-2">5 NOOP</tspan><tspan
         sodipodi:role="line"
         style="stroke-width:0.264583"
         x="597.47162"
         y="92.532585"
         id="tspan98019-7">6 NOOP</tspan><tspan
         sodipodi:role="line"
         style="stroke-width:0.264583"
         x="597.47162"
         y="101.35204"
         id="tspan98021-0">7 INC R3</tspan><tspan
         sodipodi:role="line"
         style="stroke-width:0.264583"
         x="597.47162"
         y="110.17149"
         id="tspan98023-9">8 INC R4</tspan><tspan
         sodipodi:role="line"
         style="stroke-width:0.264583"
         x="597.47162"
         y="118.99094"
         id="tspan98025-3">9 </tspan><tspan
         sodipodi:role="line"
         style="stroke-width:0.264583"
         x="597.47162"
         y="127.81039"
         id="tspan98027-6">10 </tspan><tspan
         sodipodi:role="line"
         style="stroke-width:0.264583"
         x="597.47162"
         y="136.62985"
         id="tspan98029-0">11 </tspan></text>
    <path
       style="fill:none;stroke:#000000;stroke-width:0.264583px;stroke-linecap:butt;stroke-linejoin:miter;stroke-opacity:1"
       d="m 495.80597,151.84801 c 0.24842,1.89868 -0.69072,6.30299 0.85508,7.84881 2.90084,2.90083 9.92688,1.70472 13.42676,1.41906 3.09721,-0.2528 6.25319,0.18256 9.35583,0 5.84888,-0.34416 11.81073,-1.12175 17.6875,-0.70276 7.51255,0.53561 14.91324,0.5856 22.48429,0.5856 1.08556,0 2.69674,-0.32674 3.67697,0 1.32384,0.44128 3.98653,0.44399 4.91847,-0.51032 0.55769,-0.57106 -0.713,-4.24179 -0.85508,-4.73904 -0.12462,-0.43613 0.11038,-0.97796 0,-1.41807 -0.2485,-0.99088 -0.49051,-2.24225 -0.85508,-3.11037 -0.30245,-0.72015 -2.49,-1.67809 -3.25655,-1.8314 -2.51079,-0.50216 -5.14588,-0.28503 -7.69577,-0.28503 -3.75915,0 -7.5183,0 -11.27747,0 -4.94763,0 -9.89528,0 -14.84294,0 -4.10414,0 -8.20827,0 -12.31239,0 -3.33041,0 -6.69975,-0.18301 -9.976,0.28503 -0.72337,0.10334 -1.57211,-0.17703 -2.28024,0 -3.1597,0.78992 -6.47382,0.11339 -9.05338,2.45849 z"
       id="path114144" />
    <path
       style="fill:none;stroke:#000000;stroke-width:0.264583px;stroke-linecap:butt;stroke-linejoin:miter;stroke-opacity:1"
       d="m 514.25264,149.8422 c 0,3.62372 0,7.24745 0,10.87118"
       id="path114146" />
    <path
       style="fill:none;stroke:#000000;stroke-width:0.264583px;stroke-linecap:butt;stroke-linejoin:miter;stroke-opacity:1"
       d="m 532.53453,150.21064 c 0,4.50995 0,9.0199 0,13.52986"
       id="path114148" />
    <path
       style="fill:none;stroke:#000000;stroke-width:0.264583px;stroke-linecap:butt;stroke-linejoin:miter;stroke-opacity:1"
       d="m 550.54276,150.547 c 0,3.62662 0,7.25323 0,10.87984"
       id="path114150" />
    <path
       style="fill:none;stroke:#000000;stroke-width:0.264583px;stroke-linecap:butt;stroke-linejoin:miter;stroke-opacity:1"
       d="m 589.66768,151.26773 c 0.24842,1.89868 -0.69072,6.30299 0.85508,7.84881 2.90084,2.90084 9.92688,1.70472 13.42676,1.41906 3.09721,-0.2528 6.25319,0.18257 9.35583,0 5.84888,-0.34416 11.81073,-1.12174 17.6875,-0.70276 7.51255,0.53561 14.91324,0.5856 22.48429,0.5856 1.08556,0 2.69674,-0.32674 3.67697,0 1.32384,0.44128 3.98653,0.444 4.91847,-0.51032 0.55769,-0.57106 -0.713,-4.24179 -0.85508,-4.73904 -0.12462,-0.43612 0.11038,-0.97795 0,-1.41807 -0.2485,-0.99088 -0.49051,-2.24225 -0.85508,-3.11036 -0.30245,-0.72015 -2.49,-1.67809 -3.25655,-1.83141 -2.51079,-0.50216 -5.14588,-0.28503 -7.69577,-0.28503 -3.75915,0 -7.5183,0 -11.27747,0 -4.94763,0 -9.89528,0 -14.84294,0 -4.10414,0 -8.20827,0 -12.31239,0 -3.33041,0 -6.69975,-0.183 -9.976,0.28503 -0.72337,0.10334 -1.57211,-0.17703 -2.28024,0 -3.1597,0.78992 -6.47382,0.1134 -9.05338,2.45849 z"
       id="path114144-3" />
    <path
       style="fill:none;stroke:#000000;stroke-width:0.264583px;stroke-linecap:butt;stroke-linejoin:miter;stroke-opacity:1"
       d="m 608.11435,149.26192 c 0,3.62372 0,7.24745 0,10.87119"
       id="path114146-6" />
    <path
       style="fill:none;stroke:#000000;stroke-width:0.264583px;stroke-linecap:butt;stroke-linejoin:miter;stroke-opacity:1"
       d="m 626.39624,149.63036 c 0,4.50995 0,9.0199 0,13.52986"
       id="path114148-7" />
    <path
       style="fill:none;stroke:#000000;stroke-width:0.264583px;stroke-linecap:butt;stroke-linejoin:miter;stroke-opacity:1"
       d="m 644.40447,149.96672 c 0,3.62663 0,7.25323 0,10.87984"
       id="path114150-5" />
    <text
       xml:space="preserve"
       style="font-size:7.05556px;line-height:1.25;font-family:sans-serif;stroke-width:0.264583"
       x="501.45795"
       y="158.13756"
       id="text117040"><tspan
         sodipodi:role="line"
         id="tspan117038"
         style="stroke-width:0.264583"
         x="501.45795"
         y="158.13756">F      D        E      W</tspan></text>
    <text
       xml:space="preserve"
       style="font-size:7.05556px;line-height:1.25;font-family:sans-serif;stroke-width:0.264583"
       x="694.7536"
       y="40.991608"
       id="text200334"><tspan
         sodipodi:role="line"
         id="tspan200332"
         style="stroke-width:0.264583"
         x="694.7536"
         y="40.991608">0 LOAD  R0, 1000</tspan><tspan
         sodipodi:role="line"
         style="stroke-width:0.264583"
         x="694.7536"
         y="49.811058"
         id="tspan266528">1 LOAD  R1, 1001</tspan><tspan
         sodipodi:role="line"
         style="stroke-width:0.264583"
         x="694.7536"
         y="58.630508"
         id="tspan266530">2 ADD R2, R0, R1</tspan><tspan
         sodipodi:role="line"
         style="stroke-width:0.264583"
         x="694.7536"
         y="67.449959"
         id="tspan266532">3 STORE 1002, R2</tspan></text>
    <text
       xml:space="preserve"
       style="font-size:7.05556px;line-height:1.25;font-family:sans-serif;stroke-width:0.264583"
       x="768.88593"
       y="41.24033"
       id="text200334-6"><tspan
         sodipodi:role="line"
         id="tspan200332-2"
         style="stroke-width:0.264583"
         x="768.88593"
         y="41.24033">0 LOAD  R0, 1000</tspan><tspan
         sodipodi:role="line"
         style="stroke-width:0.264583"
         x="768.88593"
         y="50.05978"
         id="tspan266528-6">1 *** LOAD  R1, 1001</tspan><tspan
         sodipodi:role="line"
         style="stroke-width:0.264583"
         x="768.88593"
         y="58.87923"
         id="tspan266530-1">2 ADD R2, R5, R6</tspan><tspan
         sodipodi:role="line"
         style="stroke-width:0.264583"
         x="768.88593"
         y="67.698677"
         id="tspan266532-8">3 *** STORE 1002, R2</tspan><tspan
         sodipodi:role="line"
         style="stroke-width:0.264583"
         x="768.88593"
         y="76.518127"
         id="tspan526713">4 SUB R7, R5, R6</tspan></text>
    <text
       xml:space="preserve"
       transform="matrix(0.26458333,0,0,0.26458333,26.917252,37.022929)"
       id="text302102"
       style="font-size:26.6667px;line-height:1.25;font-family:sans-serif;white-space:pre;shape-inside:url(#rect302104)"><tspan
         x="2850.043"
         y="-47.597732"
         id="tspan1539217">PooL </tspan><tspan
         x="2850.043"
         y="-14.264358"
         id="tspan1539219">Instrucoes</tspan></text>
    <text
       xml:space="preserve"
       style="font-size:7.05556px;line-height:1.25;font-family:sans-serif;stroke-width:0.264583"
       x="814.61847"
       y="53.373016"
       id="text311266"><tspan
         sodipodi:role="line"
         id="tspan311264"
         style="stroke-width:0.264583"
         x="814.61847"
         y="53.373016"></tspan><tspan
         sodipodi:role="line"
         style="stroke-width:0.264583"
         id="tspan311268"
         x="814.61847"
         y="62.192467" /></text>
    <text
       xml:space="preserve"
       style="font-size:7.05556px;line-height:1.25;font-family:sans-serif;stroke-width:0.264583"
       x="870.43335"
       y="29.924683"
       id="text481895"><tspan
         sodipodi:role="line"
         id="tspan481893"
         style="stroke-width:0.264583"
         x="870.43335"
         y="29.924683">Pipe Memoria</tspan><tspan
         sodipodi:role="line"
         style="stroke-width:0.264583"
         x="870.43335"
         y="38.744133"
         id="tspan481897" /><tspan
         sodipodi:role="line"
         style="stroke-width:0.264583"
         x="870.43335"
         y="47.563583"
         id="tspan481899">Pipe ULA1</tspan><tspan
         sodipodi:role="line"
         style="stroke-width:0.264583"
         x="870.43335"
         y="56.383034"
         id="tspan481901" /><tspan
         sodipodi:role="line"
         style="stroke-width:0.264583"
         x="870.43335"
         y="65.202484"
         id="tspan481903">Pipe ULA2</tspan><tspan
         sodipodi:role="line"
         style="stroke-width:0.264583"
         x="870.43335"
         y="74.021935"
         id="tspan481905" /><tspan
         sodipodi:role="line"
         style="stroke-width:0.264583"
         x="870.43335"
         y="82.841385"
         id="tspan481907">....</tspan></text>
    <path
       style="fill:none;stroke:#000000;stroke-width:0.264583px;stroke-linecap:butt;stroke-linejoin:miter;stroke-opacity:1"
       d="m 830.63237,39.815142 c 2.98156,-0.196784 8.71614,-2.049052 11.20063,-3.705374 1.14734,-0.764897 2.13942,-1.446238 3.42035,-1.995202 1.16708,-0.500175 2.49388,-1.079008 3.70536,-1.425144 0.18272,-0.0522 0.39364,0.07057 0.57007,0 0.84616,-0.338466 1.53836,-0.98002 2.28023,-1.425144 0.89313,-0.535886 2.15207,-0.658888 3.12806,-0.855085 1.07794,-0.216691 2.07087,-0.927211 3.12841,-1.136663 0.27958,-0.05537 0.57856,0.06913 0.85508,0 1.40885,-0.352211 -0.59648,-0.285028 0.57007,-0.285028"
       id="path556550" />
    <path
       style="fill:none;stroke:#000000;stroke-width:0.264583px;stroke-linecap:butt;stroke-linejoin:miter;stroke-opacity:1"
       d="m 854.21063,26.739899 c 0.63185,0.268425 1.25738,0.552301 1.89558,0.805269 0.47564,0.188535 0.92345,0.469718 1.42515,0.570058 1.35832,0.271667 3.04867,-0.386207 4.23363,0.285031 0.0756,0.04282 -0.7166,1.350645 -0.83341,1.555541 -0.25511,0.447455 -1.02775,1.750376 -1.42515,2.28023 -0.0806,0.107491 -0.28438,0.419391 -0.28501,0.285028 -0.006,-1.18125 0.17946,-2.355703 0.26921,-3.533554"
       id="path556552" />
    <path
       style="fill:none;stroke:#000000;stroke-width:0.264583px;stroke-linecap:butt;stroke-linejoin:miter;stroke-opacity:1"
       d="m 838.64858,49.270229 c 0.59899,-0.09501 1.21976,-0.09892 1.797,-0.285028 1.71434,-0.552744 6.58855,-6.018499 8.15496,-7.584917 0.52491,-0.524925 1.09659,-1.301123 1.71016,-1.710172 1.07487,-0.716576 2.06637,-1.566098 3.13531,-2.280231 0.83624,-0.55866 1.78049,-0.643934 2.54466,-1.408095 1.36364,-1.36363 2.28055,-2.776557 3.8613,-3.670972 0.97557,-0.552007 -0.23564,-2.229456 -0.36134,-3.343312"
       id="path556554" />
    <path
       style="fill:none;stroke:#000000;stroke-width:0.264583px;stroke-linecap:butt;stroke-linejoin:miter;stroke-opacity:1"
       d="m 841.12151,68.083043 c 2.69618,-3.56735 4.9721,-7.4301 6.97804,-11.445244 0.51716,-1.035153 0.94414,-2.465893 1.43269,-3.44304 0.82651,-1.652992 2.32728,-2.944363 3.13532,-4.56046 0.95551,-1.911022 1.85057,-3.702557 3.13533,-5.415547 0.37357,-0.498101 0.28263,-0.850312 0.57005,-1.425144 0.5474,-1.094795 1.4478,-2.040522 1.9952,-3.135317 0.22873,-0.457428 0.23799,-1.010059 0.57007,-1.425144 0.56967,-0.712082 1.07989,-0.847077 1.42515,-1.710172 0.28562,-0.71407 0.38769,-1.294136 0.85508,-1.995202 0.1478,-0.221689 0.72419,-0.972831 0.84979,-1.078678 0.0692,-0.05834 0.32565,0.07261 0.27159,0 -0.89257,-1.198644 -1.89947,-2.307729 -2.84919,-3.461593"
       id="path556556" />
    <path
       style="fill:none;stroke:#000000;stroke-width:0.264583px;stroke-linecap:butt;stroke-linejoin:miter;stroke-opacity:1"
       d="m 858.09305,34.614489 c 1.8393,0.437798 1.03037,-2.155322 1.94884,-2.458895 0.72247,-0.238792 1.08418,-0.386174 1.79634,-0.75556 0.29572,-0.153391 0.56104,-0.778508 0.82092,-0.570057 0.27665,0.221904 -0.57007,3.428946 -0.57007,3.860197"
       id="path556558" />
    <path
       style="fill:none;stroke:#000000;stroke-width:0.264583px;stroke-linecap:butt;stroke-linejoin:miter;stroke-opacity:1"
       d="m 830.9599,56.976662 c 3.24855,1.093518 6.79709,1.668519 10.09247,0.570058 1.03836,-0.346118 0.99899,-0.689053 1.9952,-0.855087 2.49521,-0.415868 4.77324,-1.389019 7.12571,-2.565259 2.95301,-1.476496 7.6197,-2.864478 10.26104,-4.845489 1.00034,-0.750243 5.09606,-3.319462 6.02716,-3.319462"
       id="path556560" />
    <path
       style="fill:none;stroke:#000000;stroke-width:0.264583px;stroke-linecap:butt;stroke-linejoin:miter;stroke-opacity:1"
       d="m 866.46148,45.961423 c -0.62127,-1.124359 -1.40378,-2.17369 -1.86378,-3.373078 -0.069,-0.179911 1.35564,0.249729 1.4179,0.28141 0.1502,0.07643 0.35742,-0.08034 0.50557,0 0.6663,0.361334 0.98443,0.726029 1.34112,1.034004 0.0175,0.015 0.48516,-0.01357 0.51728,0 0.22765,0.09618 -0.1688,0.972628 -0.28503,1.670055 -0.0781,0.468585 0.15023,0.974474 0,1.425144 -0.11618,0.348557 -0.42873,0.705396 -0.5665,1.111837 -0.17569,0.518258 -0.55245,1.480245 -0.56642,1.421482 -0.27782,-1.169354 -0.33343,-2.380569 -0.50014,-3.570854"
       id="path556562" />
    <path
       style="fill:none;stroke:#000000;stroke-width:0.264583px;stroke-linecap:butt;stroke-linejoin:miter;stroke-opacity:1"
       d="m 826.35017,74.246512 c 2.37159,1.093053 5.39083,1.137582 7.94596,0.496878 1.45487,-0.364816 2.77514,-1.246181 4.29694,-1.435965 3.03832,-0.378908 6.10545,-1.040068 9.12093,-1.710173 1.5857,-0.352379 3.39455,-0.422515 4.93339,-0.875736 0.77949,-0.229567 1.46447,-0.718094 2.23875,-0.964669 4.49273,-1.430782 9.34508,-1.315276 13.608,-3.446666"
       id="path556564" />
    <path
       style="fill:none;stroke:#000000;stroke-width:0.264583px;stroke-linecap:butt;stroke-linejoin:miter;stroke-opacity:1"
       d="m 861.25315,63.481099 c 1.74093,0.390381 6.99701,0.366627 8.1334,1.399458 0.0963,0.0875 -0.75192,3.242591 -0.83899,3.689569 -0.16965,0.870826 -0.66125,3.446075 -0.57008,1.995202 0.0897,-1.425985 0.34444,-2.836765 0.51666,-4.255147"
       id="path556566" />
    <text
       xml:space="preserve"
       style="font-size:7.05556px;line-height:1.25;font-family:sans-serif;stroke-width:0.264583"
       x="765.0058"
       y="120.78589"
       id="text200334-6-9"><tspan
         sodipodi:role="line"
         id="tspan200332-2-2"
         style="stroke-width:0.264583"
         x="765.0058"
         y="120.78589">0 LOAD  R0, 1000</tspan><tspan
         sodipodi:role="line"
         style="stroke-width:0.264583"
         x="765.0058"
         y="129.60533"
         id="tspan266528-6-0">1 *** LOAD  R1, 1001</tspan><tspan
         sodipodi:role="line"
         style="stroke-width:0.264583"
         x="765.0058"
         y="138.42479"
         id="tspan266530-1-2">2 ADD R2, R5, R6</tspan><tspan
         sodipodi:role="line"
         style="stroke-width:0.264583"
         x="765.0058"
         y="147.24423"
         id="tspan266532-8-3">3 *** LOAD  R4, 1002</tspan><tspan
         sodipodi:role="line"
         style="stroke-width:0.264583"
         x="765.0058"
         y="156.06369"
         id="tspan526713-7">4 SUB R7, R5, R6</tspan></text>
    <text
       xml:space="preserve"
       transform="matrix(0.26458333,0,0,0.26458333,23.037116,116.56849)"
       id="text302102-5"
       style="font-size:26.6667px;line-height:1.25;font-family:sans-serif;white-space:pre;shape-inside:url(#rect302104-7)"><tspan
         x="2850.043"
         y="-47.597732"
         id="tspan1539221">PooL </tspan><tspan
         x="2850.043"
         y="-14.264358"
         id="tspan1539223">Instrucoes</tspan></text>
    <text
       xml:space="preserve"
       style="font-size:7.05556px;line-height:1.25;font-family:sans-serif;stroke-width:0.264583"
       x="866.55322"
       y="109.47025"
       id="text481895-9"><tspan
         sodipodi:role="line"
         style="stroke-width:0.264583"
         x="866.55322"
         y="109.47025"
         id="tspan481903-7">Pipe Memoria           Pipe ULA1-Int             Pipe ULA2-PF</tspan><tspan
         sodipodi:role="line"
         style="stroke-width:0.264583"
         x="866.55322"
         y="118.2897"
         id="tspan481905-3" /><tspan
         sodipodi:role="line"
         style="stroke-width:0.264583"
         x="866.55322"
         y="127.10915"
         id="tspan481907-6">....</tspan></text>
    <path
       style="fill:none;stroke:#000000;stroke-width:0.264583px;stroke-linecap:butt;stroke-linejoin:miter;stroke-opacity:1"
       d="m 826.75223,119.3607 c 2.98156,-0.19678 8.71614,-2.04905 11.20063,-3.70537 1.14734,-0.7649 2.13942,-1.44624 3.42035,-1.9952 1.16708,-0.50018 2.49388,-1.07901 3.70536,-1.42515 0.18272,-0.0522 0.39364,0.0706 0.57007,0 0.84616,-0.33846 1.53836,-0.98002 2.28023,-1.42514 0.89313,-0.53589 2.15207,-0.65889 3.12806,-0.85508 1.07794,-0.21669 2.07087,-0.92722 3.12841,-1.13667 0.27958,-0.0554 0.57856,0.0691 0.85508,0 1.40885,-0.35221 -0.59648,-0.28502 0.57007,-0.28502"
       id="path556550-1" />
    <path
       style="fill:none;stroke:#000000;stroke-width:0.264583px;stroke-linecap:butt;stroke-linejoin:miter;stroke-opacity:1"
       d="m 850.33049,106.28546 c 0.63185,0.26843 1.25738,0.5523 1.89558,0.80527 0.47564,0.18854 0.92345,0.46972 1.42515,0.57006 1.35832,0.27167 3.04867,-0.38621 4.23363,0.28503 0.0756,0.0428 -0.7166,1.35064 -0.83341,1.55554 -0.25511,0.44746 -1.02775,1.75038 -1.42515,2.28023 -0.0806,0.10749 -0.28438,0.41939 -0.28501,0.28503 -0.006,-1.18125 0.17946,-2.3557 0.26921,-3.53355"
       id="path556552-2" />
    <path
       style="fill:none;stroke:#000000;stroke-width:0.264583px;stroke-linecap:butt;stroke-linejoin:miter;stroke-opacity:1"
       d="m 834.76844,128.81579 c 0.59899,-0.095 1.21976,-0.0989 1.797,-0.28503 1.71434,-0.55274 6.58855,-6.01849 8.15496,-7.58491 0.52491,-0.52493 1.09659,-1.30113 1.71016,-1.71017 1.07487,-0.71658 2.06637,-1.5661 3.13531,-2.28024 0.83624,-0.55866 1.78049,-0.64393 2.54466,-1.40809 1.36364,-1.36363 2.28055,-2.77656 3.8613,-3.67097 0.97557,-0.55201 -0.23564,-2.22946 -0.36134,-3.34331"
       id="path556554-9" />
    <path
       style="fill:none;stroke:#000000;stroke-width:0.264583px;stroke-linecap:butt;stroke-linejoin:miter;stroke-opacity:1"
       d="m 837.24137,147.62861 c 2.69618,-3.56735 4.9721,-7.4301 6.97804,-11.44525 0.51716,-1.03515 0.94414,-2.46589 1.43269,-3.44304 0.82651,-1.65299 2.32728,-2.94436 3.13532,-4.56046 0.95551,-1.91102 1.85057,-3.70256 3.13533,-5.41554 0.37357,-0.49811 0.28263,-0.85032 0.57005,-1.42515 0.5474,-1.09479 1.4478,-2.04052 1.9952,-3.13532 0.22873,-0.45742 0.23799,-1.01005 0.57007,-1.42514 0.56967,-0.71208 1.07989,-0.84708 1.42515,-1.71017 0.28562,-0.71407 0.38769,-1.29414 0.85508,-1.9952 0.1478,-0.22169 0.72419,-0.97284 0.84979,-1.07868 0.0692,-0.0583 0.32565,0.0726 0.27159,0 -0.89257,-1.19865 -1.89947,-2.30773 -2.84919,-3.4616"
       id="path556556-3" />
    <path
       style="fill:none;stroke:#000000;stroke-width:0.264583px;stroke-linecap:butt;stroke-linejoin:miter;stroke-opacity:1"
       d="m 854.21291,114.16005 c 1.8393,0.4378 1.03037,-2.15532 1.94884,-2.45889 0.72247,-0.23879 1.08418,-0.38618 1.79634,-0.75556 0.29572,-0.15339 0.56104,-0.77851 0.82092,-0.57006 0.27665,0.2219 -0.57007,3.42895 -0.57007,3.8602"
       id="path556558-1" />
    <path
       style="fill:none;stroke:#000000;stroke-width:0.264583px;stroke-linecap:butt;stroke-linejoin:miter;stroke-opacity:1"
       d="m 827.07976,136.52222 c 3.24855,1.09352 6.79709,1.66852 10.09247,0.57006 1.03836,-0.34612 0.99899,-0.68905 1.9952,-0.85508 2.49521,-0.41587 4.77324,-1.38902 7.12571,-2.56526 2.95301,-1.4765 7.6197,-2.86448 10.26104,-4.84549 1.00034,-0.75024 5.09606,-3.31946 6.02716,-3.31946"
       id="path556560-9" />
    <path
       style="fill:none;stroke:#000000;stroke-width:0.264583px;stroke-linecap:butt;stroke-linejoin:miter;stroke-opacity:1"
       d="m 862.58134,125.50699 c -0.62127,-1.12436 -1.40378,-2.17369 -1.86378,-3.37308 -0.069,-0.17991 1.35564,0.24973 1.4179,0.28141 0.1502,0.0764 0.35742,-0.0803 0.50557,0 0.6663,0.36133 0.98443,0.72603 1.34112,1.034 0.0175,0.015 0.48516,-0.0136 0.51728,0 0.22765,0.0962 -0.1688,0.97263 -0.28503,1.67006 -0.0781,0.46858 0.15023,0.97447 0,1.42514 -0.11618,0.34856 -0.42873,0.7054 -0.5665,1.11184 -0.17569,0.51826 -0.55245,1.48024 -0.56642,1.42148 -0.27782,-1.16935 -0.33343,-2.38057 -0.50014,-3.57085"
       id="path556562-4" />
    <path
       style="fill:none;stroke:#000000;stroke-width:0.264583px;stroke-linecap:butt;stroke-linejoin:miter;stroke-opacity:1"
       d="m 822.47003,153.79207 c 2.37159,1.09306 5.39083,1.13759 7.94596,0.49688 1.45487,-0.36481 2.77514,-1.24618 4.29694,-1.43596 3.03832,-0.37891 6.10545,-1.04007 9.12093,-1.71018 1.5857,-0.35237 3.39455,-0.42251 4.93339,-0.87573 0.77949,-0.22957 1.46447,-0.7181 2.23875,-0.96467 4.49273,-1.43078 9.34508,-1.31528 13.608,-3.44667"
       id="path556564-7" />
    <path
       style="fill:none;stroke:#000000;stroke-width:0.264583px;stroke-linecap:butt;stroke-linejoin:miter;stroke-opacity:1"
       d="m 857.37301,143.02666 c 1.74093,0.39038 6.99701,0.36663 8.1334,1.39946 0.0963,0.0875 -0.75192,3.24259 -0.83899,3.68957 -0.16965,0.87082 -0.66125,3.44607 -0.57008,1.9952 0.0897,-1.42598 0.34444,-2.83676 0.51666,-4.25515"
       id="path556566-8" />
    <text
       xml:space="preserve"
       style="font-size:7.05556px;line-height:1.25;font-family:sans-serif;stroke-width:0.264583"
       x="867.69574"
       y="119.86186"
       id="text574489"><tspan
         sodipodi:role="line"
         id="tspan574487"
         style="stroke-width:0.264583"
         x="867.69574"
         y="119.86186">LOAD  R0, 1000</tspan><tspan
         sodipodi:role="line"
         style="stroke-width:0.264583"
         x="867.69574"
         y="128.6813"
         id="tspan581219">LOAD  R1, 1001</tspan><tspan
         sodipodi:role="line"
         style="stroke-width:0.264583"
         x="867.69574"
         y="137.50076"
         id="tspan584517">LOAD  R4, 1002</tspan><tspan
         sodipodi:role="line"
         style="stroke-width:0.264583"
         x="867.69574"
         y="146.32021"
         id="tspan581221" /><tspan
         sodipodi:role="line"
         style="stroke-width:0.264583"
         x="867.69574"
         y="155.13966"
         id="tspan575721" /></text>
    <text
       xml:space="preserve"
       style="font-size:7.05556px;line-height:1.25;font-family:sans-serif;stroke-width:0.264583"
       x="932.57092"
       y="119.19353"
       id="text606883"><tspan
         sodipodi:role="line"
         id="tspan606881"
         style="stroke-width:0.264583"
         x="932.57092"
         y="119.19353">ADD R2, R5, R6</tspan><tspan
         sodipodi:role="line"
         style="stroke-width:0.264583"
         x="932.57092"
         y="128.01297"
         id="tspan621077" /></text>
    <text
       xml:space="preserve"
       style="font-size:7.05556px;line-height:1.25;font-family:sans-serif;stroke-width:0.264583"
       x="993.3031"
       y="119.70538"
       id="text628317"><tspan
         sodipodi:role="line"
         id="tspan628315"
         style="stroke-width:0.264583"
         x="993.3031"
         y="119.70538">    SUB R7, R5, R6</tspan></text>
    <path
       style="fill:none;stroke:#000000;stroke-width:0.264583px;stroke-linecap:butt;stroke-linejoin:miter;stroke-opacity:1"
       d="m 971.36231,238.26948 c -0.23768,6.05267 -1.75413,12.0688 -2.08997,18.10135 -0.18039,3.24036 0.0879,6.49195 0,9.73614 -0.051,1.88183 -0.34647,3.75096 -0.41661,5.63218 -0.0998,2.67583 0,5.35539 0,8.03309 0,2.0822 -0.003,4.00341 0.28501,6.01729 0.24011,1.68077 -0.52118,3.81181 0,5.41196 0.0764,0.23458 0.48093,0.13208 0.69477,0.25511 0.52612,0.30271 0.99078,0.73009 1.56146,0.93689 5.88719,2.13332 12.39578,1.737 18.52358,1.21111 2.58549,-0.22189 11.41095,-0.22937 11.45625,-0.28503 1.5208,-1.86931 1.4682,-8.47796 1.5169,-10.17351 0.049,-1.69922 -0.054,-18.67335 0,-19.85615 0.1259,-2.76431 0.9382,-11.60969 1.4713,-16.02769 0.2288,-1.89686 0.7147,-3.77394 0.9045,-5.67203 0.059,-0.59358 -0.2898,-1.98202 0,-2.5617 0.059,-0.11867 0.2495,-0.1527 0.2815,-0.28146 0.1282,-0.51584 -7.69207,-0.75131 -8.11866,-0.78144 -2.46653,-0.17421 -4.94033,-0.43401 -7.41034,-0.60385 -2.94386,-0.20242 -5.98401,0.32572 -8.91554,0 -1.7972,-0.19969 -3.80791,-1.14011 -5.6326,-1.14011"
       id="path871658" />
    <path
       style="fill:none;stroke:#000000;stroke-width:0.264583px;stroke-linecap:butt;stroke-linejoin:miter;stroke-opacity:1"
       d="m 980.22286,263.24474 c 0.096,4.30202 -0.39629,8.52433 -0.39629,12.82293 0,0.0858 -0.0309,-0.17731 0,-0.2573 0.26355,-0.68186 0.56205,-1.35035 0.87648,-2.0103 1.65929,-3.48252 3.03938,-6.36376 3.87842,-10.10047 0.0212,-0.0947 -0.0454,-0.37709 0,-0.29126 0.48848,0.9234 2.26042,7.47691 2.88052,7.50141 0.65829,0.026 0.59754,-1.17485 0.86821,-1.77547 1.0764,-2.3886 1.68698,-4.84842 2.6131,-7.31708 0.57129,-1.52289 1.02793,-3.01806 1.22222,-2.86688 0.48543,0.3777 0.70823,2.78393 0.78197,3.13523 1.5801,7.52741 0.75229,2.67171 1.42322,7.9245 0.13761,1.0774 0.12179,2.17322 0.30033,3.24459 0.1565,0.93899 0.85511,1.84862 0.85511,2.85029"
       id="path871660" />
    <path
       style="fill:none;stroke:#000000;stroke-width:0.264583px;stroke-linecap:butt;stroke-linejoin:miter;stroke-opacity:1"
       d="m 823.55304,232.93883 c -0.51935,0.095 -1.07174,0.0795 -1.55807,0.28503 -1.6123,0.68126 -7.36569,5.87775 -6.29878,8.01158 0.36055,0.72107 1.09085,1.19406 1.71019,1.71017 1.23933,1.03279 4.54559,0.5552 5.41554,1.42514"
       id="path871662" />
    <path
       style="fill:none;stroke:#000000;stroke-width:0.264583px;stroke-linecap:butt;stroke-linejoin:miter;stroke-opacity:1"
       d="m 837.22515,233.30174 c -0.35891,1.08127 0.0741,2.28092 -0.14092,3.35992 -0.43357,2.17581 -0.28503,4.39426 -0.28503,6.61843 0,0.30064 0.0304,-0.60282 0,-0.90192 -0.0847,-0.8337 -0.18188,-1.66656 -0.307,-2.49516 -0.38002,-2.51641 -0.54562,-4.35097 0.73295,-6.58127 0.4449,-0.77604 1.29961,-2.96237 2.43374,-3.72162 0.86686,-0.5803 2.20732,1.78044 2.4538,2.27341 1.11752,2.23505 -0.3425,3.58624 -2.27663,4.55332 -0.98195,0.49097 -2.78069,-0.28503 -3.66221,-0.28503"
       id="path871664" />
    <path
       style="fill:none;stroke:#000000;stroke-width:0.264583px;stroke-linecap:butt;stroke-linejoin:miter;stroke-opacity:1"
       d="m 846.02876,230.55683 c -0.16745,1.52443 -1.12008,9.51095 -0.16028,10.47679 0.20995,0.21125 0.60965,0.1029 0.84799,0.28148 1.44507,1.08268 -0.24329,0.16338 1.14011,0.85508 0.61439,0.30719 1.61171,0.55245 2.28024,0.28503 1.67714,-0.67084 2.50523,-2.27648 3.55774,-3.59217 0.62437,-0.78047 1.20714,-1.44181 1.71016,-2.28023 0.55079,-0.91797 0.57007,-6.61984 0.57007,-7.86678"
       id="path871666" />
    <path
       style="fill:none;stroke:#000000;stroke-width:0.264583px;stroke-linecap:butt;stroke-linejoin:miter;stroke-opacity:1"
       d="m 804.87605,287.23111 c 0.97603,2.84392 2.09958,5.9213 3.71338,8.4016 0.0759,0.11657 0.27911,0.0163 0.41722,0 0.6495,-0.0768 1.299,-0.15657 1.94461,-0.26122 2.4426,-0.39597 6.55653,-0.65308 9.13283,-0.28503 1.44751,0.20678 2.84366,0.93557 4.27543,1.14011 1.78094,0.25442 3.68554,0.56105 5.41557,1.14012 0.0937,0.0313 0.95774,0.70498 1.09337,0.57005 0.44323,-0.4409 0.50831,-1.14906 0.85508,-1.66923 1.16001,-1.74 2.19495,-3.90512 3.70538,-5.41555 0.18156,-0.18157 1.50924,-1.15416 1.39028,-1.34301 -0.0254,-0.0403 -1.88129,0 -2.35696,0 -1.88267,0 -3.53851,0.28502 -5.41555,0.28502 -0.75559,0 -3.06882,-0.42561 -3.81349,0 -0.36594,0.20915 -0.94147,0.81625 -1.06492,1.00249 -0.51321,0.77429 -3.47131,-3.08744 -4.46289,-3.08744 -3.44609,0 -7.04101,1.16374 -10.51229,0.57543 -1.18118,-0.026 -2.08873,-0.96308 -3.20828,-1.16682 -0.36553,-0.0665 -0.75293,0.22023 -1.10877,0.11348 -3.69035,-1.10711 -0.34792,-0.96857 -2.59662,-0.96857"
       id="path871668" />
    <path
       style="fill:none;stroke:#000000;stroke-width:0.264583px;stroke-linecap:butt;stroke-linejoin:miter;stroke-opacity:1"
       d="m 848.79612,290.83218 c 1.85597,1.52524 1.46865,5.00174 3.47416,6.38557 1.48151,1.02227 4.60486,0.24286 6.49582,0.39061 3.32864,0.2601 6.61106,1.22539 9.95693,1.45564 2.01874,0.13893 7.07437,-0.10772 8.84023,0.59863 0.66434,0.26572 2.86472,0.43475 3.13534,0.57005 0.24035,0.12018 0.31512,0.48508 0.57004,0.57006 0.20291,0.0676 2.72233,0.17339 2.85031,0 0.15287,-0.20717 -0.084,-0.52905 0,-0.77243 0.1053,-0.30511 0.39891,-0.51285 0.54327,-0.80154 0.40306,-0.80619 0.50762,-1.73357 0.85508,-2.56526 0.23463,-0.56167 1.95341,-3.40934 2.01355,-4.0269 0.0287,-0.29465 -0.92895,0.42843 -1.63705,0.57005 -1.10419,0.22084 -2.59604,0 -3.70536,0 -2.29023,0 -4.67349,0.14575 -6.81209,-0.57005 -0.20736,-0.0694 -0.56682,0.10047 -0.76028,0 -0.24694,-0.12824 -1.23574,-0.55962 -1.26746,-0.53998 -0.3882,0.24033 -0.29343,0.80466 -0.54449,1.29536 -0.0433,0.0846 -0.24233,-0.0849 -0.28504,0 -0.12702,0.25245 0.12703,0.59537 0,0.84782 -0.34737,0.6903 -0.71273,1.68325 -1.39766,1.96992 -0.5071,0.21224 -1.39192,-2.59286 -1.66981,-3.00969 -0.14814,-0.22221 -0.44767,-0.32735 -0.5665,-0.56651 -0.18926,-0.3809 0.0638,-0.72777 -0.16756,-0.99773 -0.25278,-0.29498 -3.20336,-0.0865 -4.19584,-0.28502 -1.68693,-0.33738 -3.56092,-1.11144 -5.12345,-1.4216 -2.37058,-0.47055 -4.81274,-0.57006 -7.29575,-0.57006"
       id="path871670" />
    <path
       style="fill:none;stroke:#000000;stroke-width:0.264583px;stroke-linecap:butt;stroke-linejoin:miter;stroke-opacity:1"
       d="m 787.3768,256.06539 c 0.42596,1.76142 -0.3775,5.00552 0.85508,6.42191 0.43577,0.50076 9.51543,0.38376 10.53264,0.28503 1.28641,-0.12487 2.54051,-0.4907 3.82463,-0.63734 2.70645,-0.30907 5.64373,0.0182 8.31213,0.28503 2.55423,0.25542 5.17988,-0.23243 7.7366,0 2.03779,0.18525 3.73623,1.38278 5.70058,1.71017 1.65997,0.27666 3.4567,-0.18598 5.13051,0 2.10169,0.23352 6.88157,0.27656 9.09405,0 1.16379,-0.14548 0.93233,-0.43687 1.99519,-0.28503 2.21179,0.31597 4.38208,0.10626 6.60953,0.28503 9.64012,0.77367 19.50839,0.28503 29.2031,0.28503 1.02274,0 2.12105,-0.1127 3.13531,0 1.12167,0.12463 7.67569,1.3805 8.22118,0.85508 0.53306,-0.51345 -0.52268,-3.76054 -0.60515,-4.34144 -0.12338,-0.86912 -0.5711,-5.48492 -0.85508,-5.86279 -0.33769,-0.44935 -2.80522,0.20285 -3.17503,0.28503 -1.16927,0.25983 -2.52994,0.72448 -3.70536,0.85508 -1.30696,0.14522 -2.68851,-0.18598 -3.99041,0 -1.36451,0.19494 -2.59911,0.28503 -3.9904,0.28503 -3.10597,0 -6.30052,0.21463 -9.39612,0 -4.12062,-0.2857 -8.3322,-0.51675 -12.48233,-0.29987 -0.88685,0.0463 -1.7586,0.26533 -2.64506,0.31874 -3.86974,0.23315 -7.79759,-0.3052 -11.66157,0 -3.93893,0.31111 -7.73202,0.3375 -11.67026,0.009 -3.0003,-0.25015 -6.13344,0.37344 -9.1209,0 -0.48073,-0.0601 -0.94192,-0.25085 -1.42516,-0.28502 -3.40264,-0.24063 -6.92671,0 -10.34055,0 -2.01268,0 -4.30768,-0.2841 -6.29637,0 -2.70097,0.38585 -6.36378,0.83537 -8.99078,-0.16881 z"
       id="path871672" />
    <path
       style="fill:none;stroke:#000000;stroke-width:0.264583px;stroke-linecap:butt;stroke-linejoin:miter;stroke-opacity:1"
       d="m 926.98602,313.89483 c 0.49768,0 0.99648,0.0336 1.49302,0 2.41623,-0.16334 2.87689,-0.45394 5.11688,-0.30039 8.93138,0.61227 -5.11662,0.0225 5.51659,0.65759 0.8794,0.0525 1.76408,-0.0618 2.6429,0 1.36689,0.0259 2.67176,0.53932 4.02714,0.64454 3.05792,0.23737 6.06946,0.0545 9.14969,0.35786 3.05327,0.30071 6.14415,0.85483 9.20925,0.97536 3.03225,0.11923 6.07351,-0.16224 9.10375,0 1.2454,0.0667 2.47634,0.31351 3.72121,0.38963 0.88196,0.0539 1.77218,-0.0933 2.65089,0 1.56215,0.16581 3.08768,0.5985 4.6487,0.77478 0.56105,0.0634 3.87379,-0.0323 4.54062,0.30113 1.01923,0.50963 2.14484,0.64628 3.42035,0.78763 2.34495,0.25987 4.84296,0 7.21767,0"
       id="path871674" />
    <path
       style="fill:none;stroke:#000000;stroke-width:0.264583px;stroke-linecap:butt;stroke-linejoin:miter;stroke-opacity:1"
       d="m 925.43691,334.47172 c 3.79027,0 0.54436,-0.12227 5.52548,0.60512 2.9173,0.42601 5.79729,0.50785 8.7198,0.69718 5.10929,0.331 10.10282,1.9173 15.22529,2.20893 3.48667,0.19849 7.01283,-0.22611 10.49763,0 1.95509,0.12684 3.89078,0.41129 5.82467,0.57004 5.38652,0.44217 10.96185,0 16.37871,0"
       id="path871676" />
    <path
       style="fill:none;stroke:#000000;stroke-width:0.264583px;stroke-linecap:butt;stroke-linejoin:miter;stroke-opacity:1"
       d="m 925.34024,361.35976 c 7.09546,0.79174 14.28202,-0.23852 21.38534,0.24572 4.58192,0.31234 2.42284,0.25537 6.99024,1.03619 1.42198,0.60983 2.92685,0.1062 4.37602,0.30016 0.79259,0.10608 1.53506,0.47067 2.32646,0.58545 2.18842,0.31742 5.1499,0.41158 7.35353,0.64246 1.69328,0.17743 3.36466,0.55105 5.06249,0.67792 1.84703,0.138 3.69988,0.18486 5.54847,0.30051 1.27857,0.08 3.22458,-0.40233 4.43156,0 0.75353,0.25117 1.64954,0.4431 2.53831,0.57004 2.07684,0.29671 4.42349,-0.32303 6.36751,0.19529 0.61944,0.16516 6.52632,0.17947 7.06475,0 1.02277,-0.34091 -0.25046,-0.28503 0.52218,-0.28503"
       id="path871678" />
    <path
       style="fill:none;stroke:#000000;stroke-width:0.264583px;stroke-linecap:butt;stroke-linejoin:miter;stroke-opacity:1"
       d="m 987.60847,338.55299 c 0.7294,0.43093 1.39049,1.0074 2.18815,1.29281 0.8558,0.3062 1.96636,-0.22101 2.85028,0 1.97472,0.49366 3.75814,0.51906 5.7513,0.51906"
       id="path871680" />
    <path
       style="fill:none;stroke:#000000;stroke-width:0.264583px;stroke-linecap:butt;stroke-linejoin:miter;stroke-opacity:1"
       d="m 1013.0876,322.24511 c -0.1545,-2.19203 0.6779,-4.27513 0.9137,-6.43609 0.092,-0.84779 0.4143,-1.21642 0.5701,-1.9952 0.1388,-0.69428 0.046,-2.01963 0.5665,-2.54037 0.2632,-0.26321 0.8972,-0.44715 0.8972,-0.9447 0,-0.0637 -0.041,0.14268 0,0.19107 0.3779,0.3779 0.7558,0.75579 1.1336,1.13368 0,0.0974 -0.043,0.20496 0,0.29213 0.611,1.22701 1.6801,2.21991 2.2803,3.42034 0.1752,0.35038 0.1307,0.78006 0.285,1.14012 0.365,0.85154 2.2879,4.8532 2.8503,5.41554"
       id="path871682" />
    <path
       style="fill:none;stroke:#000000;stroke-width:0.264583px;stroke-linecap:butt;stroke-linejoin:miter;stroke-opacity:1"
       d="m 1013.8824,317.97728 c 0.2957,-0.1378 0.6208,-0.21661 0.9401,-0.27902 0.2356,-0.046 0.4521,0.01 0.6843,0.0175 0.2177,0.007 0.4359,0.0109 0.6535,0 0.8905,-0.0447 -0.6657,-0.003 0.5791,-0.0475 0.6065,-0.0218 1.2171,0 1.8242,0 0.2062,0 0.4124,0 0.6186,0 0.086,0 0.1724,0 0.2586,0 0.029,0 0.074,-0.007 0.1002,0 0.01,0.002 0.01,0.0152 0.018,0.0178 0.043,0.0142 0.1125,0 0.1602,0"
       id="path871686" />
    <path
       style="fill:none;stroke:#000000;stroke-width:0.264583px;stroke-linecap:butt;stroke-linejoin:miter;stroke-opacity:1"
       d="m 1013.6534,343.99018 c 0,-0.23191 -0.011,0.19585 0.071,-0.21291 0.042,-0.2091 0.049,-0.50821 0.073,-0.71935 0.1177,-1.04497 -0.018,-2.17117 -0.08,-3.2077 -0.098,-1.62385 0.093,-3.26504 0,-4.88918 0.2294,-0.17657 0.4403,-0.3801 0.6881,-0.52972 0.095,-0.0573 0.2186,-0.043 0.3229,-0.0807 0.1857,-0.0672 0.3526,-0.18712 0.5446,-0.23339 2.0557,-0.49546 4.3547,0.84715 5.7513,2.23781 0.1998,0.19901 0.4359,0.36722 0.5999,0.59668 0.7569,1.05922 1.0688,2.71714 0.9368,3.99663 -0.026,0.25054 -0.1385,0.41533 -0.2177,0.65301 -0.2696,0.80886 -0.4921,1.66952 -1.2114,2.20897 -0.1491,0.11183 -0.2777,0.24978 -0.4294,0.35814 -0.2527,0.18056 -0.5869,0.27419 -0.8569,0.42847 -0.1487,0.085 -0.2651,0.23087 -0.4275,0.28503 -0.068,0.0225 -0.1439,-0.014 -0.2138,0 -0.1042,0.0208 -0.1809,0.12168 -0.285,0.14251 -0.1864,0.0373 -0.3809,-0.0172 -0.5701,0 -0.386,0.0351 -0.7566,0.17116 -1.1401,0.21378 -0.5782,0.0642 -1.1707,-0.0435 -1.7434,-0.0784 -0.7378,-0.045 -1.4888,0 -2.229,0"
       id="path871688" />
    <path
       style="fill:none;stroke:#000000;stroke-width:0.264583px;stroke-linecap:butt;stroke-linejoin:miter;stroke-opacity:1"
       d="m 1019.7313,360.25182 c -0.8283,-0.0685 -1.5501,0.31234 -2.3223,0.51622 -1.6714,0.4413 -2.8345,0.97362 -3.8231,2.45722 -0.1946,0.29212 -0.4734,0.55136 -0.6432,0.85828 -0.1255,0.22685 -0.1629,0.49546 -0.2888,0.72207 -0.058,0.10383 -0.167,0.17587 -0.2138,0.28504 -0.051,0.11978 -0.099,0.95165 -0.07,1.06796 0.1579,0.63162 0.5945,1.29765 0.9976,1.78142 0.6209,0.74506 1.3024,1.50383 2.2841,1.78432 0.069,0.0196 0.1433,-0.0101 0.2138,0 0.4647,0.0664 0.1121,0.0944 0.6413,0.1425 1.4801,0.13457 3.0074,-0.11202 4.4659,-0.29432 0.075,-0.009 0.1394,-0.0606 0.2138,-0.0712 0.1021,-0.0145 0.4565,0.0541 0.57,0 0.1901,-0.0905 -0.2126,-0.0679 0.068,-0.0679"
       id="path871690" />
    <path
       style="fill:none;stroke:#000000;stroke-width:0.264583px;stroke-linecap:butt;stroke-linejoin:miter;stroke-opacity:1"
       d="m 906.50709,295.82976 c 0,4.40997 0,8.81995 0,13.22993 0,1.36952 -0.11324,2.78845 0.28503,3.98332 0.24723,0.74171 -0.1166,3.54771 0.27157,4.15112 0.89879,1.39715 7.10851,0.68725 8.84912,0.68725 0.88046,0 1.47664,0.12432 2.28021,0.28503 0.91215,0.18243 1.93273,-0.15293 2.8503,0 0.49885,0.0831 1.47172,0.79433 1.94736,0.56653 0.0699,-0.0335 -0.15176,-0.0617 -0.1956,-0.12554 -0.28948,-0.42186 -0.40826,-0.93975 -0.57005,-1.42514 -0.37931,-1.13789 -0.60576,-2.32153 -0.8727,-3.49089 -0.57042,-2.49866 -0.094,-1.01091 -0.28504,-3.54961 -0.16502,-2.19292 -0.64095,-4.38978 -0.85508,-6.55567 -0.26778,-2.70832 0.0177,-5.63524 0.28501,-8.30749 0.0368,-0.36759 0.66797,-2.11188 0.28504,-2.55813 -0.4341,-0.50587 -2.64501,0.52403 -2.76773,0.57005 -1.54876,0.58079 -2.88261,0.22186 -4.27543,0.57006 -1.33675,0.33419 -2.98426,0.90867 -4.27545,1.42515 -0.44641,0.17857 -1.16131,0.8584 -1.70003,0.85172 -0.43119,-0.005 -0.8377,-0.20513 -1.25653,-0.30769 z"
       id="path871692" />
    <path
       style="fill:none;stroke:#000000;stroke-width:0.264583px;stroke-linecap:butt;stroke-linejoin:miter;stroke-opacity:1"
       d="m 910.51912,297.99624 c 0,0.66616 0,1.33233 0,1.99849 0,0.0933 0,0.18654 0,0.27982 0,0.0355 -0.0183,0.13687 0,0.10641 0.1043,-0.17472 0.19299,-0.35834 0.29374,-0.53513 0.0836,-0.14678 0.16656,-0.29403 0.24538,-0.44344 0.15563,-0.29501 0.30559,-0.60268 0.454,-0.89948 0.0371,-0.0741 0.36605,-0.3958 0.4033,-0.44275 0.11959,-0.15071 0.17865,-0.41236 0.24961,-0.12174 0.11755,0.48145 0.24307,0.91383 0.40338,1.37724 0.0574,0.16586 0.0855,0.34163 0.15161,0.5042 0.0462,0.11361 0.15579,0.22057 0.1869,0.19539 0.44418,-0.3595 0.59812,-0.94622 0.93499,-1.38317 0.25217,-0.32707 0.38658,-0.3706 0.64997,-0.61053 0.20278,-0.18473 0.44487,-0.46356 0.49832,-0.38122 0.20523,0.31612 0.23061,0.54599 0.32123,0.93601 0.0998,0.42947 0.18751,0.86176 0.29329,1.28979 0.0405,0.16368 0.0926,0.32436 0.14523,0.48454 0.0217,0.0662 0.1466,0.25273 0.1466,0.32881"
       id="path871694" />
    <path
       style="fill:none;stroke:#000000;stroke-width:0.264583px;stroke-linecap:butt;stroke-linejoin:miter;stroke-opacity:1"
       d="m 911.36225,306.90998 c 0.34493,-0.70217 0.67347,-1.41082 1.02338,-2.11064 0.10205,-0.20407 0.21116,-0.40475 0.30612,-0.61221 0.0324,-0.0709 0.19307,-0.58804 0.33906,-0.74059 0.0439,-0.0459 0.17648,0.10893 0.19823,0.13069 0.24,0.24 0.19177,0.25023 0.40428,0.63044 0.0742,0.1328 0.17693,0.24937 0.24273,0.38654 0.254,0.52934 0.38582,1.31518 0.47374,1.86286 0.0366,0.22805 0.0359,1.09635 0.21423,1.3039 0.0101,0.0116 -0.0233,-0.0202 -0.0325,-0.0324 -0.27813,-0.37405 -0.0918,-0.20077 -0.41603,-0.44393"
       id="path871696" />
    <path
       style="fill:none;stroke:#000000;stroke-width:0.264583px;stroke-linecap:butt;stroke-linejoin:miter;stroke-opacity:1"
       d="m 912.35025,305.63122 c 0.12499,0 0.25019,0.007 0.375,0 0.24548,-0.0139 0.4927,-0.0488 0.73411,-0.0756 0.0651,-0.007 0.54967,-0.0278 0.60523,0 0.0547,0.0273 0.0401,0.0352 0.10475,0.0352"
       id="path871698" />
    <path
       style="fill:none;stroke:#000000;stroke-width:0.264583px;stroke-linecap:butt;stroke-linejoin:miter;stroke-opacity:1"
       d="m 912.03757,312.33331 c 0,0.53239 -0.0167,-0.0863 0.0423,0.37572 0.0399,0.31264 0.0575,0.62792 0.0994,0.9403 0.0524,0.39047 0.1388,0.71934 0.1388,1.10958 0,0.22465 -0.003,0.4815 0.0375,0.70216 0.003,0.0184 0.0326,-0.0271 0.0326,-0.0458"
       id="path871700" />
    <path
       style="fill:none;stroke:#000000;stroke-width:0.264583px;stroke-linecap:butt;stroke-linejoin:miter;stroke-opacity:1"
       d="m 912.03757,312.33331 c -0.14539,-0.11326 -0.38211,-0.1636 -0.43614,-0.33979 -0.003,-0.0111 0.37822,-0.66614 0.4006,-0.70775 0.28075,-0.52191 0.36878,-0.69806 0.94727,-0.89089 0.0719,-0.024 0.20214,-0.0685 0.28413,-0.0356 0.36661,0.14702 0.53401,0.79355 0.58417,1.13878 0.0122,0.0844 -0.007,0.17088 0,0.25594 0.0214,0.275 0.0685,0.55702 0.0375,0.83567 -0.0172,0.15438 -0.0614,0.18141 -0.14417,0.32332 -0.23709,0.40661 -0.29564,0.58187 -0.79052,0.58187 -0.0459,0 -0.2867,0.0335 -0.3202,0 -0.0419,-0.0418 0.0246,-0.0382 0.0305,-0.0352 0.17804,0.0908 0.26919,0.26652 0.40315,0.39992 0.23286,0.23189 0.46796,0.4418 0.66548,0.71045 0.10205,0.13879 0.758,1.06117 0.8388,1.06117"
       id="path871702" />
    <path
       style="fill:none;stroke:#000000;stroke-width:0.264583px;stroke-linecap:butt;stroke-linejoin:miter;stroke-opacity:1"
       d="m 986.28521,317.85317 c 0.56676,-5.4907 1.10416,-10.97907 1.10416,-16.50872"
       id="path871704" />
    <path
       style="fill:none;stroke:#000000;stroke-width:0.264583px;stroke-linecap:butt;stroke-linejoin:miter;stroke-opacity:1"
       d="m 983.32365,302.04157 c 2.5106,-2.85625 0.20269,-0.16573 1.51278,-1.80585 0.76943,-0.96325 0.87749,-0.96994 1.58112,-2.06437 0.62312,-0.9692 -0.0394,-0.24661 0.571,-0.857 0.0992,-0.0992 0.55226,-1.1089 0.7675,-0.85153 0.98335,1.17577 1.63015,3.07925 2.11042,4.52009 0.14402,0.43206 0.14103,0.85058 0.28504,1.28264 0.0346,0.10388 0.12486,0.66779 0.1425,0.68797 0.10147,0.11583 0.33256,0.33224 0.20275,0.41507 -0.23452,0.14966 -0.74347,-0.0484 -1.0338,0 -0.84029,0.14005 -0.3833,0.2467 -1.42513,0.14252 -0.70323,-0.0703 -1.45214,-0.29043 -2.13772,-0.42755 -0.68096,-0.13619 -1.57208,0.14281 -2.10291,-0.21667"
       id="path871706" />
    <path
       style="fill:none;stroke:#000000;stroke-width:0.264583px;stroke-linecap:butt;stroke-linejoin:miter;stroke-opacity:1"
       d="m 897.97531,235.26503 c 0,2.70299 0,5.40598 0,8.10897 0,0.0865 0,-0.17296 0,-0.25944 0,-0.59998 -0.0386,0.13453 0.28501,-0.82905 0.37475,-1.11579 0.6976,-2.24836 1.03984,-3.37454 0.38367,-1.26244 3.15928,-11.9997 3.5946,-12.12294 0.234,-0.0663 -0.0613,0.49423 0,0.72957 0.0535,0.20559 0.24318,0.36177 0.28503,0.57006 0.48258,2.40252 0.67609,4.95973 0.95766,7.39433 0.12007,1.03825 0.9806,-1.08894 1.08054,-1.26379 0.50987,-0.89229 1.20028,-1.67298 1.71016,-2.56526 0.10305,-0.18035 0.99594,-1.92 1.11281,-1.71018 0.38629,0.69353 1.42031,9.0218 1.57887,9.79642 0.12428,0.60706 0.45212,1.15895 0.58785,1.76356 0.28641,1.27587 -0.33655,0.51852 0.28504,1.14012"
       id="path871708" />
    <path
       style="fill:none;stroke:#000000;stroke-width:0.264583px;stroke-linecap:butt;stroke-linejoin:miter;stroke-opacity:1"
       d="m 923.53038,232.48128 c -0.98502,-0.009 -2.90057,-0.75144 -3.87781,0.0303 -0.57944,0.46356 -0.85508,1.23513 -1.42515,1.71018 -1.55083,1.29237 -2.82583,2.56141 -2.82583,4.77673 0,0.0937 -0.0591,0.68835 0,0.74366 1.17231,1.09785 2.81627,2.64095 4.27185,3.42035 0.61741,0.33059 1.61513,0.25636 2.20568,0.55164 0.75109,0.37555 -0.81058,0.28503 0.27154,0.28503"
       id="path871710" />
    <path
       style="fill:none;stroke:#000000;stroke-width:0.264583px;stroke-linecap:butt;stroke-linejoin:miter;stroke-opacity:1"
       d="m 914.90912,221.53415 c -2.69418,-3.56928 -4.29829,-3.02514 -7.35132,-0.48094 -0.58444,0.48703 -1.17104,1.97085 -1.42515,1.9952 -0.0855,0.008 0.0607,-0.19697 0,-0.25771 -0.85669,-0.8567 -1.56181,-1.0525 -2.76836,-0.51543 -1.64251,0.73114 -2.05907,2.59725 -3.20694,3.78697 -0.16491,0.17094 -1.39136,0.64579 -1.56538,0.79901 -1.81351,1.5967 -3.65456,3.55818 -4.99279,5.56554 -1.83973,2.75959 -1.71588,5.35363 -1.71588,8.5483 0,0.28207 -0.15144,1.39438 0,1.71017 0.24538,0.51168 0.56489,0.82233 0.83267,1.35789 0.085,0.16996 -0.11401,0.41804 0,0.57006 1.32477,1.76636 6.83535,1.92859 8.9335,2.30737 2.59472,0.46843 3.55775,1.68622 6.43496,1.3985 1.77284,-0.17729 3.68998,-0.74355 5.31368,-1.48515 2.82252,-1.28914 0.0918,-0.72131 3.5029,-1.47932 1.23147,-0.27366 0.61531,0.46221 1.13651,1.11125 0.33867,0.42173 0.73682,0.79526 1.1474,1.14738 1.52302,1.30624 5.56439,0.60565 7.12298,-0.29508 1.17162,-0.6771 5.99059,-4.34304 6.253,-6.17999 0.1075,-0.75244 -0.14907,-1.53492 0,-2.28024 0.22704,-1.1352 0.46485,-2.16176 0.28504,-3.42034 -0.11481,-0.8036 -0.62183,-1.50271 -0.85509,-2.28023 -0.33948,-1.13163 -0.47029,-2.4156 -1.14011,-3.42035 -0.83616,-1.25425 -5.8316,-2.80265 -7.3972,-3.97685 -1.05261,-0.78945 -1.97421,-1.96869 -2.8503,-2.85028 -0.65037,-0.65447 -2.26832,-0.59081 -3.06967,-1.02837 -0.6069,-0.33138 -1.4007,-1.65419 -1.93042,-1.65419"
       id="path871712" />
    <path
       style="fill:none;stroke:#000000;stroke-width:0.264583px;stroke-linecap:butt;stroke-linejoin:miter;stroke-opacity:1"
       d="m 906.84594,250.80841 c -1.21714,6.22079 -0.87236,12.61423 -0.87236,18.96266 0,2.21012 -0.27474,4.64275 0,6.8407 0.15515,1.24109 0.14658,2.45928 0.28504,3.70537 0.17849,1.60634 0.57004,3.1414 0.57004,4.77434"
       id="path871714" />
    <path
       style="fill:none;stroke:#000000;stroke-width:0.264583px;stroke-linecap:butt;stroke-linejoin:miter;stroke-opacity:1"
       d="m 906.82864,285.09148 c -1.47339,0.18987 -3.02692,0.0541 -4.42016,0.56963 -0.18968,0.0702 0.7048,0.6892 1.14012,1.9952 0.49911,1.49729 0.90066,3.23738 1.71018,4.547 0.0419,0.0678 1.24294,-1.15822 2.14728,-2.24341 0.73652,-0.88383 3.64652,-5.50253 3.70536,-6.27064 0.0164,-0.21246 -0.86783,0.14221 -3.04684,1.14368 -1.5785,0.72548 -3.46654,1.64823 -5.23396,1.86985 -0.469,0.0588 -0.99523,-0.21138 -1.41798,0 -0.43442,0.21721 -0.57354,0.28503 -1.1217,0.28503"
       id="path871716" />
    <path
       style="fill:none;stroke:#000000;stroke-width:0.264583px;stroke-linecap:butt;stroke-linejoin:miter;stroke-opacity:1"
       d="m 914.21183,285.3472 c -0.0471,0.24887 -0.12771,2.3038 -0.0642,2.37539 0.0668,0.0753 0.18574,-0.0803 0.26993,-0.13547"
       id="path871718" />
    <path
       style="fill:none;stroke:#000000;stroke-width:0.264583px;stroke-linecap:butt;stroke-linejoin:miter;stroke-opacity:1"
       d="m 916.95427,285.5691 c -0.18423,0.31948 -0.37439,0.63561 -0.55272,0.95844 -0.0911,0.16499 -0.64066,1.11319 -0.45336,1.32719 0.28186,0.32207 1.36877,-0.94909 1.4216,-1.03202 0.26631,-0.41783 0.49853,-1.08015 0.41347,-1.59055 -0.094,-0.5639 -0.59568,-0.37633 -0.78383,0"
       id="path871720" />
    <path
       style="fill:none;stroke:#000000;stroke-width:0.264583px;stroke-linecap:butt;stroke-linejoin:miter;stroke-opacity:1"
       d="m 919.69577,285.68093 c -0.36173,-0.0437 -0.48469,0.043 -0.64132,0.35629 -0.19545,0.39088 -0.1425,0.33725 -0.1425,0.78383 0,0.35913 -0.0471,0.51075 0.0712,0.80657 0.20852,0.52131 0.99949,-0.36262 1.16959,-0.59954 0.24085,-0.33543 0.25103,-0.54923 0.29305,-0.95197 0.0243,-0.23315 0.0259,-0.35543 -0.21106,-0.35543"
       id="path871722" />
    <path
       style="fill:none;stroke:#000000;stroke-width:0.264583px;stroke-linecap:butt;stroke-linejoin:miter;stroke-opacity:1"
       d="m 922.34692,285.59619 c -0.18796,0.17831 -1.20737,1.85652 -0.61515,2.0934 0.7122,0.28489 1.57419,-0.58868 1.57419,-1.28589"
       id="path871724" />
    <path
       style="fill:none;stroke:#000000;stroke-width:0.264583px;stroke-linecap:butt;stroke-linejoin:miter;stroke-opacity:1"
       d="m 925.39926,307.49827 c -0.0249,1.29852 0.1134,2.59079 0.1134,3.88922"
       id="path871726" />
    <path
       style="fill:none;stroke:#000000;stroke-width:0.264583px;stroke-linecap:butt;stroke-linejoin:miter;stroke-opacity:1"
       d="m 928.81932,309.33286 c -0.15798,0.12552 -0.322,0.24378 -0.47392,0.37656 -0.34197,0.29888 -0.2309,0.21809 -0.44106,0.51232 -0.24728,0.34621 -0.5611,0.61346 0.27903,0.42754 0.19436,-0.043 0.38137,-0.1275 0.54917,-0.23461 0.4092,-0.26124 0.31776,-0.38321 0.4632,-0.8195 0.25676,-0.77027 -0.45863,-0.7099 -1.06796,-0.7099"
       id="path871728" />
    <path
       style="fill:none;stroke:#000000;stroke-width:0.264583px;stroke-linecap:butt;stroke-linejoin:miter;stroke-opacity:1"
       d="m 931.16895,308.88067 c -0.28064,0.34235 -0.54567,0.71024 -0.78658,1.0716 -0.18692,0.28037 0.21336,0.85151 0.57005,0.78205 0.46985,-0.0915 1.21065,-0.64139 1.21065,-1.17961 0,-0.0212 0.0201,-0.0569 0,-0.0635 -0.20606,-0.0678 -0.54946,0.0713 -0.69178,0.0713"
       id="path871730" />
    <path
       style="fill:none;stroke:#000000;stroke-width:0.264583px;stroke-linecap:butt;stroke-linejoin:miter;stroke-opacity:1"
       d="m 934.82825,308.90289 c -0.51203,-0.0798 -0.62492,0.0828 -0.92636,0.42754 -0.20162,0.23061 -0.40058,0.4914 -0.50067,0.78694 -0.0832,0.24559 0.82203,0.8971 1.07286,0.77168 0.0275,-0.0137 0.28437,-0.23253 0.28437,-0.33375"
       id="path871732" />
    <path
       style="fill:none;stroke:#000000;stroke-width:0.264583px;stroke-linecap:butt;stroke-linejoin:miter;stroke-opacity:1"
       d="m 995.28239,296.05019 c -0.42315,1.02621 -0.229,2.1191 -0.34026,3.17221 -0.0329,0.31124 -0.0712,0.60138 -0.0712,0.92634"
       id="path871734" />
    <path
       style="fill:none;stroke:#000000;stroke-width:0.264583px;stroke-linecap:butt;stroke-linejoin:miter;stroke-opacity:1"
       d="m 997.51579,296.62055 c -0.51657,0.30527 -1.24841,0.94379 -1.54678,1.4807 -0.0614,0.11042 -0.0399,0.25025 -0.0762,0.37123 -0.16978,0.56461 -0.30347,1.12217 0.4988,1.28263 1.33006,0.266 1.63184,-1.74542 1.63184,-2.65713"
       id="path871736" />
    <path
       style="fill:none;stroke:#000000;stroke-width:0.264583px;stroke-linecap:butt;stroke-linejoin:miter;stroke-opacity:1"
       d="m 1000.0711,296.74454 c -0.89616,0.49906 -0.46206,0.11172 -0.95437,0.90439 -0.24389,0.39269 -0.39209,0.45708 -0.46659,0.90414 -0.25464,1.52777 1.84406,1.00229 2.00566,-0.21807 0.058,-0.43434 -0.061,-1.392 -0.094,-1.75396"
       id="path871738" />
    <path
       style="fill:none;stroke:#000000;stroke-width:0.264583px;stroke-linecap:butt;stroke-linejoin:miter;stroke-opacity:1"
       d="m 1002.4478,296.95048 c -0.1333,0.19039 -0.2902,0.36628 -0.4,0.57117 -0.084,0.15579 -0.3415,1.11201 -0.2218,1.31157 0.2758,0.45965 0.1165,0.0592 0.2842,0.14252 0.7937,0.39441 1.3295,-0.44102 1.5115,-1.1319 0.049,-0.18656 0.2301,-0.96686 -0.08,-0.96686"
       id="path871740" />
    <path
       style="fill:none;stroke:#000000;stroke-width:0.264583px;stroke-linecap:butt;stroke-linejoin:miter;stroke-opacity:1"
       d="m 969.18968,269.79632 c -0.37327,0 -0.74856,-0.0388 -1.11979,0 -1.7585,0.18402 -3.467,0.8627 -5.24021,1.00773 -3.32266,0.27176 -7.63587,0.50013 -10.97984,0.20155 -0.79507,-0.071 -1.43293,-0.20155 -2.21702,-0.20155 -0.0577,0 0.11922,-0.0208 0.17299,0 0.25439,0.0987 0.1543,0.52661 0.18269,0.79801 0,2.21159 -0.10705,0.0772 0.20156,1.62026 0.26173,1.30861 0.61629,2.70166 0.80619,4.03091 0.1547,1.08299 0.39571,2.18007 0.60462,3.22474 0.2158,1.07887 0.0796,2.32834 0.20156,3.42628 0.0612,0.5506 0.32475,1.06393 0.40309,1.61236 0.13465,0.9426 0.0403,1.85397 0.20154,2.82164 0.35546,2.13281 0.23185,4.32107 0.40309,6.47563 0.12814,1.61222 0.52366,3.20353 0.63735,4.81304 0.11732,1.66085 0.075,3.32223 0.20154,4.98087 0.24368,3.19281 0.54681,6.37875 0.86439,9.55473 0.17111,1.71087 0,3.52057 0,5.24019 0,1.11401 0.11041,2.3223 0,3.42628 -0.0783,0.78288 -0.31406,1.61735 -0.40309,2.41856 -0.0938,0.84465 -0.036,1.59091 -0.20153,2.41855 -0.22427,1.12133 0.35872,2.50526 0,3.58148 -0.13476,0.40429 -0.20156,0.69334 -0.20156,1.19306"
       id="path871746" />
    <path
       style="fill:none;stroke:#000000;stroke-width:0.264583px;stroke-linecap:butt;stroke-linejoin:miter;stroke-opacity:1"
       d="m 948.30517,327.1421 c -0.19891,1.28357 0.94742,2.00609 1.17253,3.1316 0.377,1.88503 1.36953,3.56643 2.1999,5.20851 0.15388,0.3043 0.0368,0.48583 0.18629,0.71324 0.19307,0.29374 1.36965,-0.23447 1.88789,-0.60463 0.7688,-0.54914 4.96255,-4.76649 4.96255,-5.15606"
       id="path871748" />
    <path
       style="fill:none;stroke:#000000;stroke-width:0.264583px;stroke-linecap:butt;stroke-linejoin:miter;stroke-opacity:1"
       d="m 954.57997,257.8745 c -0.15917,3.20689 -0.0926,6.42136 -0.0926,9.63183"
       id="path871750" />
    <path
       style="fill:none;stroke:#000000;stroke-width:0.264583px;stroke-linecap:butt;stroke-linejoin:miter;stroke-opacity:1"
       d="m 951.88191,259.22419 c 1.37531,-1.7029 1.58107,-1.98156 3.45453,-2.83314 0.39511,-0.17959 1.06622,-0.6267 1.55599,-0.42754 1.94194,0.78971 3.40879,4.47952 3.93261,6.33311 0.26355,0.93261 0.94467,4.08352 0.16365,4.86456 -0.74989,0.74988 -1.9212,1.30607 -2.99281,1.42514 -0.70128,0.0779 -1.43952,-0.0997 -2.1377,0 -0.0698,0.01 -1.39846,0.30989 -1.411,0.14251 -0.0305,-0.40658 0.0268,-0.815 0.0402,-1.2225"
       id="path871752" />
    <path
       style="fill:none;stroke:#000000;stroke-width:0.264583px;stroke-linecap:butt;stroke-linejoin:miter;stroke-opacity:1"
       d="m 926.53112,327.46256 c 0.0898,1.06669 -0.14253,2.10434 -0.14253,3.16547 0,0.35375 -0.018,-0.70799 0,-1.06129 0.007,-0.13973 0.16952,-2.90568 0.28504,-3.41352 0.01,-0.0444 0.30319,-0.89763 0.42571,-0.85511 0.47522,0.16497 0.8404,0.55377 1.24725,0.84963 0.3711,0.26987 1.07378,0.77488 1.29159,1.14771 0.68067,1.16517 0.57245,3.38264 0.1351,4.59959 -0.0726,0.20193 -1.05278,0.41008 -1.14012,0.42757 -0.82105,0.1642 -1.31318,0.42754 -2.13773,0.42754 -0.0568,0 -0.99012,-0.0143 -0.99181,0 -0.0674,0.57031 -0.0445,1.14771 -0.0667,1.72157"
       id="path871754" />
    <path
       style="fill:none;stroke:#000000;stroke-width:0.264583px;stroke-linecap:butt;stroke-linejoin:miter;stroke-opacity:1"
       d="m 904.80066,328.17783 c 0.0807,2.1893 -0.10864,4.39198 0,6.5799 -0.0322,1.42272 0.31001,2.81477 0.38743,4.22786 0.0839,1.53302 0,3.11361 0,4.64783 0,2.73161 0,5.46322 0,8.19483 0,0.51819 -0.0473,1.8338 0,1.85269 0.21648,0.0865 0.9943,-0.4631 1.21914,-0.53729 1.41748,-0.46773 3.22549,-1.03748 4.71186,-1.1503 0.74867,-0.0569 1.55956,0.10644 2.30481,0 0.46893,-0.067 1.32665,-0.34867 1.82447,-0.14253 0.91625,0.37944 1.44335,0.34406 2.41334,0.55941 1.09045,0.24209 2.01941,0.46815 2.82726,-0.0971 0.0493,-0.0345 0,-0.73123 0,-0.9371 0,-0.71239 0,-1.42476 0,-2.13715 0,-3.72348 0.0625,0.33589 -0.16928,-3.11258 -0.15084,-2.24364 -0.0723,-4.51906 -0.15949,-6.76545 -0.0394,-1.01595 -0.18008,-2.02634 -0.21768,-3.04237 -0.10025,-2.70824 -0.12787,-5.60517 0.14251,-8.30905 0.039,-0.38978 0.2082,-0.75597 0.28503,-1.14012 0.1682,-0.841 0.1655,-1.72426 -0.0227,-2.66604 -0.0279,-0.13976 0.0934,-0.31988 0,-0.42754 -0.0474,-0.0547 -3.39325,1.03933 -3.87318,1.13532 -1.29183,0.25837 -2.57823,-0.019 -3.87012,0.14251 -1.64078,0.2051 -3.46895,0.32713 -5.1305,0.14253 -0.66956,-0.0744 -1.33081,-0.21122 -1.9952,-0.28504 -0.37772,-0.042 -0.76526,0.0625 -1.14012,0 -0.0185,-0.003 -0.79822,-0.3053 -0.83304,-0.28503 -0.10035,0.0584 0.11065,0.20939 0.12711,0.32432 0.0299,0.20921 -0.0183,0.4235 0,0.63405 0.0837,0.96131 -0.004,2.37546 0.43532,3.25379"
       id="path871756" />
    <path
       style="fill:none;stroke:#000000;stroke-width:0.264583px;stroke-linecap:butt;stroke-linejoin:miter;stroke-opacity:1"
       d="m 909.53757,327.47563 c -0.062,1.78633 -0.60772,3.52634 -0.60772,5.32082 0,0.0803 -0.0315,-0.16708 0,-0.24093 0.12899,-0.30226 0.32086,-0.57491 0.45122,-0.87659 0.47705,-1.10373 0.85196,-2.3205 0.9252,-3.52419 0.0304,-0.50025 0.003,-0.63561 0.1425,-1.05432 0.008,-0.0249 0.12928,-0.36681 0.14161,-0.35448 0.0693,0.0693 0.0475,0.19002 0.0713,0.28503 0.0584,0.23358 0.10798,0.46953 0.17519,0.70072 0.4259,1.46529 0.70117,2.97596 1.14342,4.43648 0.0198,0.0659 0.24654,0.66392 0.31313,0.63244 0.38127,-0.18024 1.1728,-3.21487 1.31816,-3.70197 0.0508,-0.17016 0.11509,-0.33605 0.16613,-0.50612 0.0355,-0.11825 0.0456,-0.45691 0.11213,-0.35296 0.22685,0.35436 0.17531,0.66479 0.23527,1.03145 0.0774,0.47295 0.20473,0.93787 0.35187,1.39396 0.0326,0.1011 0.095,0.19002 0.1425,0.28504 0.0238,0.1425 0.0399,0.28651 0.0712,0.42754 0.0779,0.35049 0.0713,0.2563 0.0713,0.15091"
       id="path871758" />
    <path
       style="fill:none;stroke:#000000;stroke-width:0.264583px;stroke-linecap:butt;stroke-linejoin:miter;stroke-opacity:1"
       d="m 910.23851,336.14841 c 0.0206,0.96422 0.22518,1.91034 0.22518,2.87623 0,0.0212 0,-0.0424 0,-0.0635 0,-0.20232 0.008,-0.0693 -0.0727,-0.39325 -0.11351,-0.45405 -0.31515,-0.92768 -0.36685,-1.39298 -0.0106,-0.0944 0,-0.19002 0,-0.28503 -0.0475,-0.11875 -0.11991,-0.23037 -0.1425,-0.35629 -0.18984,-1.0573 0.17089,-1.47807 1.1439,-1.47807 0.10541,0 0.56554,-0.10869 0.64042,-0.0713 0.97753,0.48874 0.0285,2.20808 -0.99846,2.20808 -0.0638,0 -0.28792,0.0228 -0.34824,0 -0.0728,-0.0275 0.21775,-0.089 0.37568,-0.11575 0.48771,-0.0828 1.01544,-0.15402 1.49132,-0.30954 0.27988,-0.0915 0.43225,-0.21323 0.74004,-0.15166 0.84469,0.16894 1.37065,1.31016 1.06884,2.06468 -0.39418,0.98546 -1.64986,1.01227 -2.56434,0.78292 -0.21998,-0.0552 -0.58052,0.10115 -0.7802,0 -0.13153,-0.0666 -0.25247,-0.1425 -0.41125,-0.1425"
       id="path871760" />
    <path
       style="fill:none;stroke:#000000;stroke-width:0.264583px;stroke-linecap:butt;stroke-linejoin:miter;stroke-opacity:1"
       d="m 909.80112,343.98931 c -0.24558,1.40613 -0.0819,2.84718 -0.14253,4.26744 -0.0241,0.562 -0.11046,1.07505 -0.11046,1.63732"
       id="path871762" />
    <path
       style="fill:none;stroke:#000000;stroke-width:0.264583px;stroke-linecap:butt;stroke-linejoin:miter;stroke-opacity:1"
       d="m 908.45119,344.68275 c 0.0825,-0.55189 0.48993,-0.99935 0.88519,-1.46846 0.72438,-0.85971 1.77755,-1.67809 2.87573,-0.94599 0.0763,0.0509 0.56015,0.40029 0.56917,0.42757 0.14291,0.43232 -0.22563,1.96908 -0.33509,2.30462 -0.0766,0.23474 -0.22662,0.43889 -0.33126,0.66255 -0.17092,0.36531 -0.34512,1.06621 -0.73419,1.26073 -0.20529,0.10266 -1.07439,0.22583 -1.28265,0.14254 -0.10456,-0.0418 -0.66733,-0.57092 -0.63592,-0.61627 0.0671,-0.0969 0.24116,0.0175 0.34644,0.0704 0.0785,0.0395 0.14624,0.0975 0.21937,0.14624 0.18629,0.081 0.3774,0.15168 0.5589,0.24291 1.18216,0.59431 1.28985,0.87749 2.12453,1.72836 0.0832,0.0848 0.20103,0.12981 0.28501,0.21379 0.18243,0.1824 0.34359,0.43434 0.49882,0.64129 0.12615,0.16823 0.29059,0.35172 0.28032,0.34171 -0.0584,-0.057 -0.0906,-0.13586 -0.13583,-0.20378"
       id="path871764" />
    <path
       style="fill:none;stroke:#000000;stroke-width:0.264583px;stroke-linecap:butt;stroke-linejoin:miter;stroke-opacity:1"
       d="m 908.45117,344.68275 c -1.84238,-0.85804 -3.63617,-1.82933 -5.52718,-2.57415 -1.17115,-0.4613 -2.79341,-0.65556 -4.0228,-0.86048 -1.67359,-0.27893 -3.26274,-1.75263 -4.8455,-2.28023 -0.18026,-0.0601 -0.38978,0.0601 -0.57004,0 -0.39704,-0.13232 -0.44353,-0.59839 -0.57008,-0.85149 -0.22902,-0.45807 -0.88341,-0.60192 -1.12249,-0.84097 -0.25376,-0.25377 0.0441,-1.54231 0,-1.89826 -0.38621,-3.11766 -0.57597,-6.15929 -0.57597,-9.30955 0,-2.94915 0.21648,-5.97867 0,-8.91534 -0.16894,-2.29173 -0.47546,-4.62089 -0.28504,-6.94188 0.26525,-3.23261 0.55957,-6.44025 0.85508,-9.69097 0.14042,-1.5444 0.66347,-3.02754 0.85508,-4.56047 0.12814,-1.02497 -0.16959,-2.11767 0,-3.13531 0.7162,-4.29718 3.12217,-16.62398 1.14533,-20.57767 -0.11993,-0.23989 -0.40722,-0.68303 -0.5072,-0.76922 -0.17968,-0.15486 -0.91597,-0.0722 -1.11959,-0.27578 -0.0663,-0.0663 0.0664,-0.21515 0,-0.28149 -0.10835,-0.10832 -2.93918,-1.20581 -3.34954,-1.41099 -0.45398,-0.22699 -0.91139,-0.90922 -1.12491,-1.09072 -0.36409,-0.30948 -1.04372,-0.4773 -1.41782,-0.85141"
       id="path871766" />
    <path
       style="fill:none;stroke:#000000;stroke-width:0.264583px;stroke-linecap:butt;stroke-linejoin:miter;stroke-opacity:1"
       d="m 889.03094,276.34313 c -1.62918,-2.11234 -4.09737,-3.95331 -4.97544,-6.58749 -0.15319,-0.45959 -0.13182,-0.96554 -0.28501,-1.42514 -0.049,-0.14709 -0.58097,-0.84784 -0.28504,-1.11815 1.62357,-1.48293 4.41654,-0.51358 6.30254,-0.82791 1.25108,-0.20852 2.30952,-0.28503 3.58579,-0.28503"
       id="path871768" />
    <text
       xml:space="preserve"
       style="font-size:7.05556px;line-height:1.25;font-family:sans-serif;stroke-width:0.264583"
       x="1072.6519"
       y="248.62497"
       id="text874038"><tspan
         sodipodi:role="line"
         id="tspan874036"
         style="stroke-width:0.264583"
         x="1072.6519"
         y="248.62497">1- 1000 -&gt; MAR</tspan><tspan
         sodipodi:role="line"
         style="stroke-width:0.264583"
         x="1072.6519"
         y="257.44443"
         id="tspan874040">2- MAR -&gt; MEM</tspan><tspan
         sodipodi:role="line"
         style="stroke-width:0.264583"
         x="1072.6519"
         y="266.26385"
         id="tspan887506">3- Mem -&gt; D</tspan><tspan
         sodipodi:role="line"
         style="stroke-width:0.264583"
         x="1072.6519"
         y="275.08331"
         id="tspan889224">4- D -&gt; MBR</tspan><tspan
         sodipodi:role="line"
         style="stroke-width:0.264583"
         x="1072.6519"
         y="283.90277"
         id="tspan889226">5- MBR -&gt; Rx</tspan></text>
    <text
       xml:space="preserve"
       style="font-size:7.05556px;line-height:1.25;font-family:sans-serif;stroke-width:0.264583"
       x="1159.4933"
       y="247.38101"
       id="text954362"><tspan
         sodipodi:role="line"
         id="tspan954360"
         style="stroke-width:0.264583"
         x="1159.4933"
         y="247.38101">1                         2                         3                         4                            5                   6                      7</tspan><tspan
         sodipodi:role="line"
         style="stroke-width:0.264583"
         x="1159.4933"
         y="256.20047"
         id="tspan954496" /></text>
    <text
       xml:space="preserve"
       style="font-size:7.05556px;line-height:1.25;font-family:sans-serif;stroke-width:0.264583"
       x="1157.7784"
       y="258.4035"
       id="text964376"><tspan
         sodipodi:role="line"
         id="tspan964374"
         style="stroke-width:0.264583"
         x="1157.7784"
         y="258.4035">1000 -&gt; MAR</tspan></text>
    <text
       xml:space="preserve"
       style="font-size:7.05556px;line-height:1.25;font-family:sans-serif;stroke-width:0.264583"
       x="1210.7344"
       y="257.3537"
       id="text988340"><tspan
         sodipodi:role="line"
         id="tspan988338"
         style="stroke-width:0.264583"
         x="1210.7344"
         y="257.3537"> MAR -&gt; MEM</tspan></text>
    <text
       xml:space="preserve"
       style="font-size:7.05556px;line-height:1.25;font-family:sans-serif;stroke-width:0.264583"
       x="1214.1947"
       y="269.45703"
       id="text1006294"><tspan
         sodipodi:role="line"
         id="tspan1006292"
         style="stroke-width:0.264583"
         x="1214.1947"
         y="269.45703">1001 -&gt; MAR</tspan></text>
    <path
       style="fill:none;stroke:#000000;stroke-width:0.264583px;stroke-linecap:butt;stroke-linejoin:miter;stroke-opacity:1"
       d="m 922.3469,285.59619 c 0.14824,-0.11472 0.35401,-0.50818 0.44468,-0.34414 0.003,0.006 -0.19685,2.95255 -0.27633,3.03699"
       id="path1016193" />
    <text
       xml:space="preserve"
       style="font-size:7.05556px;line-height:1.25;font-family:sans-serif;stroke-width:0.264583"
       x="1264.486"
       y="257.66611"
       id="text1022281"><tspan
         sodipodi:role="line"
         id="tspan1022279"
         style="stroke-width:0.264583"
         x="1264.486"
         y="257.66611">Mem -&gt; D</tspan></text>
    <text
       xml:space="preserve"
       style="font-size:7.05556px;line-height:1.25;font-family:sans-serif;stroke-width:0.264583"
       x="1266.3773"
       y="269.19745"
       id="text1036291"><tspan
         sodipodi:role="line"
         id="tspan1036289"
         style="stroke-width:0.264583"
         x="1266.3773"
         y="269.19745">MAR -&gt; MEM</tspan></text>
    <path
       style="fill:none;stroke:#000000;stroke-width:0.264583px;stroke-linecap:butt;stroke-linejoin:miter;stroke-opacity:1"
       d="m 934.82825,308.90289 c -0.3151,-0.0151 -0.6422,-0.133 -0.94523,-0.0454 -0.0892,0.0258 0.14637,1.10561 0.20154,1.32635 0.0388,0.1553 -0.0772,0.44041 0,0.58184 0.27932,0.51151 0.0773,1.33319 0.37242,1.92345"
       id="path1047200" />
    <path
       style="fill:none;stroke:#000000;stroke-width:0.264583px;stroke-linecap:butt;stroke-linejoin:miter;stroke-opacity:1"
       d="m 1002.4478,296.95048 c 0.032,-0.19405 0.2892,-0.55041 0.095,-0.58214 -0.1941,-0.0317 -0.095,0.38552 -0.095,0.58214 0,0.21852 0.096,0.43009 0.095,0.64861 0,0.30937 -0.076,0.6143 -0.1008,0.92264 -0.071,0.86238 0,1.75839 0,2.62432"
       id="path1047202" />
    <path
       style="fill:none;stroke:#000000;stroke-width:0.264583px;stroke-linecap:butt;stroke-linejoin:miter;stroke-opacity:1"
       d="m 961.43065,268.17422 c -0.031,0.17098 -0.22651,3.4751 -0.003,3.4751"
       id="path1047204" />
    <path
       style="fill:none;stroke:#000000;stroke-width:0.264583px;stroke-linecap:butt;stroke-linejoin:miter;stroke-opacity:1"
       d="m 961.43065,268.17422 c 2.15077,0.13945 0.9344,2.12701 1.96516,2.98598 0.4173,0.34774 0.62045,-0.0763 0.77724,-0.39367 0.19608,-0.39685 0.034,-0.23775 0.10078,-0.70541 0.161,-1.12705 -0.21923,-1.31889 -1.20928,-1.81391 -0.0609,-0.0305 -0.46902,-0.30596 -0.50387,-0.30232 -0.38227,0.0399 -0.75335,0.15289 -1.13003,0.22933"
       id="path1047206" />
    <path
       style="fill:none;stroke:#000000;stroke-width:0.264583px;stroke-linecap:butt;stroke-linejoin:miter;stroke-opacity:1"
       d="m 965.92875,267.13621 c -0.43649,0.61294 -0.25959,0.31102 -0.55089,0.89366 -0.4227,0.84538 -0.83093,1.46336 0.40119,1.70978 0.13305,0.0266 0.27635,0.16763 0.39444,0.10078 0.0788,-0.0446 0.11369,-2.09884 -0.59812,-2.09884"
       id="path1047208" />
    <path
       style="fill:none;stroke:#000000;stroke-width:0.264583px;stroke-linecap:butt;stroke-linejoin:miter;stroke-opacity:1"
       d="m 968.08246,267.34351 c -0.64789,0.56803 -0.42887,0.25689 -0.73647,0.87208 -0.27826,0.5565 -0.34727,0.69413 0.0916,1.02329 0.17598,0.13199 0.39436,0.35005 0.60463,0.40309 0.73361,0.18507 0.9235,-0.8225 0.80256,-1.30631 -0.10115,-0.40462 -0.50565,-0.66344 -0.76234,-0.99215 z"
       id="path1047210" />
    <path
       style="fill:none;stroke:#000000;stroke-width:0.264583px;stroke-linecap:butt;stroke-linejoin:miter;stroke-opacity:1"
       d="m 930.95157,330.63372 c 0.1147,0.46879 -0.22159,2.03094 0.10075,2.35329"
       id="path1047212" />
    <path
       style="fill:none;stroke:#000000;stroke-width:0.264583px;stroke-linecap:butt;stroke-linejoin:miter;stroke-opacity:1"
       d="m 933.88646,330.89537 c -0.70694,0.21844 -2.79432,1.89915 -1.36459,2.5119 0.16391,0.0703 0.62307,0.16201 0.80619,0.10075 0.18685,-0.0625 0.35721,-0.17594 0.50676,-0.30424 0.19288,-0.16547 0.96414,-1.49685 0.70638,-1.88346 -0.14433,-0.21649 -0.44312,-0.27358 -0.65474,-0.42495 z"
       id="path1047214" />
    <path
       style="fill:none;stroke:#000000;stroke-width:0.264583px;stroke-linecap:butt;stroke-linejoin:miter;stroke-opacity:1"
       d="m 933.88644,330.89537 c 0.51413,0.1103 1.06095,0.11946 1.54238,0.33094 0.0972,0.0427 -0.0833,0.19756 -0.10078,0.30234 -0.007,0.0411 -0.0464,0.77404 0,0.80494 0.42061,0.27983 1.31609,0.64643 1.58997,0.10734 0.0529,-0.10403 0,-0.65767 0,-0.70048 0,-0.25278 0.0506,-0.57915 -0.10076,-0.80619 -0.0557,-0.0835 -0.41569,-0.14335 -0.50017,-0.19968 -0.11858,-0.0791 -0.20153,-0.20156 -0.30231,-0.30231"
       id="path1047216" />
    <path
       style="fill:none;stroke:#000000;stroke-width:0.264583px;stroke-linecap:butt;stroke-linejoin:miter;stroke-opacity:1"
       d="m 938.60692,330.64113 c -0.2459,0.27906 -0.73837,0.50168 -0.87051,0.89628 -0.0557,0.16655 0.10057,0.33687 0.18601,0.44111 0.59899,0.7307 1.19538,0.80449 1.87968,0.30231 0.20462,-0.15017 0.0932,-0.90947 0.0932,-1.15591 0,-0.376 -0.45426,-0.36179 -0.66182,-0.56938"
       id="path1047218" />
    <text
       xml:space="preserve"
       style="font-size:7.05556px;line-height:1.25;font-family:sans-serif;stroke-width:0.264583"
       x="1317.3142"
       y="257.24365"
       id="text1053514"><tspan
         sodipodi:role="line"
         id="tspan1053512"
         style="stroke-width:0.264583"
         x="1317.3142"
         y="257.24365">D -&gt; MBR</tspan></text>
    <text
       xml:space="preserve"
       style="font-size:7.05556px;line-height:1.25;font-family:sans-serif;stroke-width:0.264583"
       x="1318.6266"
       y="268.89261"
       id="text1068464"><tspan
         sodipodi:role="line"
         id="tspan1068462"
         style="stroke-width:0.264583"
         x="1318.6266"
         y="268.89261">Mem -&gt; D</tspan></text>
    <path
       style="fill:none;stroke:#000000;stroke-width:0.264583px;stroke-linecap:butt;stroke-linejoin:miter;stroke-opacity:1"
       d="m 881.36405,342.86634 c 0,2.11179 0,4.95405 0,6.62321"
       id="path1087563" />
    <path
       style="fill:none;stroke:#000000;stroke-width:0.264583px;stroke-linecap:butt;stroke-linejoin:miter;stroke-opacity:1"
       d="m 879.50898,345.35323 c 0.72303,-0.56758 3.53158,-2.75928 4.52281,-2.33217 0.57193,0.24641 0.90927,0.83458 1.28262,1.28263 0.24525,0.29429 0.58492,0.4736 0.71258,0.85508 0.19447,0.58105 -0.56071,1.30693 -0.84897,1.67833 -0.91318,1.17657 -1.79559,2.32994 -3.30224,2.74058 -0.52107,0.14203 -1.41711,0.17907 -1.91878,0.29583 -0.77756,0.18097 -0.83667,0.31311 -1.50792,0.31311"
       id="path1087565" />
    <path
       style="fill:none;stroke:#000000;stroke-width:0.264583px;stroke-linecap:butt;stroke-linejoin:miter;stroke-opacity:1"
       d="m 887.83047,348.66362 c 0.0883,0.97658 -0.10663,1.98417 0,2.95876 0.15753,1.43989 0.1425,-0.0286 0.1425,0.57004"
       id="path1087567" />
    <path
       style="fill:none;stroke:#000000;stroke-width:0.264583px;stroke-linecap:butt;stroke-linejoin:miter;stroke-opacity:1"
       d="m 890.75245,350.12963 c -0.30089,0.72733 -1.01656,1.84716 0.0722,2.11933 0.14573,0.0364 0.27937,0.16722 0.42754,0.14254 0.52416,-0.0874 0.39827,-0.36899 0.57007,-0.71258 0.0601,-0.12017 0.22492,-0.16486 0.28501,-0.28504 0.23495,-0.46987 0.19322,-1.33429 0.14078,-1.8629 -0.0382,-0.38505 -1.15237,-1.94887 -1.71016,-1.42513 -0.0325,0.0305 0,0.0892 0,0.1338 -0.90247,0.14132 -1.80493,0.28266 -2.7074,0.42397"
       id="path1087569" />
    <path
       style="fill:none;stroke:#000000;stroke-width:0.264583px;stroke-linecap:butt;stroke-linejoin:miter;stroke-opacity:1"
       d="m 894.48424,348.78504 c -0.5579,0.32361 -2.29323,2.95632 -1.39642,3.40333 1.27849,0.63725 2.47827,-0.807 2.28023,-1.99519 -0.0976,-0.58542 -0.52795,-0.93739 -0.88381,-1.40814 z"
       id="path1087571" />
    <path
       style="fill:none;stroke:#000000;stroke-width:0.264583px;stroke-linecap:butt;stroke-linejoin:miter;stroke-opacity:1"
       d="m 898.5449,349.17083 c -1.09087,-0.0523 -1.48426,0.56565 -1.74596,1.61245 -0.32575,1.30302 0.40471,1.49354 1.28262,1.99519 0.11669,0.0667 0.16029,0.23514 0.28504,0.28504 0.25527,0.1021 1.21023,0.0366 1.42515,-0.1425 0.85307,-0.71091 1.29686,-3.59524 0.57005,-4.32205 -0.39061,-0.39063 -1.5194,0.41322 -1.8169,0.57187 z"
       id="path1087573" />
    <path
       style="fill:none;stroke:#000000;stroke-width:0.264583px;stroke-linecap:butt;stroke-linejoin:miter;stroke-opacity:1"
       d="m 965.92875,267.13621 c 0.42801,-0.29109 0.76972,-0.93152 1.28407,-0.87326 0.34674,0.0393 0.0826,0.69373 0.15132,1.03585 0.0501,0.24951 0.2337,0.45937 0.28323,0.70899 0.0555,0.27957 -0.0469,0.57393 0,0.85508 0.0246,0.14818 0.095,0.28503 0.14254,0.42755 0.0475,0.19002 0.1148,0.37615 0.1425,0.57005 0.0204,0.14309 0.12729,1.22159 0.21188,1.13091 0.361,-0.38702 0.69691,-0.79671 1.04537,-1.19506"
       id="path1087575" />
    <path
       style="fill:none;stroke:#000000;stroke-width:0.264583px;stroke-linecap:butt;stroke-linejoin:miter;stroke-opacity:1"
       d="m 938.60692,330.64113 c -0.11848,-0.15266 -0.2754,-0.63391 -0.35544,-0.45802 -0.0795,0.17468 -0.44244,3.287 -0.44244,3.9447"
       id="path1087577" />
    <text
       xml:space="preserve"
       style="font-size:7.05556px;line-height:1.25;font-family:sans-serif;stroke-width:0.264583"
       x="1371.6296"
       y="257.87494"
       id="text1097119"><tspan
         sodipodi:role="line"
         id="tspan1097117"
         style="stroke-width:0.264583"
         x="1371.6296"
         y="257.87494">MBR -&gt; R0</tspan></text>
    <text
       xml:space="preserve"
       style="font-size:7.05556px;line-height:1.25;font-family:sans-serif;stroke-width:0.264583"
       x="1372.1593"
       y="268.11661"
       id="text1108859"><tspan
         sodipodi:role="line"
         id="tspan1108857"
         style="stroke-width:0.264583"
         x="1372.1593"
         y="268.11661">D -&gt; MBR</tspan></text>
    <text
       xml:space="preserve"
       style="font-size:7.05556px;line-height:1.25;font-family:sans-serif;stroke-width:0.264583"
       x="1267.579"
       y="283.42725"
       id="text1142751"><tspan
         sodipodi:role="line"
         id="tspan1142749"
         style="stroke-width:0.264583"
         x="1267.579"
         y="283.42725">1002 -&gt; MAR</tspan></text>
    <text
       xml:space="preserve"
       style="font-size:7.05556px;line-height:1.25;font-family:sans-serif;stroke-width:0.264583"
       x="1319.5121"
       y="283.81381"
       id="text1162707"><tspan
         sodipodi:role="line"
         id="tspan1162705"
         style="stroke-width:0.264583"
         x="1319.5121"
         y="283.81381">MAR -&gt; MEM</tspan></text>
    <text
       xml:space="preserve"
       style="font-size:7.05556px;line-height:1.25;font-family:sans-serif;stroke-width:0.264583"
       x="1374.0665"
       y="283.98123"
       id="text1174375"><tspan
         sodipodi:role="line"
         id="tspan1174373"
         style="stroke-width:0.264583"
         x="1374.0665"
         y="283.98123">Mem -&gt; D</tspan></text>
    <text
       xml:space="preserve"
       style="font-size:7.05556px;line-height:1.25;font-family:sans-serif;stroke-width:0.264583"
       x="1420.0526"
       y="268.48236"
       id="text1191121"><tspan
         sodipodi:role="line"
         id="tspan1191119"
         style="stroke-width:0.264583"
         x="1420.0526"
         y="268.48236">MBR -&gt; R1</tspan></text>
    <text
       xml:space="preserve"
       style="font-size:3.52778px;line-height:1.25;font-family:sans-serif;stroke-width:0.264583"
       x="1229.5258"
       y="251.70145"
       id="text1249943"><tspan
         sodipodi:role="line"
         id="tspan1249941"
         style="font-size:3.52778px;stroke-width:0.264583"
         x="1229.5258"
         y="251.70145">1000</tspan></text>
    <text
       xml:space="preserve"
       style="font-size:3.52778px;line-height:1.25;font-family:sans-serif;stroke-width:0.264583"
       x="1295.5781"
       y="257.8768"
       id="text1249943-4"><tspan
         sodipodi:role="line"
         id="tspan1249941-5"
         style="font-size:3.52778px;stroke-width:0.264583"
         x="1295.5781"
         y="257.8768">1000</tspan></text>
    <text
       xml:space="preserve"
       style="font-size:3.52778px;line-height:1.25;font-family:sans-serif;stroke-width:0.264583"
       x="1320.6031"
       y="259.84467"
       id="text1249943-0"><tspan
         sodipodi:role="line"
         id="tspan1249941-3"
         style="font-size:3.52778px;stroke-width:0.264583"
         x="1320.6031"
         y="259.84467">1000</tspan></text>
    <text
       xml:space="preserve"
       style="font-size:3.52778px;line-height:1.25;font-family:sans-serif;stroke-width:0.264583"
       x="1389.4928"
       y="251.72975"
       id="text1249943-6"><tspan
         sodipodi:role="line"
         id="tspan1249941-1"
         style="font-size:3.52778px;stroke-width:0.264583"
         x="1389.4928"
         y="251.72975">D1000</tspan></text>
    <text
       xml:space="preserve"
       style="font-size:3.52778px;line-height:1.25;font-family:sans-serif;stroke-width:0.264583"
       x="1283.4569"
       y="264.69202"
       id="text1249943-06"><tspan
         sodipodi:role="line"
         id="tspan1249941-32"
         style="font-size:3.52778px;stroke-width:0.264583"
         x="1283.4569"
         y="264.69202">1001</tspan></text>
    <text
       xml:space="preserve"
       style="font-size:3.52778px;line-height:1.25;font-family:sans-serif;stroke-width:0.264583"
       x="1349.145"
       y="270.2868"
       id="text1249943-06-0"><tspan
         sodipodi:role="line"
         id="tspan1249941-32-6"
         style="font-size:3.52778px;stroke-width:0.264583"
         x="1349.145"
         y="270.2868">1001</tspan></text>
    <text
       xml:space="preserve"
       style="font-size:3.52778px;line-height:1.25;font-family:sans-serif;stroke-width:0.264583"
       x="1379.2256"
       y="262.89587"
       id="text1249943-06-1"><tspan
         sodipodi:role="line"
         id="tspan1249941-32-5"
         style="font-size:3.52778px;stroke-width:0.264583"
         x="1379.2256"
         y="262.89587">D1001</tspan></text>
    <text
       xml:space="preserve"
       style="font-size:7.05556px;line-height:1.25;font-family:sans-serif;stroke-width:0.264583"
       x="1439.2542"
       y="258.92383"
       id="text1279530"><tspan
         sodipodi:role="line"
         id="tspan1279528"
         style="stroke-width:0.264583"></tspan></text>
    <text
       xml:space="preserve"
       style="font-size:3.52778px;line-height:1.25;font-family:sans-serif;stroke-width:0.264583"
       x="1436.4265"
       y="262.50119"
       id="text1249943-06-5"><tspan
         sodipodi:role="line"
         id="tspan1249941-32-4"
         style="font-size:3.52778px;stroke-width:0.264583"
         x="1436.4265"
         y="262.50119">D1001</tspan></text>
    <text
       xml:space="preserve"
       style="font-size:3.52778px;line-height:1.25;font-family:sans-serif;stroke-width:0.264583"
       x="1336.9758"
       y="277.93735"
       id="text1249943-06-7"><tspan
         sodipodi:role="line"
         id="tspan1249941-32-65"
         style="font-size:3.52778px;stroke-width:0.264583"
         x="1336.9758"
         y="277.93735">1002</tspan></text>
    <text
       xml:space="preserve"
       style="font-size:3.52778px;line-height:1.25;font-family:sans-serif;stroke-width:0.264583"
       x="1404.7054"
       y="285.20486"
       id="text1249943-06-6"><tspan
         sodipodi:role="line"
         id="tspan1249941-32-9"
         style="font-size:3.52778px;stroke-width:0.264583"
         x="1404.7054"
         y="285.20486">1002</tspan></text>
    <text
       xml:space="preserve"
       style="font-size:7.05556px;line-height:1.25;font-family:sans-serif;stroke-width:0.264583"
       x="1421.1807"
       y="283.42889"
       id="text1307451"><tspan
         sodipodi:role="line"
         id="tspan1307449"
         style="stroke-width:0.264583"
         x="1421.1807"
         y="283.42889">D -&gt; MBR</tspan></text>
    <text
       xml:space="preserve"
       style="font-size:3.52778px;line-height:1.25;font-family:sans-serif;stroke-width:0.264583"
       x="1424.5409"
       y="277.36728"
       id="text1249943-06-6-3"><tspan
         sodipodi:role="line"
         id="tspan1249941-32-9-7"
         style="font-size:3.52778px;stroke-width:0.264583"
         x="1424.5409"
         y="277.36728">D1002</tspan></text>
    <text
       xml:space="preserve"
       style="font-size:7.05556px;line-height:1.25;font-family:sans-serif;stroke-width:0.264583"
       x="1467.5056"
       y="283.98618"
       id="text1330868"><tspan
         sodipodi:role="line"
         id="tspan1330866"
         style="stroke-width:0.264583"
         x="1467.5056"
         y="283.98618">MBR -&gt; R4</tspan></text>
    <text
       xml:space="preserve"
       style="font-size:3.52778px;line-height:1.25;font-family:sans-serif;stroke-width:0.264583"
       x="1480.5853"
       y="279.08804"
       id="text1249943-06-5-4"><tspan
         sodipodi:role="line"
         id="tspan1249941-32-4-5"
         style="font-size:3.52778px;stroke-width:0.264583"
         x="1480.5853"
         y="279.08804">D1002</tspan></text>
  </g>
</svg>
